<svg width="22" height="22" viewBox="0 0 22 22" fill="none" xmlns="http://www.w3.org/2000/svg">
<path d="M11 22C17.0751 22 22 17.0751 22 11C22 4.92487 17.0751 0 11 0C4.92487 0 0 4.92487 0 11C0 17.0751 4.92487 22 11 22Z" fill="url(#paint0_linear)"/>
<path d="M11 2.62109C6.38 2.62109 2.62109 6.38 2.62109 11C2.62109 15.62 6.38 19.3789 11 19.3789C15.62 19.3789 19.3789 15.62 19.3789 11C19.3789 6.38 15.62 2.62109 11 2.62109ZM11 10.3555C12.4212 10.3555 13.5781 11.5117 13.5781 12.9336C13.5781 14.1316 12.7531 15.132 11.6445 15.4202V16.1562C11.6445 16.5125 11.3563 16.8008 11 16.8008C10.6437 16.8008 10.3555 16.5125 10.3555 16.1562V15.4202C9.24687 15.132 8.42188 14.1316 8.42188 12.9336C8.42188 12.5773 8.71015 12.2891 9.06641 12.2891C9.42266 12.2891 9.71094 12.5773 9.71094 12.9336C9.71094 13.6442 10.2887 14.2227 11 14.2227C11.7113 14.2227 12.2891 13.6442 12.2891 12.9336C12.2891 12.223 11.7113 11.6445 11 11.6445C9.57877 11.6445 8.42188 10.4883 8.42188 9.06641C8.42188 7.86844 9.24687 6.86804 10.3555 6.57985V5.84375C10.3555 5.4875 10.6437 5.19922 11 5.19922C11.3563 5.19922 11.6445 5.4875 11.6445 5.84375V6.57985C12.7531 6.86804 13.5781 7.86844 13.5781 9.06641C13.5781 9.42266 13.2898 9.71094 12.9336 9.71094C12.5773 9.71094 12.2891 9.42266 12.2891 9.06641C12.2891 8.35579 11.7113 7.77734 11 7.77734C10.2887 7.77734 9.71094 8.35579 9.71094 9.06641C9.71094 9.77702 10.2887 10.3555 11 10.3555Z" fill="url(#paint1_linear)"/>
<defs>
<linearGradient id="paint0_linear" x1="11" y1="22" x2="11" y2="0" gradientUnits="userSpaceOnUse">
<stop stop-color="#FD5900"/>
<stop offset="1" stop-color="#FFDE00"/>
</linearGradient>
<linearGradient id="paint1_linear" x1="11" y1="19.3789" x2="11" y2="2.62109" gradientUnits="userSpaceOnUse">
<stop stop-color="#FFE59A"/>
<stop offset="1" stop-color="#FFFFD5"/>
</linearGradient>
</defs>
</svg>
