<svg width="20" height="20" viewBox="0 0 20 20" fill="none" xmlns="http://www.w3.org/2000/svg">
<g clip-path="url(#clip0)">
<path d="M19.8715 7.24419L17.0768 3.65742C16.3972 2.78529 15.3734 2.28516 14.2677 2.28516H12.4244C12.1689 2.28516 11.9406 2.44477 11.8529 2.6848C11.5697 3.4593 10.8251 3.97969 10 3.97969C9.17492 3.97969 8.43041 3.4593 8.14717 2.6848C8.05946 2.44477 7.83116 2.28516 7.57566 2.28516H5.7322C4.62665 2.28516 3.60273 2.78529 2.92316 3.65751L0.128546 7.24419C0.00709803 7.40006 -0.0311534 7.60514 0.0260499 7.79431C0.0832531 7.98348 0.228695 8.1331 0.416214 8.19552L4.28987 9.48607V17.1087C4.28987 17.4448 4.56232 17.7172 4.89841 17.7172H15.1016C15.4377 17.7172 15.7102 17.4448 15.7102 17.1087V9.48607L19.5838 8.19552C19.7713 8.1331 19.9168 7.98348 19.974 7.79431C20.0312 7.60514 19.9929 7.40006 19.8715 7.24419ZM15.7102 8.20325V7.30869C15.7102 6.9726 15.4377 6.70015 15.1016 6.70015C14.7655 6.70015 14.4931 6.9726 14.4931 7.30869V16.5002H5.50687V7.30869C5.50687 6.9726 5.23442 6.70015 4.89832 6.70015C4.56223 6.70015 4.28978 6.9726 4.28978 7.30869V8.20325L1.61774 7.31304L3.88318 4.40559C4.33055 3.83147 5.00438 3.50225 5.7322 3.50225H7.18237C7.72962 4.53086 8.81336 5.1967 9.99993 5.1967C11.1865 5.1967 12.2702 4.53077 12.8176 3.50225H14.2677C14.9955 3.50225 15.6694 3.83147 16.1168 4.4055L18.3823 7.31304L15.7102 8.20325Z" fill="#FF0000"/>
</g>
<defs>
<clipPath id="clip0">
<rect width="20" height="20" fill="white"/>
</clipPath>
</defs>
</svg>
