<svg width="97" height="13" viewBox="0 0 97 13" fill="none" xmlns="http://www.w3.org/2000/svg">
<g clip-path="url(#clip0)">
<path d="M86.9097 12.7365C86.7672 12.7365 86.6258 12.6921 86.5051 12.6048C86.2803 12.4418 86.1752 12.1617 86.2364 11.8915L87.0727 8.20744L84.2365 5.72009C84.028 5.53808 83.9483 5.24985 84.0339 4.98612C84.1195 4.72289 84.3524 4.53652 84.6281 4.51103L88.3809 4.17033L89.8646 0.698169C89.974 0.443066 90.2231 0.27832 90.5 0.27832C90.7768 0.27832 91.0259 0.443066 91.1353 0.697574L92.619 4.17033L96.3712 4.51103C96.6475 4.53592 96.8804 4.72289 96.966 4.98612C97.0516 5.24936 96.9725 5.53808 96.764 5.72009L93.9277 8.20695L94.764 11.8909C94.8253 12.1617 94.7202 12.4418 94.4954 12.6043C94.2712 12.7668 93.9721 12.7793 93.736 12.6373L90.5 10.7035L87.264 12.6384C87.1546 12.7034 87.0327 12.7365 86.9097 12.7365ZM90.5 9.87047C90.623 9.87047 90.7448 9.9035 90.8543 9.96847L93.9082 11.7951L93.1189 8.31793C93.0626 8.07047 93.1466 7.81209 93.3378 7.64467L96.0159 5.29597L92.4727 4.97422C92.2176 4.95091 91.9982 4.79053 91.8986 4.55546L90.5 1.2788L89.0997 4.55596C89.0011 4.78944 88.7817 4.94982 88.5272 4.97313L84.9835 5.29488L87.6615 7.64358C87.8533 7.8115 87.9372 8.06938 87.8804 8.31744L87.0917 11.7945L90.1457 9.96847C90.2551 9.9035 90.377 9.87047 90.5 9.87047ZM88.3522 4.23748C88.3522 4.23748 88.3522 4.23807 88.3516 4.23857L88.3522 4.23748ZM92.6466 4.23589L92.6472 4.23698C92.6472 4.23638 92.6472 4.23638 92.6466 4.23589Z" fill="#FFC107"/>
</g>
<g clip-path="url(#clip1)">
<path d="M65.9097 12.7365C65.7672 12.7365 65.6258 12.6921 65.5051 12.6048C65.2803 12.4418 65.1752 12.1617 65.2364 11.8915L66.0727 8.20744L63.2365 5.72009C63.028 5.53808 62.9483 5.24985 63.0339 4.98612C63.1195 4.72289 63.3524 4.53652 63.6281 4.51103L67.3809 4.17033L68.8646 0.698169C68.974 0.443066 69.2231 0.27832 69.5 0.27832C69.7768 0.27832 70.0259 0.443066 70.1353 0.697574L71.619 4.17033L75.3712 4.51103C75.6475 4.53592 75.8804 4.72289 75.966 4.98612C76.0516 5.24936 75.9725 5.53808 75.764 5.72009L72.9277 8.20695L73.764 11.8909C73.8253 12.1617 73.7202 12.4418 73.4954 12.6043C73.2712 12.7668 72.9721 12.7793 72.736 12.6373L69.5 10.7035L66.264 12.6384C66.1546 12.7034 66.0327 12.7365 65.9097 12.7365ZM69.5 9.87047C69.623 9.87047 69.7448 9.9035 69.8543 9.96847L72.9082 11.7951L72.1189 8.31793C72.0626 8.07047 72.1466 7.81209 72.3378 7.64467L75.0159 5.29597L71.4727 4.97422C71.2176 4.95091 70.9982 4.79053 70.8986 4.55546L69.5 1.2788L68.0997 4.55596C68.0011 4.78944 67.7817 4.94982 67.5272 4.97313L63.9835 5.29488L66.6615 7.64358C66.8533 7.8115 66.9372 8.06938 66.8804 8.31744L66.0917 11.7945L69.1457 9.96847C69.2551 9.9035 69.377 9.87047 69.5 9.87047ZM67.3522 4.23748C67.3522 4.23748 67.3522 4.23807 67.3516 4.23857L67.3522 4.23748ZM71.6466 4.23589L71.6472 4.23698C71.6472 4.23638 71.6472 4.23638 71.6466 4.23589Z" fill="#FFC107"/>
</g>
<g clip-path="url(#clip2)">
<path d="M44.9097 12.7365C44.7672 12.7365 44.6258 12.6921 44.5051 12.6048C44.2803 12.4418 44.1752 12.1617 44.2364 11.8915L45.0727 8.20744L42.2365 5.72009C42.028 5.53808 41.9483 5.24985 42.0339 4.98612C42.1195 4.72289 42.3524 4.53652 42.6281 4.51103L46.3809 4.17033L47.8646 0.698169C47.974 0.443066 48.2231 0.27832 48.5 0.27832C48.7768 0.27832 49.0259 0.443066 49.1353 0.697574L50.619 4.17033L54.3712 4.51103C54.6475 4.53592 54.8804 4.72289 54.966 4.98612C55.0516 5.24936 54.9725 5.53808 54.764 5.72009L51.9277 8.20695L52.764 11.8909C52.8253 12.1617 52.7202 12.4418 52.4954 12.6043C52.2712 12.7668 51.9721 12.7793 51.736 12.6373L48.5 10.7035L45.264 12.6384C45.1546 12.7034 45.0327 12.7365 44.9097 12.7365ZM48.5 9.87047C48.623 9.87047 48.7448 9.9035 48.8543 9.96847L51.9082 11.7951L51.1189 8.31793C51.0626 8.07047 51.1466 7.81209 51.3378 7.64467L54.0159 5.29597L50.4727 4.97422C50.2176 4.95091 49.9982 4.79053 49.8986 4.55546L48.5 1.2788L47.0997 4.55596C47.0011 4.78944 46.7817 4.94982 46.5272 4.97313L42.9835 5.29488L45.6615 7.64358C45.8533 7.8115 45.9372 8.06938 45.8804 8.31744L45.0917 11.7945L48.1457 9.96847C48.2551 9.9035 48.377 9.87047 48.5 9.87047ZM46.3522 4.23748C46.3522 4.23748 46.3522 4.23807 46.3516 4.23857L46.3522 4.23748ZM50.6466 4.23589L50.6472 4.23698C50.6472 4.23638 50.6472 4.23638 50.6466 4.23589Z" fill="#FFC107"/>
</g>
<g clip-path="url(#clip3)">
<path d="M12.9661 4.9871C12.881 4.72386 12.6475 4.5369 12.3713 4.512L8.61915 4.1713L7.13544 0.69855C7.02604 0.444043 6.77689 0.279297 6.50007 0.279297C6.22324 0.279297 5.97409 0.444043 5.86469 0.699146L4.38099 4.1713L0.628234 4.512C0.352501 4.53749 0.119615 4.72386 0.0340187 4.9871C-0.0515777 5.25033 0.0274725 5.53906 0.236058 5.72106L3.07224 8.20842L2.23592 11.8924C2.17472 12.1633 2.27986 12.4433 2.50461 12.6058C2.62542 12.6931 2.76675 12.7375 2.90928 12.7375C3.03217 12.7375 3.15407 12.7044 3.26347 12.6389L6.50007 10.7045L9.73547 12.6389C9.97222 12.7813 10.2707 12.7683 10.4949 12.6058C10.7198 12.4428 10.8248 12.1627 10.7636 11.8924L9.92729 8.20842L12.7635 5.72156C12.9721 5.53906 13.0517 5.25083 12.9661 4.9871Z" fill="#FFC107"/>
</g>
<g clip-path="url(#clip4)">
<path d="M33.9661 4.9871C33.881 4.72386 33.6475 4.5369 33.3713 4.512L29.6191 4.1713L28.1354 0.69855C28.026 0.444043 27.7769 0.279297 27.5001 0.279297C27.2232 0.279297 26.9741 0.444043 26.8647 0.699146L25.381 4.1713L21.6282 4.512C21.3525 4.53749 21.1196 4.72386 21.034 4.9871C20.9484 5.25033 21.0275 5.53906 21.2361 5.72106L24.0722 8.20842L23.2359 11.8924C23.1747 12.1633 23.2799 12.4433 23.5046 12.6058C23.6254 12.6931 23.7668 12.7375 23.9093 12.7375C24.0322 12.7375 24.1541 12.7044 24.2635 12.6389L27.5001 10.7045L30.7355 12.6389C30.9722 12.7813 31.2707 12.7683 31.4949 12.6058C31.7198 12.4428 31.8248 12.1627 31.7636 11.8924L30.9273 8.20842L33.7635 5.72156C33.9721 5.53906 34.0517 5.25083 33.9661 4.9871Z" fill="#FFC107"/>
</g>
<defs>
<clipPath id="clip0">
<rect width="13" height="13" fill="white" transform="translate(84)"/>
</clipPath>
<clipPath id="clip1">
<rect width="13" height="13" fill="white" transform="translate(63)"/>
</clipPath>
<clipPath id="clip2">
<rect width="13" height="13" fill="white" transform="translate(42)"/>
</clipPath>
<clipPath id="clip3">
<rect width="13" height="13" fill="white"/>
</clipPath>
<clipPath id="clip4">
<rect width="13" height="13" fill="white" transform="translate(21)"/>
</clipPath>
</defs>
</svg>
