<svg width="8" height="14" viewBox="0 0 8 14" fill="none" xmlns="http://www.w3.org/2000/svg">
<path d="M6.72853 0.333658L8 1.60513L2.6048 7.00033L8 12.3955L6.72853 13.667L0.697598 7.63606C0.346011 7.28447 0.346011 6.71618 0.697598 6.36459L6.72853 0.333658Z" fill="#333333"/>
</svg>
