<svg width="75" height="75" viewBox="0 0 75 75" fill="none" xmlns="http://www.w3.org/2000/svg">
<g clip-path="url(#clip0)">
<path d="M55.4469 46.4689L61.0125 41.6095C61.9875 40.7595 62.0906 39.2783 61.2375 38.3033C60.3875 37.3283 58.9063 37.2283 57.9281 38.0783L47.675 47.0283C47.1687 47.472 46.875 48.1158 46.875 48.7939C46.875 49.472 47.1687 50.1158 47.6781 50.5595L57.9313 59.5064C58.3781 59.8939 58.925 60.0845 59.4719 60.0845C60.125 60.0845 60.775 59.8126 61.2375 59.2814C62.0875 58.3064 61.9875 56.8251 61.0125 55.9751L55.5188 51.1814C63.7125 51.4283 70.3094 58.2689 70.3094 66.6876V72.6533C70.3094 73.947 71.3594 74.997 72.6531 74.997C73.9469 74.997 75 73.9501 75 72.6564V66.6908C75 55.6564 66.2625 46.672 55.4469 46.4689Z" fill="url(#paint0_linear)"/>
<path d="M28.8125 0L13.625 0.0625C11.6563 0.0625 9.8125 1.15625 8.875 2.875L0.9375 17.25L27.2812 17.1875L28.8125 0Z" fill="url(#paint1_linear)"/>
<path d="M61.5 17.125L53.4688 2.75C52.5 1.03125 50.6875 -0.0625 48.6875 -0.0625L33.5 0L35.0937 17.1875L61.5 17.125Z" fill="url(#paint2_linear)"/>
<path d="M62.5 31.8125C61.5625 31.4375 60.5313 31.25 59.4688 31.25C57.4063 31.25 55.4062 32 53.8125 33.375L43.5625 42.3125C41.6875 43.9375 40.625 46.3125 40.625 48.7812C40.625 51.2812 41.6875 53.625 43.5625 55.2813L51.8125 62.4688L5.03125 62.5938C5 62.5938 5 62.5938 5 62.5938C2.3125 62.5938 0.09375 60.375 0.09375 57.6563L-0.03125 21.9375L28.875 21.875H33.5625L62.4688 21.7812L62.5 31.8125Z" fill="url(#paint3_linear)"/>
</g>
<defs>
<linearGradient id="paint0_linear" x1="60.9375" y1="37.501" x2="60.9375" y2="74.997" gradientUnits="userSpaceOnUse">
<stop stop-color="#06A686"/>
<stop offset="1" stop-color="#084438"/>
</linearGradient>
<linearGradient id="paint1_linear" x1="14.875" y1="0" x2="14.875" y2="17.25" gradientUnits="userSpaceOnUse">
<stop stop-color="#06A686"/>
<stop offset="1" stop-color="#084438"/>
</linearGradient>
<linearGradient id="paint2_linear" x1="47.5" y1="-0.0625" x2="47.5" y2="17.1875" gradientUnits="userSpaceOnUse">
<stop stop-color="#06A686"/>
<stop offset="1" stop-color="#084438"/>
</linearGradient>
<linearGradient id="paint3_linear" x1="31.2344" y1="21.7812" x2="31.2344" y2="62.5938" gradientUnits="userSpaceOnUse">
<stop stop-color="#06A686"/>
<stop offset="1" stop-color="#084438"/>
</linearGradient>
<clipPath id="clip0">
<rect width="75" height="75" fill="white"/>
</clipPath>
</defs>
</svg>
