<svg width="40" height="41" viewBox="0 0 40 41" fill="none" xmlns="http://www.w3.org/2000/svg">
<g clip-path="url(#clip0)">
<path d="M38.4059 18.9633L35.7619 17.7929L33.5166 13.3244C32.9097 12.1009 31.6787 11.3384 30.335 11.3473H26.4686V10.2301C26.4686 8.20867 24.8908 6.55957 22.9143 6.55957H4.43175C2.4552 6.55957 0.894762 8.21753 0.894762 10.2301V27.3417C0.877424 28.5741 1.83969 29.5849 3.0447 29.6026C3.05337 29.6026 3.06204 29.6026 3.07937 29.6026H3.53884C3.53884 29.6913 3.53017 29.7267 3.53017 29.7799C3.5215 32.3156 5.52406 34.3814 8.00342 34.3903C10.4828 34.3992 12.5027 32.3511 12.5113 29.8154C12.5113 29.7977 12.5113 29.7888 12.5113 29.7711C12.5113 29.709 12.5113 29.6824 12.5027 29.5937H27.4395C27.4395 29.6824 27.4395 29.7179 27.4395 29.7711C27.4309 32.3068 29.4334 34.3726 31.9128 34.3814C34.3921 34.3903 36.412 32.3422 36.4207 29.8065C36.4207 29.7888 36.4207 29.7799 36.4207 29.7622C36.4207 29.7001 36.4207 29.6735 36.4207 29.5849H37.539C38.744 29.5849 39.7236 28.583 39.7236 27.3506C39.7236 27.3417 39.7236 27.3329 39.7236 27.3151V21.0202C39.741 20.1513 39.2208 19.3268 38.4059 18.9633ZM8.02943 32.6259C6.50367 32.6259 5.27265 31.367 5.27265 29.8065C5.27265 28.2461 6.50367 26.9871 8.02943 26.9871C9.55519 26.9871 10.7862 28.2461 10.7862 29.8065C10.7862 31.3581 9.54652 32.6259 8.02943 32.6259ZM24.7348 27.8471H12.0952C11.367 26.2246 9.77191 25.1873 8.02943 25.1961C6.27827 25.1873 4.69182 26.2157 3.96362 27.8471H3.07937C2.81063 27.8471 2.62858 27.6343 2.62858 27.3595V22.7934H24.7348V27.8471ZM24.7348 10.239V21.0202H2.62858V10.239C2.62858 9.20167 3.41747 8.34166 4.43175 8.34166H22.9143C23.9285 8.35053 24.7434 9.20167 24.7348 10.2301V10.239ZM26.4686 13.1294H30.335C31.0199 13.1205 31.6614 13.5017 31.9821 14.1312L33.716 17.5624H26.4686V13.1294ZM31.9388 32.6259C30.413 32.6259 29.182 31.367 29.182 29.8065C29.182 28.2461 30.413 26.9871 31.9388 26.9871C33.4645 26.9871 34.6956 28.2461 34.6956 29.8065C34.6956 31.3581 33.4645 32.6259 31.9388 32.6259ZM37.9985 27.3595C37.9985 27.6343 37.8164 27.8471 37.5477 27.8471H36.0046C34.9556 25.5508 32.2855 24.5578 30.0403 25.6306C29.0867 26.0828 28.3151 26.8718 27.873 27.8471H26.4686V19.3356H34.9643L37.7211 20.5769C37.8945 20.6656 38.0071 20.8606 37.9985 21.0557V27.3595Z" fill="white"/>
</g>
<defs>
<clipPath id="clip0">
<rect width="38.8295" height="39.712" fill="white" transform="translate(0.894531 0.619141)"/>
</clipPath>
</defs>
</svg>
