<svg width="22" height="22" viewBox="0 0 22 22" fill="none" xmlns="http://www.w3.org/2000/svg">
<circle cx="11" cy="11" r="11" fill="#FFAE04"/>
<path d="M11.3516 12.7094C11.7557 12.6101 12.0547 12.35 12.0547 12.051C12.0547 11.752 11.7557 11.4918 11.3516 11.3926V12.7094Z" fill="white"/>
<path d="M11 7.13281C8.86763 7.13281 7.13281 8.86763 7.13281 11C7.13281 13.1324 8.86763 14.8672 11 14.8672C13.1324 14.8672 14.8672 13.1324 14.8672 11C14.8672 8.86763 13.1324 7.13281 11 7.13281ZM12.7578 12.0513C12.7578 12.7305 12.1529 13.2984 11.3516 13.4291V13.8125C11.3516 14.0068 11.1943 14.1641 11 14.1641C10.8057 14.1641 10.6484 14.0068 10.6484 13.8125V13.4291C9.84709 13.2984 9.24219 12.7305 9.24219 12.0513C9.24219 11.8569 9.39943 11.6997 9.59375 11.6997C9.78807 11.6997 9.94531 11.8569 9.94531 12.0513C9.94531 12.3503 10.2443 12.6104 10.6484 12.7097V11.3197C9.84709 11.189 9.24219 10.6211 9.24219 9.94189C9.24219 9.26267 9.84709 8.69473 10.6484 8.56409V8.18408C10.6484 7.98976 10.8057 7.83252 11 7.83252C11.1943 7.83252 11.3516 7.98976 11.3516 8.18408V8.56409C12.1529 8.69473 12.7578 9.26267 12.7578 9.94189C12.7578 10.1362 12.6006 10.2935 12.4062 10.2935C12.2119 10.2935 12.0547 10.1362 12.0547 9.94189C12.0547 9.6429 11.7557 9.38274 11.3516 9.28348V10.6735C12.1529 10.8041 12.7578 11.372 12.7578 12.0513Z" fill="white"/>
<path d="M10.6484 9.2832C10.2443 9.38246 9.94531 9.64262 9.94531 9.94161C9.94531 10.2406 10.2443 10.5008 10.6484 10.6V9.2832Z" fill="white"/>
<path d="M11 5C7.70445 5 5 7.70445 5 11C5 14.2955 7.70445 17 11 17C14.2955 17 17 14.2955 17 11C17 7.70445 14.2955 5 11 5ZM11 15.5703C8.48 15.5703 6.42969 13.52 6.42969 11C6.42969 8.48 8.48 6.42969 11 6.42969C13.52 6.42969 15.5703 8.48 15.5703 11C15.5703 13.52 13.52 15.5703 11 15.5703Z" fill="white"/>
</svg>
