<svg width="86" height="86" viewBox="0 0 86 86" fill="none" xmlns="http://www.w3.org/2000/svg">
<g clip-path="url(#clip0)">
<path d="M85.4963 31.2421L80.986 25.2285L78.4783 42.7833C78.2487 44.3914 77.4893 45.9098 76.3402 47.0587L45.4596 77.9394C42.7661 80.6333 39.1806 82.117 35.364 82.117C34.2234 82.117 33.1042 81.9816 32.0225 81.7239C33.6652 84.2922 36.5403 85.9999 39.8088 85.9999H76.762C81.856 85.9999 86.0003 81.8556 86.0003 76.7617V32.7538C86.0003 32.2088 85.8234 31.6783 85.4963 31.2421Z" fill="#113366"/>
<path d="M51.9917 41.8594C53.3832 41.8594 54.5112 40.7313 54.5112 39.3398C54.5112 37.9483 53.3832 36.8203 51.9917 36.8203C50.6002 36.8203 49.4722 37.9483 49.4722 39.3398C49.4722 40.7313 50.6002 41.8594 51.9917 41.8594Z" fill="#113366"/>
<path d="M23.4868 41.8594C24.8783 41.8594 26.0063 40.7313 26.0063 39.3398C26.0063 37.9483 24.8783 36.8203 23.4868 36.8203C22.0953 36.8203 20.9673 37.9483 20.9673 39.3398C20.9673 40.7313 22.0953 41.8594 23.4868 41.8594Z" fill="#113366"/>
<path d="M41.8967 74.3764L72.7774 43.4957C73.1629 43.1102 73.413 42.6102 73.4901 42.0705L77.0534 17.1283C77.1655 16.3432 76.9016 15.5511 76.3407 14.9904L70.996 9.64561L63.8697 16.772L65.6514 18.5537C66.6353 19.5375 66.6353 21.1328 65.6514 22.1168C65.1594 22.6088 64.5145 22.8548 63.8699 22.8548C63.2252 22.8548 62.5802 22.6088 62.0884 22.1168L54.962 14.9904C53.978 14.0066 53.978 12.4112 54.962 11.4273C55.9458 10.4435 57.5412 10.4435 58.5251 11.4273L60.3068 13.2089L67.433 6.08249L62.0882 0.737727C61.5276 0.17688 60.7354 -0.0861594 59.9503 0.0250359L35.008 3.58833C34.4683 3.66542 33.9683 3.91553 33.5828 4.30102L2.70206 35.1817C-0.900034 38.7837 -0.900034 44.6448 2.70206 48.2467L28.8318 74.3764C30.6327 76.1775 32.9986 77.0778 35.3642 77.0778C37.7299 77.0778 40.0958 76.1775 41.8967 74.3764ZM51.9923 31.7802C56.1601 31.7802 59.5509 35.171 59.5509 39.3388C59.5509 43.5066 56.1601 46.8974 51.9923 46.8974C47.8245 46.8974 44.4337 43.5066 44.4337 39.3388C44.4337 35.171 47.8245 31.7802 51.9923 31.7802ZM23.487 46.8974C19.3192 46.8974 15.9284 43.5066 15.9284 39.3388C15.9284 35.171 19.3192 31.7802 23.487 31.7802C27.6548 31.7802 31.0456 35.171 31.0456 39.3388C31.0456 43.5066 27.655 46.8974 23.487 46.8974ZM31.8015 59.6748C31.5374 59.6748 31.2687 59.6329 31.0045 59.5449C29.6844 59.1049 28.971 57.6781 29.4109 56.3579L41.288 20.7262C41.7281 19.4061 43.155 18.6927 44.475 19.1327C45.7951 19.5727 46.5085 20.9995 46.0686 22.3197L34.1915 57.9514C33.8394 59.0069 32.8563 59.6748 31.8015 59.6748Z" fill="#113366"/>
<path d="M76.3403 4.30097C77.3243 3.31717 77.3243 1.72181 76.3403 0.737845C75.3565 -0.245948 73.7612 -0.245948 72.7772 0.737845L67.4326 6.08261L70.9957 9.64573L76.3403 4.30097Z" fill="#113366"/>
</g>
<defs>
<clipPath id="clip0">
<rect width="86" height="86" fill="white"/>
</clipPath>
</defs>
</svg>
