<svg width="55" height="55" viewBox="0 0 55 55" fill="none" xmlns="http://www.w3.org/2000/svg">
<g clip-path="url(#clip0)">
<path d="M26.2889 24.2773C27.0139 26.425 28.939 27.7298 31.0566 27.7298C31.3958 27.7298 31.7283 27.6501 32.0616 27.5819L29.4893 31.4402C28.9952 32.1813 29.1951 33.1806 29.9362 33.6747C30.6891 34.1737 31.6846 33.958 32.1707 33.2278L35.6641 27.9878V46.8359H4.83398C2.16842 46.8359 -3.8147e-06 44.6675 -3.8147e-06 42.002V24.2773H26.2889ZM8.05664 40.3906H21.1621C22.0527 40.3906 22.7734 39.6699 22.7734 38.7793C22.7734 37.8887 22.0527 37.168 21.1621 37.168H8.05664C7.166 37.168 6.44531 37.8887 6.44531 38.7793C6.44531 39.6699 7.166 40.3906 8.05664 40.3906ZM8.05664 33.9453H21.1621C22.0527 33.9453 22.7734 33.2246 22.7734 32.334C22.7734 31.4433 22.0527 30.7227 21.1621 30.7227H8.05664C7.166 30.7227 6.44531 31.4433 6.44531 32.334C6.44531 33.2246 7.166 33.9453 8.05664 33.9453Z" fill="white"/>
<path d="M32.0748 21.1364L34.3706 22.6675L32.0748 24.1986C30.8525 25.0133 29.2188 24.138 29.2188 22.6691C29.2188 21.1937 30.8573 20.3247 32.0748 21.1364Z" fill="white"/>
<path d="M50.166 8.16406C52.8316 8.16406 55 10.3325 55 12.998V21.0547H48.2619C47.172 17.8263 43.4229 16.6323 40.6885 18.4536L38.8867 19.655V8.16406H50.166Z" fill="white"/>
<path d="M4.83398 8.16406H35.6641V19.655L33.8624 18.4536C31.1569 16.6461 27.3856 17.8025 26.2883 21.0547H-3.8147e-06V12.998C-3.8147e-06 10.3325 2.16842 8.16406 4.83398 8.16406Z" fill="white"/>
<path d="M42.476 21.1353C43.7001 20.3192 45.332 21.1998 45.332 22.6648C45.332 24.1341 43.7042 25.0148 42.476 24.1975L40.1802 22.6664L42.476 21.1353Z" fill="white"/>
<path d="M42.3801 33.2269C42.8742 33.9649 43.8733 34.1615 44.6146 33.6737C45.3557 33.1796 45.5556 32.1805 45.0614 31.4393L42.4892 27.5809C42.8224 27.6491 43.155 27.7288 43.4942 27.7288C45.6169 27.7288 47.5398 26.4188 48.2626 24.2764H55V42.0011C55 44.6666 52.8316 46.8351 50.166 46.8351H38.8867V27.9869L42.3801 33.2269Z" fill="white"/>
</g>
<defs>
<clipPath id="clip0">
<rect width="55" height="55" fill="white" transform="matrix(-1 0 0 1 55 0)"/>
</clipPath>
</defs>
</svg>
