<svg width="76" height="77" viewBox="0 0 76 77" fill="none" xmlns="http://www.w3.org/2000/svg">
<path d="M39.6735 33.5488C38.6717 36.5165 36.0115 38.3195 33.0854 38.3195C32.6168 38.3195 32.1572 38.2093 31.6967 38.1151L35.2511 43.4466C35.9339 44.4707 35.6577 45.8515 34.6336 46.5343C33.5932 47.2238 32.2176 46.9257 31.5459 45.9168L26.7188 38.676V64.7207H69.3203C73.0036 64.7207 76 61.7243 76 58.041V33.5488H39.6735ZM64.8672 55.8145H46.7578C45.5271 55.8145 44.5312 54.8186 44.5312 53.5879C44.5312 52.3572 45.5271 51.3613 46.7578 51.3613H64.8672C66.0979 51.3613 67.0938 52.3572 67.0938 53.5879C67.0938 54.8186 66.0979 55.8145 64.8672 55.8145ZM64.8672 46.9082H46.7578C45.5271 46.9082 44.5312 45.9123 44.5312 44.6816C44.5312 43.4509 45.5271 42.4551 46.7578 42.4551H64.8672C66.0979 42.4551 67.0938 43.4509 67.0938 44.6816C67.0938 45.9123 66.0979 46.9082 64.8672 46.9082Z" fill="#005DB6"/>
<path d="M31.6783 29.2074L28.5059 31.3231L31.6783 33.4388C33.3672 34.5645 35.6248 33.355 35.6248 31.3253C35.6248 29.2865 33.3607 28.0858 31.6783 29.2074Z" fill="#005DB6"/>
<path d="M6.67969 11.2832C2.99636 11.2832 0 14.2796 0 17.9629V29.0957H9.31089C10.8169 24.6347 15.9974 22.9848 19.7759 25.5014L22.2656 27.1616V11.2832H6.67969Z" fill="#005DB6"/>
<path d="M69.3203 11.2832H26.7188V27.1616L29.2083 25.5014C32.9469 23.0038 38.1581 24.6018 39.6744 29.0957H76V17.9629C76 14.2796 73.0036 11.2832 69.3203 11.2832Z" fill="#005DB6"/>
<path d="M17.3059 29.2076C15.6144 28.0799 13.3594 29.2968 13.3594 31.321C13.3594 33.3513 15.6088 34.5684 17.3059 33.4389L20.4783 31.3232L17.3059 29.2076Z" fill="#005DB6"/>
<path d="M17.4384 45.9178C16.7556 46.9375 15.375 47.2093 14.3508 46.5353C13.3267 45.8525 13.0505 44.4718 13.7333 43.4476L17.2876 38.116C16.8272 38.2103 16.3676 38.3204 15.899 38.3204C12.9657 38.3204 10.3087 36.5102 9.30985 33.5498H0V58.0421C0 61.7255 2.99636 64.7218 6.67969 64.7218H22.2656V38.6771L17.4384 45.9178Z" fill="#005DB6"/>
</svg>
