<svg width="32" height="32" viewBox="0 0 32 32" fill="none" xmlns="http://www.w3.org/2000/svg">
<path d="M12.6313 2.84424C12.6765 3.70749 13.0385 4.4798 13.6116 5.05511C14.226 5.66743 15.0648 6.04393 16.0003 6.04393C16.9358 6.04393 17.7745 5.66736 18.3886 5.05511C18.9622 4.4798 19.324 3.70755 19.3692 2.84424H12.6313Z" fill="#005DB6"/>
<path d="M26.3111 4.97817L21.1203 3.24805C20.8312 5.82155 18.6506 7.82192 15.9999 7.82261C13.3492 7.82192 11.1687 5.82155 10.8796 3.24805L5.68881 4.97817L0 14.2226L4.97775 17.7782L6.04444 16.3559V29.1559H25.9555V16.3559L27.0222 17.7782L32 14.2226L26.3111 4.97817Z" fill="#005DB6"/>
</svg>
