<svg width="32" height="32" viewBox="0 0 32 32" fill="none" xmlns="http://www.w3.org/2000/svg">
<g clip-path="url(#clip0)">
<path d="M29.1875 5.62502H18.2632L22.2879 1.60033C22.6541 1.23414 22.6541 0.640828 22.2879 0.274641C21.9217 -0.0915469 21.3284 -0.0915469 20.9622 0.274641L16 5.23683L11.0378 0.274703C10.6716 -0.0914844 10.0783 -0.0914844 9.71212 0.274703C9.34594 0.640891 9.34594 1.2342 9.71212 1.60039L13.7368 5.62502H2.8125C1.26163 5.62502 0 6.94914 0 8.50002V27.3125C0 28.8634 1.26163 30.125 2.8125 30.125H5.625V31.0625C5.625 31.5807 6.04431 32 6.5625 32C7.08069 32 7.5 31.5807 7.5 31.0625V30.125H24.4375V31.0625C24.4375 31.5807 24.8568 32 25.375 32C25.8932 32 26.3125 31.5807 26.3125 31.0625V30.125H29.1875C30.7384 30.125 32 28.8634 32 27.3125V8.50002C32 6.94914 30.7384 5.62502 29.1875 5.62502ZM24.4375 25.4375C24.4375 25.9557 24.0182 26.375 23.5 26.375H4.6875C4.16931 26.375 3.75 25.9557 3.75 25.4375V10.375C3.75 9.85683 4.16931 9.43752 4.6875 9.43752H23.5C24.0182 9.43752 24.4375 9.85683 24.4375 10.375V25.4375ZM28.1875 23.5625C28.1875 24.0807 27.7682 24.5 27.25 24.5C26.7318 24.5 26.3125 24.0807 26.3125 23.5625V19.75C26.3125 19.2318 26.7318 18.8125 27.25 18.8125C27.7682 18.8125 28.1875 19.2318 28.1875 19.75V23.5625ZM27.25 16.9375C26.7323 16.9375 26.3125 16.5178 26.3125 16C26.3125 15.4823 26.7323 15.0625 27.25 15.0625C27.7677 15.0625 28.1875 15.4823 28.1875 16C28.1875 16.5178 27.7677 16.9375 27.25 16.9375ZM27.25 13.1875C26.7323 13.1875 26.3125 12.7678 26.3125 12.25C26.3125 11.7323 26.7323 11.3125 27.25 11.3125C27.7677 11.3125 28.1875 11.7323 28.1875 12.25C28.1875 12.7678 27.7677 13.1875 27.25 13.1875Z" fill="#005DB6"/>
<path d="M5.625 11.3125H22.5625V24.5H5.625V11.3125Z" fill="#005DB6"/>
</g>
<defs>
<clipPath id="clip0">
<rect width="32" height="32" fill="white"/>
</clipPath>
</defs>
</svg>
