<svg width="38" height="38" viewBox="0 0 38 38" fill="none" xmlns="http://www.w3.org/2000/svg">
<path d="M8.48551 19.5807C8.31037 19.5807 8.13686 19.5036 8.02011 19.3556C5.32163 15.9373 3.05354 14.7092 1.62556 14.281C1.31194 14.187 1.13463 13.8569 1.22804 13.5438C1.32144 13.2307 1.65054 13.0512 1.96524 13.1468C4.27977 13.8408 6.62933 15.6829 8.94956 18.6219C9.15212 18.8785 9.10813 19.2511 8.85126 19.4531C8.74374 19.5389 8.61422 19.5807 8.48551 19.5807Z" fill="white"/>
<path d="M4.73641 34.2891H3.31767C2.99509 34.2891 2.73197 34.0314 2.72546 33.7088C2.72328 33.5763 2.45121 20.4079 1.67789 17.2264C1.43053 16.2095 1.26218 14.9721 1.2038 13.7415C1.18832 13.4146 1.44112 13.1374 1.76777 13.1219C1.77673 13.1216 1.78596 13.1211 1.79574 13.1211C2.1099 13.1211 2.37165 13.3682 2.38659 13.6853C2.44035 14.826 2.60164 16.0145 2.82837 16.9461C3.54602 19.8966 3.8352 30.47 3.89684 33.1052H4.1195L3.79067 25.0932C3.78986 24.5039 3.85693 19.5064 6.18204 17.956C6.63115 17.6559 7.58178 17.3353 8.88893 18.5552C9.12788 18.7782 9.14064 19.1529 8.91771 19.3918C8.69506 19.6313 8.32089 19.6449 8.08058 19.4209C7.7075 19.0728 7.19105 18.7081 6.8386 18.9411C5.30853 19.9612 4.974 23.7105 4.974 25.0687L5.32808 33.6727C5.33459 33.8337 5.2754 33.9907 5.16353 34.1069C5.0522 34.2234 4.89797 34.2891 4.73641 34.2891Z" fill="white"/>
<path d="M20.6599 34.0101C19.8738 34.0101 19.1887 33.9691 18.6495 33.8755C14.3688 33.1306 11.8493 25.6538 11.6342 24.9926C11.4632 24.622 9.73024 20.9316 8.08042 19.3909C8.0587 19.3703 8.03834 19.3486 8.01987 19.3252C5.87288 16.6058 3.72154 14.9079 1.62532 14.2791C1.38475 14.2069 1.21558 13.9907 1.20336 13.7398C1.07276 10.9816 1.53545 8.61115 2.47331 7.23584C3.85785 5.20398 6.44364 3.58674 6.55279 3.51859C6.69507 3.43061 6.86695 3.40672 7.02716 3.45234C7.18736 3.49768 7.32095 3.60874 7.39535 3.75781C11.7521 12.506 19.2936 26.7214 20.9817 27.6259C21.5994 27.9569 22.1335 28.0403 22.5679 27.8752C23.2248 27.6264 23.5148 26.8849 23.5178 26.8778C23.5254 26.8575 23.5335 26.8379 23.5433 26.8186L24.4301 25.0447C24.5023 24.9003 24.63 24.7919 24.7839 24.7441C24.9368 24.6964 25.1043 24.7126 25.2461 24.7908C25.3047 24.8234 31.166 28.0424 35.5512 28.9882C35.5602 28.9901 35.5694 28.9925 35.5789 28.995C35.6568 29.0156 36.3498 29.2179 36.6623 29.9133C36.9018 30.4438 36.8429 31.073 36.488 31.7828C36.4049 31.9481 36.2496 32.0654 36.0682 32.0999C35.5984 32.1887 25.9015 34.0101 20.6599 34.0101ZM8.92271 18.5573C10.812 20.3489 12.6487 24.361 12.7258 24.5318C12.7355 24.5535 12.7437 24.575 12.7513 24.5972C12.7749 24.6719 15.1739 32.069 18.8523 32.7087C22.4384 33.3321 33.5473 31.3578 35.5414 30.9926C35.6305 30.7442 35.6457 30.5386 35.583 30.3996C35.5075 30.2307 35.3131 30.1528 35.2788 30.1405C31.4755 29.3151 26.7973 26.9536 25.2165 26.1192L24.6137 27.3256C24.5265 27.5387 24.0535 28.5784 22.988 28.9825C22.2166 29.2733 21.3539 29.1685 20.4231 28.6694C19.9553 28.419 18.7133 27.7532 12.3312 15.8656C9.80383 11.1581 7.45156 6.5095 6.63751 4.88792C5.83677 5.45162 4.33574 6.60589 3.45164 7.90327C2.7109 8.98966 2.3142 10.9789 2.37149 13.2779C4.56247 14.0578 6.76431 15.8314 8.92271 18.5573Z" fill="white"/>
</svg>
