<svg width="20" height="20" viewBox="0 0 20 20" fill="none" xmlns="http://www.w3.org/2000/svg">
<g clip-path="url(#clip0)">
<path d="M17.7811 2.21678C17.4954 1.927 17.0301 1.93109 16.7404 2.21678L14.1283 4.82884C10.8918 3.35956 7.43896 3.71872 4.14531 5.86959C1.69242 7.46948 0.202726 9.48158 0.141506 9.56729C-0.0543987 9.83666 -0.046236 10.204 0.161913 10.4652C1.55773 12.1794 3.01886 13.514 4.51263 14.4445L2.21483 16.7423C1.92914 17.028 1.92914 17.4933 2.21483 17.7831C2.35768 17.9259 2.54542 17.9994 2.73316 17.9994C2.92091 17.9994 3.10865 17.9259 3.25149 17.7831L17.7811 3.25752C18.0668 2.97183 18.0668 2.50656 17.7811 2.21678ZM8.18176 10.7754C8.07565 10.5346 8.02259 10.2734 8.02259 9.99992C8.02259 9.47342 8.22666 8.9755 8.60214 8.60001C9.18986 8.0123 10.0592 7.87353 10.7775 8.17963L8.18176 10.7754ZM11.8631 7.09807C10.5285 6.24099 8.72867 6.39608 7.56548 7.55927C6.91247 8.21228 6.55739 9.07753 6.55739 9.99583C6.55739 10.6652 6.74921 11.3059 7.10429 11.8569L5.59011 13.3711C4.26367 12.6038 2.95764 11.4692 1.68834 9.98767C2.23116 9.35098 3.37802 8.12249 4.94934 7.09807C7.66751 5.32677 10.3735 4.94312 13.01 5.95122L11.8631 7.09807Z" fill="#333333"/>
<path d="M19.8381 9.53473C18.8301 8.294 17.7852 7.24917 16.7241 6.42066C16.4016 6.17169 15.9405 6.22883 15.6874 6.54718C15.4385 6.86552 15.4956 7.32672 15.8139 7.57976C16.6547 8.23686 17.4955 9.05313 18.3117 10.0082C17.8301 10.5714 16.8914 11.5836 15.618 12.51C13.1651 14.2936 10.6878 14.9384 8.25936 14.4242C7.86346 14.3385 7.47166 14.5956 7.39003 14.9915C7.30432 15.3874 7.56144 15.7792 7.95734 15.8608C8.58994 15.9955 9.22664 16.0608 9.86741 16.0608C10.8306 16.0608 11.802 15.9098 12.7692 15.6078C14.0385 15.2119 15.2997 14.5589 16.52 13.6691C18.577 12.1631 19.8055 10.502 19.8586 10.4326C20.0545 10.1633 20.0463 9.79593 19.8381 9.53473Z" fill="#333333"/>
</g>
<defs>
<clipPath id="clip0">
<rect width="20" height="20" fill="white"/>
</clipPath>
</defs>
</svg>
