<svg width="30" height="24" viewBox="0 0 30 24" fill="none" xmlns="http://www.w3.org/2000/svg">
<path d="M21.421 12.7615L16.4508 3.37623C15.9749 2.48396 14.62 2.48396 14.1441 3.37623L9.17388 12.7615C8.88307 13.3035 8.20891 13.5679 7.59424 13.363L4.42835 12.3253C3.43695 12.0015 2.46536 12.8673 2.76939 13.8124L5.5255 22.3782C5.69073 22.8871 6.19305 23.2374 6.75484 23.2374H15.2875H23.8203C24.3887 23.2374 24.891 22.8871 25.0496 22.3782L27.8057 13.8124C28.1097 12.8673 27.1448 11.9949 26.1467 12.3253L22.9809 13.363C22.386 13.5679 21.7119 13.3101 21.421 12.7615Z" fill="#C1613D"/>
<path d="M18.0039 2.70984C18.0039 4.20356 16.7944 5.41969 15.2941 5.41969C13.8003 5.41969 12.5842 4.21017 12.5842 2.70984C12.5842 1.21612 13.7937 0 15.2941 0C16.7944 0.00660937 18.0039 1.21612 18.0039 2.70984Z" fill="#C1613D"/>
<path d="M30 12.3739C30 13.8676 28.7839 15.0837 27.2902 15.0837C25.7965 15.0837 24.5803 13.8742 24.5803 12.3739C24.5803 10.8802 25.7898 9.66406 27.2902 9.66406C28.7905 9.66406 30 10.8802 30 12.3739Z" fill="#A74D2C"/>
<path d="M5.41969 12.3739C5.41969 13.8676 4.21017 15.0837 2.70985 15.0837C1.21613 15.0837 0 13.8742 0 12.3739C0 10.8802 1.20952 9.66406 2.70985 9.66406C4.21017 9.67067 5.41969 10.8802 5.41969 12.3739Z" fill="#C1613D"/>
<path d="M26.1665 12.324L23.0006 13.3617C22.3859 13.56 21.7118 13.3022 21.421 12.7602L19.7686 9.64062C15.7832 14.254 11.0442 18.517 5.39984 21.9737L5.52542 22.3703C5.69066 22.8792 6.19297 23.2295 6.75476 23.2295H15.2875H23.8202C24.3886 23.2295 24.8909 22.8792 25.0495 22.3703L27.8056 13.8045C28.1295 12.8726 27.1579 12.0002 26.1665 12.324Z" fill="#A74D2C"/>
</svg>
