<svg width="18" height="18" viewBox="0 0 18 18" fill="none" xmlns="http://www.w3.org/2000/svg">
<path d="M16.9102 11.6719C16.9102 11.0918 16.4355 10.6172 15.8555 10.6172C16.4355 10.6172 16.9102 10.1426 16.9102 9.5625C16.9102 8.98242 16.4355 8.50781 15.8555 8.50781H11.5313C12.1746 6.5777 12.1641 5.9625 12.1641 4.78125C12.1641 3.90371 11.4446 3.19922 10.582 3.19922H10.2656C10.0652 3.19922 9.81211 3.35746 9.75934 3.6C9.23759 5.63136 8.42186 7.96233 6.36328 8.43448V16.0656L8.18786 16.6711C8.72575 16.8503 9.28477 16.9453 9.8543 16.9453H14.8008C15.3833 16.9453 15.8555 16.4731 15.8555 15.8906C15.8555 15.3081 15.3833 14.8359 14.8008 14.8359H15.8555C16.4355 14.8359 16.9102 14.3613 16.9102 13.7812C16.9102 13.2012 16.4355 12.7266 15.8555 12.7266C16.4355 12.7266 16.9102 12.252 16.9102 11.6719Z" fill="white"/>
<path d="M3.72656 7.45312H1.61719C1.32571 7.45312 1.08984 7.68899 1.08984 7.98047V17.4727C1.08984 17.7641 1.32571 18 1.61719 18H3.72656C4.59893 18 5.30859 17.2903 5.30859 16.418V9.03516C5.30859 8.16279 4.59893 7.45312 3.72656 7.45312ZM3.72656 15.8906C3.43533 15.8906 3.19922 15.6545 3.19922 15.3633C3.19922 15.072 3.43533 14.8359 3.72656 14.8359C4.0178 14.8359 4.25391 15.072 4.25391 15.3633C4.25391 15.6545 4.0178 15.8906 3.72656 15.8906Z" fill="white"/>
<path d="M8.34462 2.32597L7.59892 1.58027C7.39294 1.37429 7.0592 1.37429 6.85322 1.58027C6.64724 1.78625 6.64724 2.11999 6.85322 2.32597L7.59892 3.07167C7.8049 3.27765 8.1386 3.27765 8.34462 3.07167C8.5506 2.86569 8.5506 2.53195 8.34462 2.32597Z" fill="white"/>
<path d="M14.3109 1.58027C14.1049 1.37429 13.7712 1.37429 13.5652 1.58027L12.8195 2.32597C12.6135 2.53195 12.6135 2.86569 12.8195 3.07167C13.0255 3.27765 13.3592 3.27765 13.5652 3.07167L14.3109 2.32597C14.5169 2.11999 14.5169 1.78625 14.3109 1.58027Z" fill="white"/>
<path d="M10.582 0C10.2867 0 10.0547 0.231996 10.0547 0.527344V1.61719C10.0547 1.91254 10.2867 2.14453 10.582 2.14453C10.8774 2.14453 11.1094 1.91254 11.1094 1.61719V0.527344C11.1094 0.231996 10.8774 0 10.582 0Z" fill="white"/>
</svg>
