<svg width="30" height="30" viewBox="0 0 30 30" fill="none" xmlns="http://www.w3.org/2000/svg">
<g clip-path="url(#clip0)">
<path d="M20.0009 3.6875C16.3821 3.6875 13.4384 6.63125 13.4384 10.25C13.4384 13.8687 16.3821 16.8125 20.0009 16.8125C23.6196 16.8125 26.5634 13.8687 26.5634 10.25C26.5634 6.63125 23.6196 3.6875 20.0009 3.6875ZM19.8518 9.67956L20.4483 9.86594C21.0779 10.0627 21.5009 10.6381 21.5009 11.2976V11.5C21.5009 12.2199 20.9909 12.8229 20.3134 12.9671V13.125C20.3134 13.4011 20.0895 13.625 19.8134 13.625C19.5373 13.625 19.3134 13.4011 19.3134 13.125V12.8325C18.8313 12.5828 18.5009 12.0794 18.5009 11.5C18.5009 11.2239 18.7248 11 19.0009 11C19.277 11 19.5009 11.2239 19.5009 11.5C19.5009 11.7757 19.7252 12 20.0009 12C20.2766 12 20.5009 11.7757 20.5009 11.5V11.2977C20.5009 11.0778 20.3599 10.8861 20.15 10.8204L19.5535 10.6341C18.9239 10.4373 18.5009 9.86194 18.5009 9.20238V9C18.5009 8.34819 18.9189 7.79244 19.5009 7.586V7.375C19.5009 7.09888 19.7248 6.875 20.0009 6.875C20.277 6.875 20.5009 7.09888 20.5009 7.375V7.586C21.0828 7.79244 21.5009 8.34819 21.5009 9C21.5009 9.27612 21.277 9.5 21.0009 9.5C20.7248 9.5 20.5009 9.27612 20.5009 9C20.5009 8.72431 20.2766 8.5 20.0009 8.5C19.7252 8.5 19.5009 8.72431 19.5009 9V9.20231C19.5009 9.42219 19.6419 9.61394 19.8518 9.67956ZM24.6088 28.9999C23.2379 28.9907 22.1259 27.8731 22.1259 26.5V18.1479C22.1259 17.8317 21.8358 17.5939 21.5262 17.6584C16.8843 18.6261 12.4384 15.0589 12.4384 10.25C12.4384 5.44244 16.8829 1.87344 21.5262 2.84156C21.8358 2.90613 22.1259 2.66825 22.1259 2.35206V2C22.1259 0.895437 21.2304 0 20.1259 0H3.87588C2.77132 0 1.87588 0.895437 1.87588 2V26.5C1.87588 28.433 3.44288 30 5.37588 30H24.6259C24.9154 30 25.1472 29.7543 25.1243 29.4599C25.1039 29.1969 24.8726 29.0017 24.6088 28.9999ZM6.75088 7.3125H11.0009C11.277 7.3125 11.5009 7.53638 11.5009 7.8125C11.5009 8.08862 11.277 8.3125 11.0009 8.3125H6.75088C6.47476 8.3125 6.25088 8.08862 6.25088 7.8125C6.25088 7.53638 6.47476 7.3125 6.75088 7.3125ZM6.75088 12.9375H11.0009C11.277 12.9375 11.5009 13.1614 11.5009 13.4375C11.5009 13.7136 11.277 13.9375 11.0009 13.9375H6.75088C6.47476 13.9375 6.25088 13.7136 6.25088 13.4375C6.25088 13.1614 6.47476 12.9375 6.75088 12.9375ZM17.2509 24.8125H6.75088C6.47476 24.8125 6.25088 24.5886 6.25088 24.3125C6.25088 24.0364 6.47476 23.8125 6.75088 23.8125H17.2509C17.527 23.8125 17.7509 24.0364 17.7509 24.3125C17.7509 24.5886 17.527 24.8125 17.2509 24.8125ZM17.2509 19.5625H6.75088C6.47476 19.5625 6.25088 19.3386 6.25088 19.0625C6.25088 18.7864 6.47476 18.5625 6.75088 18.5625H17.2509C17.527 18.5625 17.7509 18.7864 17.7509 19.0625C17.7509 19.3386 17.527 19.5625 17.2509 19.5625ZM28.124 25.7488C28.1259 27.1306 27.0059 28.2506 25.6259 28.2506C24.2468 28.2506 23.1278 27.1331 23.1278 25.7525C23.1278 21.1342 23.1244 19.3348 23.1274 18.6224C23.1286 18.3471 23.3521 18.125 23.6274 18.125H26.1259C27.1634 18.125 28.0165 18.915 28.1159 19.9263L28.124 25.7488Z" fill="white"/>
</g>
<defs>
<clipPath id="clip0">
<rect width="30" height="30" fill="white"/>
</clipPath>
</defs>
</svg>
