<svg width="30" height="30" viewBox="0 0 30 30" fill="none" xmlns="http://www.w3.org/2000/svg">
<path d="M27.8941 9.43652H27.0725V18.4678C27.0725 19.874 26.2538 21.1455 24.6124 21.1455H8.53169V21.5749C8.53169 22.8181 9.94567 24.073 11.3977 24.073H23.6922L28.3957 26.8385L27.7136 24.073H27.8941C29.3452 24.073 30 22.821 30 21.5749V11.5804C30 10.3372 29.3452 9.43652 27.8941 9.43652Z" fill="white"/>
<path d="M22.2119 3.16211H3.53446C1.89116 3.16211 0 4.62195 0 6.0291V17.3488C0 18.6447 1.60232 19.5805 3.13925 19.7249L2.13902 23.5219L8.54829 19.7513H22.2119C23.8552 19.7513 25.3716 18.7549 25.3716 17.3488V8.19057V6.0291C25.3716 4.62195 23.8542 3.16211 22.2119 3.16211ZM6.38389 12.7175C5.45197 12.7175 4.69668 11.9622 4.69668 11.0302C4.69668 10.0983 5.45197 9.34303 6.38389 9.34303C7.31484 9.34303 8.07111 10.0983 8.07111 11.0302C8.07111 11.9622 7.31484 12.7175 6.38389 12.7175ZM12.6858 12.7175C11.7539 12.7175 10.9986 11.9622 10.9986 11.0302C10.9986 10.0983 11.7539 9.34303 12.6858 9.34303C13.6177 9.34303 14.373 10.0983 14.373 11.0302C14.373 11.9622 13.6177 12.7175 12.6858 12.7175ZM18.9887 12.7175C18.0568 12.7175 17.3005 11.9622 17.3005 11.0302C17.3005 10.0983 18.0568 9.34303 18.9887 9.34303C19.9187 9.34303 20.6759 10.0983 20.6759 11.0302C20.6759 11.9622 19.9187 12.7175 18.9887 12.7175Z" fill="white"/>
</svg>
