<svg width="26" height="26" viewBox="0 0 26 26" fill="none" xmlns="http://www.w3.org/2000/svg">
<g clip-path="url(#clip0)">
<path d="M9.19048 20.0371H16.8081V24.3469H9.19048V20.0371Z" fill="url(#paint0_linear)"/>
<path d="M13 20.0371H16.808V24.3469H13V20.0371Z" fill="url(#paint1_linear)"/>
<path d="M0.761719 3.6748H25.2383V17.7524H0.761719V3.6748Z" fill="#9FFFD1"/>
<path d="M13 3.6748H25.2383V17.7524H13V3.6748Z" fill="#99E7FF"/>
<path d="M0 17.752H26V21.5608H0V17.752Z" fill="#87B7FF"/>
<path d="M13 17.752H26V21.5608H13V17.752Z" fill="#0085FF"/>
<path d="M26 18.5141H0V2.91309H26V18.5141ZM1.52344 16.9907H24.4766V4.43653H1.52344V16.9907Z" fill="url(#paint2_linear)"/>
<path d="M26 2.91309H13V4.43653H24.4766V16.9907H13V18.5141H26V2.91309Z" fill="url(#paint3_linear)"/>
<path d="M6.65082 23.585H19.3476V25.1084H6.65082V23.585Z" fill="url(#paint4_linear)"/>
<path d="M13 23.585H19.3476V25.1084H13V23.585Z" fill="url(#paint5_linear)"/>
</g>
<defs>
<linearGradient id="paint0_linear" x1="12.9993" y1="20.0371" x2="12.9993" y2="24.3469" gradientUnits="userSpaceOnUse">
<stop stop-color="#03FFC3"/>
<stop offset="1" stop-color="#0386FF"/>
</linearGradient>
<linearGradient id="paint1_linear" x1="14.904" y1="20.0371" x2="14.904" y2="24.3469" gradientUnits="userSpaceOnUse">
<stop stop-color="#03FFC3"/>
<stop offset="1" stop-color="#0386FF"/>
</linearGradient>
<linearGradient id="paint2_linear" x1="13" y1="2.91309" x2="13" y2="18.5141" gradientUnits="userSpaceOnUse">
<stop stop-color="#03FFC3"/>
<stop offset="1" stop-color="#0386FF"/>
</linearGradient>
<linearGradient id="paint3_linear" x1="19.5" y1="2.91309" x2="19.5" y2="18.5141" gradientUnits="userSpaceOnUse">
<stop stop-color="#03FFC3"/>
<stop offset="1" stop-color="#0386FF"/>
</linearGradient>
<linearGradient id="paint4_linear" x1="12.9992" y1="23.585" x2="12.9992" y2="25.1084" gradientUnits="userSpaceOnUse">
<stop stop-color="#03FFC3"/>
<stop offset="1" stop-color="#0386FF"/>
</linearGradient>
<linearGradient id="paint5_linear" x1="16.1738" y1="23.585" x2="16.1738" y2="25.1084" gradientUnits="userSpaceOnUse">
<stop stop-color="#03FFC3"/>
<stop offset="1" stop-color="#0386FF"/>
</linearGradient>
<clipPath id="clip0">
<rect width="26" height="26" fill="white"/>
</clipPath>
</defs>
</svg>
