<svg width="24" height="24" viewBox="0 0 24 24" fill="none" xmlns="http://www.w3.org/2000/svg">
<g clip-path="url(#clip0)">
<path d="M2.34814 16.3686C1.46956 14.4273 1.19862 12.2864 1.56462 10.1774C1.93868 8.02175 2.95728 6.06144 4.51029 4.50842C6.32295 2.69572 8.72806 1.60255 11.2825 1.43023C13.3625 1.28994 15.4252 1.76427 17.215 2.77667C17.4118 2.3367 17.7099 1.95177 18.08 1.652C16.0128 0.436577 13.6102 -0.136376 11.1879 0.0274522C8.2939 0.22264 5.56934 1.46094 3.51607 3.51425C1.75704 5.27328 0.603215 7.49427 0.179278 9.93702C-0.23505 12.3248 0.0719806 14.7492 1.06718 16.9483L2.34814 16.3686Z" fill="url(#paint0_linear)"/>
<path d="M23.0085 7.2168L21.7187 7.77658C22.5553 9.70445 22.7985 11.821 22.4219 13.8975C22.0367 16.0217 21.0229 17.9546 19.4904 19.4872C17.6796 21.2979 15.2772 22.3909 12.7256 22.5648C12.4837 22.5814 12.2425 22.5895 12.0014 22.5895C10.1675 22.5894 8.36946 22.1149 6.78551 21.219C6.58882 21.6588 6.29084 22.0435 5.9209 22.3432C7.75709 23.4227 9.8577 23.9955 12.0016 23.9955C12.2742 23.9955 12.5477 23.9863 12.8212 23.9676C15.7119 23.7705 18.4335 22.5325 20.4846 20.4813C22.2205 18.7453 23.3689 16.5555 23.8054 14.1484C24.2317 11.7975 23.9562 9.40056 23.0085 7.2168Z" fill="url(#paint1_linear)"/>
<path d="M12.7025 17.3322V19.0145C16.0309 18.6836 18.6855 16.0288 19.0165 12.7005H17.3342V11.2944H19.0165C18.6856 7.96608 16.0309 5.31141 12.7025 4.98047V6.66281H11.2964V4.98047C7.96808 5.31141 5.31336 7.96613 4.98242 11.2944H6.66477V12.7005H4.98242C5.31336 16.0289 7.96808 18.6836 11.2964 19.0145V17.3322H12.7025ZM9.90219 13.3617L11.2965 12.2084V9.11292H12.7025V12.87L10.7984 14.445L9.90219 13.3617Z" fill="url(#paint2_linear)"/>
<path d="M5.19555 21.1674C5.85 20.513 5.85 19.4519 5.19555 18.7974C4.54111 18.143 3.48004 18.143 2.8256 18.7974C2.17116 19.4519 2.17116 20.513 2.8256 21.1674C3.48005 21.8218 4.54111 21.8218 5.19555 21.1674Z" fill="url(#paint3_linear)"/>
<path d="M19.9866 5.68611C20.9123 5.68611 21.6627 4.93571 21.6627 4.01005C21.6627 3.08438 20.9123 2.33398 19.9866 2.33398C19.0609 2.33398 18.3105 3.08438 18.3105 4.01005C18.3105 4.93571 19.0609 5.68611 19.9866 5.68611Z" fill="url(#paint4_linear)"/>
</g>
<defs>
<linearGradient id="paint0_linear" x1="9.04" y1="0" x2="9.04" y2="26.3144" gradientUnits="userSpaceOnUse">
<stop stop-color="#D1292F"/>
<stop offset="1" stop-color="#FF5722"/>
</linearGradient>
<linearGradient id="paint1_linear" x1="14.9607" y1="7.2168" x2="14.9607" y2="33.268" gradientUnits="userSpaceOnUse">
<stop stop-color="#D1292F"/>
<stop offset="1" stop-color="#FF5722"/>
</linearGradient>
<linearGradient id="paint2_linear" x1="11.9995" y1="4.98047" x2="11.9995" y2="26.7702" gradientUnits="userSpaceOnUse">
<stop stop-color="#D1292F"/>
<stop offset="1" stop-color="#FF5722"/>
</linearGradient>
<linearGradient id="paint3_linear" x1="2.8256" y1="18.7974" x2="6.50526" y2="22.4771" gradientUnits="userSpaceOnUse">
<stop stop-color="#D1292F"/>
<stop offset="1" stop-color="#FF5722"/>
</linearGradient>
<linearGradient id="paint4_linear" x1="19.9866" y1="2.33398" x2="19.9866" y2="7.5386" gradientUnits="userSpaceOnUse">
<stop stop-color="#D1292F"/>
<stop offset="1" stop-color="#FF5722"/>
</linearGradient>
<clipPath id="clip0">
<rect width="24" height="24" fill="white"/>
</clipPath>
</defs>
</svg>
