<svg width="370" height="243" viewBox="0 0 370 243" fill="none" xmlns="http://www.w3.org/2000/svg">
<rect x="8.45703" y="58" width="352.975" height="184.038" fill="#FF9611"/>
<circle cx="361.432" cy="74.9863" r="8.49406" fill="#005DB6"/>
<circle cx="361.432" cy="99.5253" r="8.49406" fill="#005DB6"/>
<circle cx="361.432" cy="124.064" r="8.49406" fill="#005DB6"/>
<circle cx="361.432" cy="149.545" r="8.49406" fill="#005DB6"/>
<circle cx="361.432" cy="174.084" r="8.49406" fill="#005DB6"/>
<circle cx="361.432" cy="199.564" r="8.49406" fill="#005DB6"/>
<circle cx="361.432" cy="224.103" r="8.49406" fill="#005DB6"/>
<rect x="31.1074" y="72.1562" width="307.674" height="155.724" fill="white"/>
<circle cx="184.5" cy="58.5" r="53.5" fill="white" stroke="#FF9611" stroke-width="10"/>
<path d="M57.286 130.22C57.634 130.22 57.91 130.328 58.114 130.544C58.318 130.748 58.42 131.024 58.42 131.372V141.938C58.42 142.286 58.312 142.568 58.096 142.784C57.892 143 57.622 143.108 57.286 143.108C56.938 143.108 56.662 143 56.458 142.784C56.254 142.568 56.152 142.286 56.152 141.938V137.492H49.654V141.938C49.654 142.286 49.546 142.568 49.33 142.784C49.126 143 48.85 143.108 48.502 143.108C48.166 143.108 47.89 143 47.674 142.784C47.47 142.568 47.368 142.286 47.368 141.938V131.372C47.368 131.024 47.47 130.748 47.674 130.544C47.878 130.328 48.154 130.22 48.502 130.22C48.85 130.22 49.126 130.328 49.33 130.544C49.546 130.748 49.654 131.024 49.654 131.372V135.62H56.152V131.372C56.152 131.024 56.254 130.748 56.458 130.544C56.662 130.328 56.938 130.22 57.286 130.22ZM64.9653 143.144C64.0653 143.144 63.2733 142.958 62.5893 142.586C61.9173 142.214 61.3953 141.68 61.0233 140.984C60.6513 140.288 60.4653 139.478 60.4653 138.554C60.4653 137.63 60.6513 136.826 61.0233 136.142C61.3953 135.446 61.9173 134.912 62.5893 134.54C63.2733 134.168 64.0653 133.982 64.9653 133.982C65.8653 133.982 66.6513 134.168 67.3233 134.54C68.0073 134.912 68.5293 135.446 68.8893 136.142C69.2613 136.826 69.4473 137.63 69.4473 138.554C69.4473 139.478 69.2613 140.288 68.8893 140.984C68.5293 141.68 68.0073 142.214 67.3233 142.586C66.6513 142.958 65.8653 143.144 64.9653 143.144ZM64.9473 141.398C65.6793 141.398 66.2373 141.158 66.6213 140.678C67.0053 140.198 67.1973 139.49 67.1973 138.554C67.1973 137.63 67.0053 136.928 66.6213 136.448C66.2373 135.956 65.6853 135.71 64.9653 135.71C64.2453 135.71 63.6873 135.956 63.2913 136.448C62.9073 136.928 62.7153 137.63 62.7153 138.554C62.7153 139.49 62.9073 140.198 63.2913 140.678C63.6753 141.158 64.2273 141.398 64.9473 141.398ZM75.1208 133.982C76.3448 133.982 77.2508 134.288 77.8388 134.9C78.4388 135.5 78.7388 136.418 78.7388 137.654V142.046C78.7388 142.37 78.6428 142.628 78.4508 142.82C78.2588 143 77.9948 143.09 77.6588 143.09C77.3468 143.09 77.0888 142.994 76.8848 142.802C76.6928 142.61 76.5968 142.358 76.5968 142.046V141.65C76.3928 142.118 76.0688 142.484 75.6248 142.748C75.1928 143.012 74.6888 143.144 74.1128 143.144C73.5248 143.144 72.9908 143.024 72.5108 142.784C72.0308 142.544 71.6528 142.214 71.3768 141.794C71.1008 141.374 70.9628 140.906 70.9628 140.39C70.9628 139.742 71.1248 139.232 71.4488 138.86C71.7848 138.488 72.3248 138.218 73.0688 138.05C73.8128 137.882 74.8388 137.798 76.1468 137.798H76.5968V137.384C76.5968 136.796 76.4708 136.37 76.2188 136.106C75.9668 135.83 75.5588 135.692 74.9948 135.692C74.6468 135.692 74.2928 135.746 73.9328 135.854C73.5728 135.95 73.1468 136.094 72.6548 136.286C72.3428 136.442 72.1148 136.52 71.9708 136.52C71.7548 136.52 71.5748 136.442 71.4308 136.286C71.2988 136.13 71.2328 135.926 71.2328 135.674C71.2328 135.47 71.2808 135.296 71.3768 135.152C71.4848 134.996 71.6588 134.852 71.8988 134.72C72.3188 134.492 72.8168 134.312 73.3928 134.18C73.9808 134.048 74.5568 133.982 75.1208 133.982ZM74.5628 141.524C75.1628 141.524 75.6488 141.326 76.0208 140.93C76.4048 140.522 76.5968 140 76.5968 139.364V138.986H76.2728C75.4688 138.986 74.8448 139.022 74.4008 139.094C73.9568 139.166 73.6388 139.292 73.4468 139.472C73.2548 139.652 73.1588 139.898 73.1588 140.21C73.1588 140.594 73.2908 140.912 73.5548 141.164C73.8308 141.404 74.1668 141.524 74.5628 141.524ZM72.3488 131.102C72.0248 130.862 71.8628 130.574 71.8628 130.238C71.8628 129.986 71.9588 129.77 72.1508 129.59C72.3428 129.398 72.5708 129.302 72.8348 129.302C73.1828 129.302 73.4948 129.482 73.7708 129.842L75.5168 132.164C75.6128 132.272 75.6608 132.404 75.6608 132.56C75.6608 132.716 75.6008 132.854 75.4808 132.974C75.3728 133.082 75.2408 133.136 75.0848 133.136C74.9408 133.136 74.8028 133.088 74.6708 132.992L72.3488 131.102ZM86.1375 133.982C87.1935 133.982 87.9795 134.282 88.4955 134.882C89.0115 135.482 89.2695 136.388 89.2695 137.6V142.028C89.2695 142.364 89.1675 142.628 88.9635 142.82C88.7715 143.012 88.5015 143.108 88.1535 143.108C87.8055 143.108 87.5295 143.012 87.3255 142.82C87.1215 142.628 87.0195 142.364 87.0195 142.028V137.726C87.0195 137.042 86.8875 136.544 86.6235 136.232C86.3715 135.92 85.9695 135.764 85.4175 135.764C84.7695 135.764 84.2475 135.968 83.8515 136.376C83.4675 136.784 83.2755 137.33 83.2755 138.014V142.028C83.2755 142.364 83.1735 142.628 82.9695 142.82C82.7655 143.012 82.4895 143.108 82.1415 143.108C81.7935 143.108 81.5175 143.012 81.3135 142.82C81.1215 142.628 81.0255 142.364 81.0255 142.028V135.062C81.0255 134.75 81.1275 134.498 81.3315 134.306C81.5355 134.114 81.8115 134.018 82.1595 134.018C82.4715 134.018 82.7235 134.114 82.9155 134.306C83.1195 134.486 83.2215 134.726 83.2215 135.026V135.512C83.5215 135.02 83.9235 134.642 84.4275 134.378C84.9315 134.114 85.5015 133.982 86.1375 133.982ZM101.337 134.882C102.129 134.882 102.825 135.056 103.425 135.404C104.037 135.74 104.511 136.214 104.847 136.826C105.183 137.438 105.351 138.14 105.351 138.932C105.351 139.76 105.159 140.492 104.775 141.128C104.403 141.764 103.869 142.262 103.173 142.622C102.489 142.97 101.697 143.144 100.797 143.144C100.053 143.144 99.3215 143.024 98.6015 142.784C97.8935 142.532 97.2875 142.196 96.7835 141.776C96.5075 141.536 96.3695 141.254 96.3695 140.93C96.3695 140.666 96.4415 140.444 96.5855 140.264C96.7415 140.072 96.9215 139.976 97.1255 139.976C97.2455 139.976 97.3595 140 97.4675 140.048C97.5755 140.084 97.7015 140.15 97.8455 140.246C98.3255 140.582 98.7935 140.84 99.2495 141.02C99.7055 141.2 100.191 141.29 100.707 141.29C101.499 141.29 102.105 141.092 102.525 140.696C102.945 140.3 103.155 139.736 103.155 139.004C103.155 138.296 102.939 137.738 102.507 137.33C102.087 136.91 101.505 136.7 100.761 136.7C100.293 136.7 99.8735 136.766 99.5015 136.898C99.1415 137.03 98.7695 137.252 98.3855 137.564C98.1575 137.72 97.9235 137.798 97.6835 137.798C97.4435 137.798 97.2395 137.726 97.0715 137.582C96.9035 137.438 96.8195 137.246 96.8195 137.006V131.39C96.8195 131.054 96.9155 130.79 97.1075 130.598C97.2995 130.406 97.5695 130.31 97.9175 130.31H103.911C104.631 130.31 104.991 130.61 104.991 131.21C104.991 131.81 104.631 132.11 103.911 132.11H99.0875V135.53C99.6995 135.098 100.449 134.882 101.337 134.882ZM111.464 143.162C109.964 143.162 108.818 142.61 108.026 141.506C107.234 140.39 106.838 138.77 106.838 136.646C106.838 134.534 107.234 132.926 108.026 131.822C108.818 130.706 109.964 130.148 111.464 130.148C112.964 130.148 114.11 130.706 114.902 131.822C115.694 132.926 116.09 134.534 116.09 136.646C116.09 138.758 115.694 140.372 114.902 141.488C114.11 142.604 112.964 143.162 111.464 143.162ZM111.464 141.344C112.28 141.344 112.874 140.972 113.246 140.228C113.618 139.472 113.804 138.278 113.804 136.646C113.804 135.002 113.618 133.814 113.246 133.082C112.874 132.338 112.28 131.966 111.464 131.966C110.648 131.966 110.054 132.338 109.682 133.082C109.31 133.826 109.124 135.014 109.124 136.646C109.124 138.278 109.31 139.472 109.682 140.228C110.054 140.972 110.648 141.344 111.464 141.344ZM122.833 142.748C122.725 142.94 122.593 143.084 122.437 143.18C122.281 143.276 122.125 143.324 121.969 143.324C121.753 143.324 121.561 143.246 121.393 143.09C121.237 142.934 121.159 142.736 121.159 142.496C121.159 142.292 121.219 142.088 121.339 141.884L127.891 130.562C127.999 130.37 128.131 130.226 128.287 130.13C128.443 130.034 128.599 129.986 128.755 129.986C128.971 129.986 129.157 130.064 129.313 130.22C129.481 130.376 129.565 130.574 129.565 130.814C129.565 131.018 129.505 131.222 129.385 131.426L122.833 142.748ZM120.835 137.888C119.827 137.888 119.041 137.558 118.477 136.898C117.913 136.238 117.631 135.272 117.631 134C117.631 132.74 117.913 131.78 118.477 131.12C119.041 130.46 119.827 130.13 120.835 130.13C121.843 130.13 122.629 130.46 123.193 131.12C123.769 131.78 124.057 132.74 124.057 134C124.057 135.272 123.769 136.238 123.193 136.898C122.629 137.558 121.843 137.888 120.835 137.888ZM120.835 136.43C121.291 136.43 121.621 136.244 121.825 135.872C122.041 135.488 122.149 134.864 122.149 134C122.149 133.16 122.041 132.548 121.825 132.164C121.609 131.78 121.279 131.588 120.835 131.588C120.391 131.588 120.061 131.78 119.845 132.164C119.641 132.536 119.539 133.148 119.539 134C119.539 134.864 119.641 135.488 119.845 135.872C120.061 136.244 120.391 136.43 120.835 136.43ZM129.889 143.126C128.881 143.126 128.095 142.796 127.531 142.136C126.967 141.476 126.685 140.504 126.685 139.22C126.685 137.96 126.967 137.006 127.531 136.358C128.107 135.698 128.893 135.368 129.889 135.368C130.897 135.368 131.683 135.698 132.247 136.358C132.811 137.018 133.093 137.978 133.093 139.238C133.093 140.51 132.811 141.476 132.247 142.136C131.683 142.796 130.897 143.126 129.889 143.126ZM129.889 141.668C130.333 141.668 130.663 141.482 130.879 141.11C131.095 140.726 131.203 140.102 131.203 139.238C131.203 138.398 131.095 137.786 130.879 137.402C130.663 137.018 130.333 136.826 129.889 136.826C129.445 136.826 129.115 137.018 128.899 137.402C128.683 137.786 128.575 138.398 128.575 139.238C128.575 140.102 128.683 140.726 128.899 141.11C129.115 141.482 129.445 141.668 129.889 141.668ZM149.992 141.344C150.184 141.572 150.28 141.8 150.28 142.028C150.28 142.316 150.166 142.568 149.938 142.784C149.722 143 149.47 143.108 149.182 143.108C148.882 143.108 148.618 142.976 148.39 142.712L144.736 138.176L141.064 142.712C140.848 142.964 140.59 143.09 140.29 143.09C140.002 143.09 139.744 142.988 139.516 142.784C139.3 142.568 139.192 142.316 139.192 142.028C139.192 141.788 139.282 141.56 139.462 141.344L143.386 136.556L139.624 131.966C139.444 131.774 139.354 131.546 139.354 131.282C139.354 130.994 139.462 130.748 139.678 130.544C139.894 130.328 140.146 130.22 140.434 130.22C140.734 130.22 140.998 130.352 141.226 130.616L144.736 134.954L148.246 130.616C148.462 130.352 148.72 130.22 149.02 130.22C149.308 130.22 149.56 130.328 149.776 130.544C150.004 130.748 150.118 130.994 150.118 131.282C150.118 131.546 150.028 131.774 149.848 131.966L146.086 136.556L149.992 141.344ZM158.831 134.018C159.179 134.018 159.455 134.114 159.659 134.306C159.863 134.498 159.965 134.756 159.965 135.08V142.064C159.965 142.376 159.857 142.628 159.641 142.82C159.437 143.012 159.167 143.108 158.831 143.108C158.507 143.108 158.249 143.018 158.057 142.838C157.865 142.658 157.769 142.412 157.769 142.1V141.65C157.493 142.13 157.121 142.502 156.653 142.766C156.185 143.018 155.657 143.144 155.069 143.144C152.909 143.144 151.829 141.932 151.829 139.508V135.08C151.829 134.756 151.931 134.498 152.135 134.306C152.339 134.114 152.609 134.018 152.945 134.018C153.293 134.018 153.569 134.114 153.773 134.306C153.977 134.498 154.079 134.756 154.079 135.08V139.526C154.079 140.15 154.205 140.612 154.457 140.912C154.709 141.212 155.105 141.362 155.645 141.362C156.269 141.362 156.767 141.158 157.139 140.75C157.523 140.33 157.715 139.778 157.715 139.094V135.08C157.715 134.756 157.817 134.498 158.021 134.306C158.225 134.114 158.495 134.018 158.831 134.018Z" fill="#333333"/>
<path d="M49.372 192.06C49.228 192.06 49.112 192.016 49.024 191.928C48.936 191.832 48.896 191.708 48.904 191.556L49.468 184.38H46.9C46.764 184.38 46.656 184.344 46.576 184.272C46.504 184.192 46.468 184.092 46.468 183.972C46.468 183.836 46.508 183.732 46.588 183.66C46.668 183.58 46.784 183.54 46.936 183.54H53.092C53.236 183.54 53.344 183.576 53.416 183.648C53.488 183.72 53.524 183.82 53.524 183.948C53.524 184.236 53.368 184.38 53.056 184.38H50.452L49.888 191.592C49.872 191.728 49.816 191.84 49.72 191.928C49.632 192.016 49.516 192.06 49.372 192.06ZM55.5218 192.084C54.9778 192.084 54.4978 191.968 54.0818 191.736C53.6738 191.504 53.3578 191.176 53.1338 190.752C52.9178 190.32 52.8098 189.82 52.8098 189.252C52.8098 188.604 52.9258 188.036 53.1578 187.548C53.3978 187.06 53.7298 186.684 54.1538 186.42C54.5858 186.148 55.0858 186.012 55.6538 186.012C56.2058 186.012 56.6858 186.128 57.0938 186.36C57.5018 186.592 57.8178 186.924 58.0418 187.356C58.2658 187.788 58.3778 188.288 58.3778 188.856C58.3778 189.504 58.2578 190.072 58.0178 190.56C57.7858 191.048 57.4538 191.424 57.0218 191.688C56.5898 191.952 56.0898 192.084 55.5218 192.084ZM55.5338 191.28C56.1178 191.28 56.5698 191.06 56.8898 190.62C57.2178 190.18 57.3818 189.58 57.3818 188.82C57.3818 188.18 57.2298 187.688 56.9258 187.344C56.6298 186.992 56.2058 186.816 55.6538 186.816C55.0698 186.816 54.6138 187.04 54.2858 187.488C53.9578 187.936 53.7938 188.536 53.7938 189.288C53.7938 189.936 53.9418 190.432 54.2378 190.776C54.5338 191.112 54.9658 191.28 55.5338 191.28ZM57.5738 184.128C57.5098 184.184 57.4418 184.212 57.3698 184.212C57.3058 184.212 57.2498 184.188 57.2018 184.14C57.1538 184.092 57.1298 184.036 57.1298 183.972C57.1298 183.908 57.1538 183.848 57.2018 183.792L58.0898 182.58C58.1858 182.436 58.3138 182.364 58.4738 182.364C58.5778 182.364 58.6658 182.4 58.7378 182.472C58.8178 182.544 58.8578 182.632 58.8578 182.736C58.8578 182.864 58.7978 182.984 58.6778 183.096L57.5738 184.128ZM55.0658 185.316C54.9778 185.412 54.8818 185.46 54.7778 185.46C54.6898 185.46 54.6098 185.424 54.5378 185.352C54.4658 185.28 54.4298 185.2 54.4298 185.112C54.4298 185.024 54.4658 184.944 54.5378 184.872L55.5698 183.756C55.7058 183.604 55.8618 183.528 56.0378 183.528C56.2138 183.528 56.3538 183.604 56.4578 183.756L57.2858 184.872C57.3498 184.96 57.3818 185.04 57.3818 185.112C57.3818 185.208 57.3458 185.288 57.2738 185.352C57.2098 185.416 57.1298 185.448 57.0338 185.448C56.9058 185.448 56.7938 185.384 56.6978 185.256L55.9898 184.2L55.0658 185.316ZM60.0661 192.06C59.9301 192.06 59.8181 192.02 59.7301 191.94C59.6421 191.86 59.6021 191.74 59.6101 191.58L60.0301 186.492C60.0381 186.34 60.0901 186.228 60.1861 186.156C60.2901 186.076 60.4101 186.036 60.5461 186.036C60.6821 186.036 60.7941 186.076 60.8821 186.156C60.9701 186.228 61.0101 186.34 61.0021 186.492L60.5821 191.58C60.5741 191.74 60.5181 191.86 60.4141 191.94C60.3181 192.02 60.2021 192.06 60.0661 192.06ZM60.7021 184.776C60.5101 184.776 60.3541 184.72 60.2341 184.608C60.1141 184.496 60.0541 184.348 60.0541 184.164C60.0541 183.988 60.1141 183.844 60.2341 183.732C60.3541 183.62 60.5101 183.564 60.7021 183.564C60.8941 183.564 61.0501 183.62 61.1701 183.732C61.2901 183.844 61.3501 183.988 61.3501 184.164C61.3501 184.348 61.2901 184.496 61.1701 184.608C61.0501 184.72 60.8941 184.776 60.7021 184.776ZM72.0089 184.608C72.1369 184.608 72.2329 184.64 72.2969 184.704C72.3689 184.768 72.4049 184.856 72.4049 184.968C72.4049 185.08 72.3649 185.172 72.2849 185.244C72.2129 185.308 72.1089 185.34 71.9729 185.34H71.1689L70.6769 191.58C70.6689 191.732 70.6129 191.852 70.5089 191.94C70.4129 192.02 70.2969 192.06 70.1609 192.06C70.0249 192.06 69.9129 192.02 69.8249 191.94C69.7449 191.852 69.7089 191.732 69.7169 191.58L69.7649 191.064C69.5649 191.384 69.2929 191.636 68.9489 191.82C68.6049 191.996 68.2329 192.084 67.8329 192.084C67.3449 192.084 66.9129 191.972 66.5369 191.748C66.1609 191.516 65.8689 191.188 65.6609 190.764C65.4529 190.34 65.3489 189.844 65.3489 189.276C65.3489 188.628 65.4609 188.06 65.6849 187.572C65.9169 187.076 66.2409 186.692 66.6569 186.42C67.0729 186.148 67.5529 186.012 68.0969 186.012C68.5529 186.012 68.9489 186.112 69.2849 186.312C69.6289 186.512 69.8849 186.788 70.0529 187.14L70.1969 185.34H68.2289C68.1009 185.34 68.0009 185.308 67.9289 185.244C67.8649 185.18 67.8329 185.092 67.8329 184.98C67.8329 184.868 67.8689 184.78 67.9409 184.716C68.0209 184.644 68.1249 184.608 68.2529 184.608H70.2569L70.3049 183.912C70.3129 183.776 70.3649 183.668 70.4609 183.588C70.5649 183.508 70.6849 183.468 70.8209 183.468C70.9649 183.468 71.0769 183.508 71.1569 183.588C71.2449 183.668 71.2849 183.776 71.2769 183.912L71.2169 184.608H72.0089ZM68.0849 191.28C68.6609 191.28 69.1129 191.064 69.4409 190.632C69.7689 190.192 69.9329 189.596 69.9329 188.844C69.9329 188.188 69.7809 187.688 69.4769 187.344C69.1809 186.992 68.7489 186.816 68.1809 186.816C67.6129 186.816 67.1609 187.032 66.8249 187.464C66.4969 187.896 66.3329 188.488 66.3329 189.24C66.3329 189.888 66.4849 190.392 66.7889 190.752C67.1009 191.104 67.5329 191.28 68.0849 191.28ZM75.2253 186.012C76.6333 186.012 77.3373 186.68 77.3373 188.016C77.3373 188.16 77.3333 188.268 77.3253 188.34L77.0733 191.616C77.0653 191.76 77.0173 191.872 76.9293 191.952C76.8413 192.024 76.7293 192.06 76.5933 192.06C76.4493 192.06 76.3333 192.016 76.2453 191.928C76.1573 191.832 76.1213 191.716 76.1373 191.58L76.1733 191.052C75.9973 191.38 75.7533 191.636 75.4413 191.82C75.1373 191.996 74.7853 192.084 74.3853 192.084C73.8013 192.084 73.3213 191.928 72.9453 191.616C72.5773 191.296 72.3933 190.892 72.3933 190.404C72.3933 189.964 72.5093 189.616 72.7413 189.36C72.9733 189.096 73.3453 188.904 73.8573 188.784C74.3693 188.664 75.0613 188.604 75.9333 188.604H76.3653L76.3893 188.256L76.4013 188.028C76.4013 187.612 76.2973 187.308 76.0893 187.116C75.8893 186.916 75.5773 186.816 75.1533 186.816C74.5773 186.816 73.9573 187.012 73.2933 187.404C73.2133 187.444 73.1493 187.464 73.1013 187.464C73.0053 187.464 72.9253 187.428 72.8613 187.356C72.7973 187.276 72.7653 187.184 72.7653 187.08C72.7653 186.904 72.8413 186.768 72.9933 186.672C73.2813 186.472 73.6253 186.312 74.0253 186.192C74.4333 186.072 74.8333 186.012 75.2253 186.012ZM74.5893 191.316C75.0453 191.316 75.4333 191.156 75.7533 190.836C76.0733 190.516 76.2493 190.104 76.2813 189.6L76.3053 189.228H75.9693C75.3053 189.228 74.7853 189.264 74.4093 189.336C74.0413 189.4 73.7773 189.512 73.6173 189.672C73.4573 189.824 73.3773 190.04 73.3773 190.32C73.3773 190.624 73.4853 190.868 73.7013 191.052C73.9173 191.228 74.2133 191.316 74.5893 191.316ZM87.1903 191.172C87.4623 191.172 87.5983 191.296 87.5983 191.544C87.5983 191.68 87.5583 191.792 87.4783 191.88C87.3983 191.96 87.2783 192 87.1183 192H82.3903C82.2623 192 82.1583 191.964 82.0783 191.892C82.0063 191.82 81.9703 191.728 81.9703 191.616C81.9703 191.456 82.0423 191.304 82.1863 191.16L85.3183 188.004C85.7983 187.524 86.1383 187.104 86.3383 186.744C86.5463 186.376 86.6503 185.996 86.6503 185.604C86.6503 185.188 86.5183 184.864 86.2543 184.632C85.9983 184.392 85.6463 184.272 85.1983 184.272C84.7903 184.272 84.4063 184.34 84.0463 184.476C83.6943 184.604 83.3423 184.808 82.9903 185.088C82.8863 185.168 82.7823 185.208 82.6783 185.208C82.5823 185.208 82.5023 185.172 82.4383 185.1C82.3743 185.028 82.3423 184.94 82.3423 184.836C82.3423 184.652 82.4263 184.492 82.5943 184.356C82.9223 184.076 83.3183 183.856 83.7823 183.696C84.2463 183.528 84.7223 183.444 85.2103 183.444C85.9543 183.436 86.5423 183.628 86.9743 184.02C87.4143 184.404 87.6343 184.928 87.6343 185.592C87.6343 186.096 87.5063 186.58 87.2503 187.044C87.0023 187.5 86.5783 188.024 85.9783 188.616L83.3863 191.172H87.1903ZM90.9776 184.356L90.7376 187.32C90.9696 187.12 91.2376 186.968 91.5416 186.864C91.8456 186.752 92.1656 186.696 92.5016 186.696C92.9976 186.696 93.4376 186.8 93.8216 187.008C94.2056 187.208 94.5016 187.496 94.7096 187.872C94.9176 188.24 95.0216 188.664 95.0216 189.144C95.0216 189.728 94.8976 190.244 94.6496 190.692C94.4016 191.132 94.0496 191.476 93.5936 191.724C93.1456 191.964 92.6256 192.084 92.0336 192.084C91.5456 192.084 91.0736 192.004 90.6176 191.844C90.1616 191.676 89.7736 191.448 89.4536 191.16C89.3256 191.056 89.2616 190.928 89.2616 190.776C89.2616 190.664 89.2976 190.568 89.3696 190.488C89.4496 190.4 89.5496 190.356 89.6696 190.356C89.7816 190.356 89.8936 190.396 90.0056 190.476C90.6776 190.996 91.3616 191.256 92.0576 191.256C92.6656 191.256 93.1496 191.072 93.5096 190.704C93.8696 190.336 94.0496 189.84 94.0496 189.216C94.0496 188.704 93.8896 188.292 93.5696 187.98C93.2576 187.668 92.8416 187.512 92.3216 187.512C91.9376 187.512 91.5936 187.584 91.2896 187.728C90.9856 187.864 90.7056 188.08 90.4496 188.376C90.3536 188.464 90.2336 188.508 90.0896 188.508C89.9696 188.508 89.8696 188.468 89.7896 188.388C89.7176 188.308 89.6896 188.2 89.7056 188.064L90.0176 184.02C90.0256 183.868 90.0776 183.752 90.1736 183.672C90.2696 183.584 90.3936 183.54 90.5456 183.54H94.7576C94.9016 183.54 95.0096 183.576 95.0816 183.648C95.1616 183.72 95.2016 183.816 95.2016 183.936C95.2016 184.064 95.1576 184.168 95.0696 184.248C94.9896 184.32 94.8736 184.356 94.7216 184.356H90.9776ZM99.1569 192.096C98.2369 192.096 97.5369 191.784 97.0569 191.16C96.5849 190.528 96.3489 189.608 96.3489 188.4C96.3489 187.36 96.4729 186.468 96.7209 185.724C96.9689 184.98 97.3289 184.416 97.8009 184.032C98.2729 183.64 98.8409 183.444 99.5049 183.444C100.425 183.444 101.125 183.76 101.605 184.392C102.085 185.016 102.325 185.932 102.325 187.14C102.325 188.708 102.045 189.928 101.485 190.8C100.933 191.664 100.157 192.096 99.1569 192.096ZM99.1929 191.268C99.8889 191.268 100.417 190.908 100.777 190.188C101.145 189.46 101.329 188.392 101.329 186.984C101.329 186.064 101.177 185.384 100.873 184.944C100.577 184.496 100.117 184.272 99.4929 184.272C98.7889 184.272 98.2529 184.636 97.8849 185.364C97.5249 186.084 97.3449 187.148 97.3449 188.556C97.3449 189.476 97.4969 190.16 97.8009 190.608C98.1049 191.048 98.5689 191.268 99.1929 191.268ZM107.732 186.216C107.82 186.128 107.924 186.084 108.044 186.084C108.156 186.084 108.252 186.128 108.332 186.216C108.42 186.296 108.464 186.392 108.464 186.504C108.464 186.624 108.412 186.732 108.308 186.828L105.788 188.988L108.2 191.316C108.28 191.404 108.32 191.5 108.32 191.604C108.32 191.724 108.272 191.832 108.176 191.928C108.08 192.024 107.972 192.072 107.852 192.072C107.748 192.072 107.648 192.024 107.552 191.928L104.696 189.216L104.504 191.604C104.496 191.756 104.444 191.872 104.348 191.952C104.252 192.024 104.136 192.06 104 192.06C103.856 192.06 103.74 192.016 103.652 191.928C103.564 191.84 103.524 191.72 103.532 191.568L104.132 183.936C104.14 183.792 104.196 183.68 104.3 183.6C104.404 183.52 104.524 183.48 104.66 183.48C104.804 183.48 104.916 183.524 104.996 183.612C105.076 183.692 105.112 183.812 105.104 183.972L104.72 188.82L107.732 186.216ZM117.018 186.264C117.13 186.152 117.25 186.096 117.378 186.096C117.49 186.096 117.59 186.14 117.678 186.228C117.766 186.308 117.81 186.404 117.81 186.516C117.81 186.628 117.762 186.732 117.666 186.828L115.626 189L117.438 191.316C117.51 191.396 117.546 191.488 117.546 191.592C117.546 191.72 117.494 191.832 117.39 191.928C117.294 192.016 117.182 192.06 117.054 192.06C116.91 192.06 116.794 192.004 116.706 191.892L114.978 189.672L112.878 191.916C112.774 192.02 112.662 192.072 112.542 192.072C112.43 192.072 112.33 192.032 112.242 191.952C112.154 191.864 112.11 191.76 112.11 191.64C112.11 191.528 112.158 191.42 112.254 191.316L114.438 188.988L112.746 186.84C112.674 186.744 112.638 186.648 112.638 186.552C112.638 186.424 112.686 186.316 112.782 186.228C112.886 186.132 113.002 186.084 113.13 186.084C113.266 186.084 113.382 186.144 113.478 186.264L115.062 188.316L117.018 186.264ZM123.709 186.036C123.853 186.036 123.965 186.08 124.045 186.168C124.133 186.248 124.169 186.364 124.153 186.516L123.745 191.616C123.737 191.752 123.681 191.86 123.577 191.94C123.481 192.02 123.365 192.06 123.229 192.06C123.093 192.06 122.985 192.024 122.905 191.952C122.825 191.872 122.789 191.764 122.797 191.628L122.845 191.052C122.645 191.38 122.377 191.636 122.041 191.82C121.705 191.996 121.329 192.084 120.913 192.084C120.265 192.084 119.773 191.916 119.437 191.58C119.101 191.236 118.933 190.736 118.933 190.08C118.933 189.936 118.937 189.828 118.945 189.756L119.197 186.516C119.213 186.364 119.269 186.248 119.365 186.168C119.469 186.08 119.589 186.036 119.725 186.036C119.869 186.036 119.981 186.08 120.061 186.168C120.149 186.248 120.185 186.364 120.169 186.516L119.917 189.696C119.909 189.752 119.905 189.836 119.905 189.948C119.905 190.828 120.325 191.268 121.165 191.268C121.685 191.268 122.101 191.108 122.413 190.788C122.725 190.468 122.901 190.024 122.941 189.456L123.181 186.516C123.197 186.364 123.253 186.248 123.349 186.168C123.453 186.08 123.573 186.036 123.709 186.036Z" fill="#333333"/>
<path d="M49.12 209.08C48.62 209.08 48.14 209.007 47.68 208.86C47.2267 208.707 46.8633 208.503 46.59 208.25C46.49 208.157 46.44 208.04 46.44 207.9C46.44 207.807 46.4667 207.727 46.52 207.66C46.5733 207.587 46.6367 207.55 46.71 207.55C46.7967 207.55 46.89 207.587 46.99 207.66C47.61 208.14 48.3167 208.38 49.11 208.38C49.6833 208.38 50.1233 208.27 50.43 208.05C50.7367 207.83 50.89 207.517 50.89 207.11C50.89 206.877 50.8167 206.69 50.67 206.55C50.5233 206.403 50.33 206.287 50.09 206.2C49.85 206.113 49.5267 206.023 49.12 205.93C48.5733 205.803 48.1233 205.67 47.77 205.53C47.4233 205.39 47.14 205.19 46.92 204.93C46.7067 204.67 46.6 204.33 46.6 203.91C46.6 203.51 46.7067 203.157 46.92 202.85C47.14 202.537 47.4433 202.297 47.83 202.13C48.2233 201.957 48.67 201.87 49.17 201.87C49.6367 201.87 50.07 201.943 50.47 202.09C50.8767 202.23 51.2167 202.433 51.49 202.7C51.5967 202.807 51.65 202.923 51.65 203.05C51.65 203.143 51.6233 203.227 51.57 203.3C51.5167 203.367 51.4533 203.4 51.38 203.4C51.3067 203.4 51.21 203.363 51.09 203.29C50.7633 203.023 50.46 202.837 50.18 202.73C49.9 202.623 49.5633 202.57 49.17 202.57C48.6167 202.57 48.1867 202.687 47.88 202.92C47.5733 203.147 47.42 203.467 47.42 203.88C47.42 204.233 47.5533 204.5 47.82 204.68C48.0933 204.853 48.51 205.007 49.07 205.14C49.6767 205.287 50.1533 205.423 50.5 205.55C50.8467 205.67 51.1333 205.853 51.36 206.1C51.5933 206.347 51.71 206.677 51.71 207.09C51.71 207.483 51.6 207.83 51.38 208.13C51.1667 208.43 50.8633 208.663 50.47 208.83C50.0767 208.997 49.6267 209.08 49.12 209.08ZM54.9119 204.01C56.1319 204.01 56.7419 204.65 56.7419 205.93V208.65C56.7419 208.77 56.7052 208.867 56.6319 208.94C56.5652 209.013 56.4719 209.05 56.3519 209.05C56.2319 209.05 56.1352 209.013 56.0619 208.94C55.9885 208.867 55.9519 208.77 55.9519 208.65V208.17C55.8252 208.457 55.6319 208.68 55.3719 208.84C55.1119 208.993 54.8119 209.07 54.4719 209.07C54.1585 209.07 53.8685 209.007 53.6019 208.88C53.3419 208.753 53.1352 208.577 52.9819 208.35C52.8285 208.123 52.7519 207.873 52.7519 207.6C52.7519 207.233 52.8452 206.95 53.0319 206.75C53.2185 206.543 53.5252 206.397 53.9519 206.31C54.3785 206.217 54.9719 206.17 55.7319 206.17H55.9519V205.84C55.9519 205.44 55.8685 205.147 55.7019 204.96C55.5419 204.773 55.2785 204.68 54.9119 204.68C54.4585 204.68 53.9985 204.803 53.5319 205.05C53.3519 205.163 53.2252 205.22 53.1519 205.22C53.0719 205.22 53.0052 205.19 52.9519 205.13C52.8985 205.07 52.8719 204.993 52.8719 204.9C52.8719 204.807 52.8985 204.727 52.9519 204.66C53.0119 204.587 53.1052 204.513 53.2319 204.44C53.4652 204.307 53.7285 204.203 54.0219 204.13C54.3219 204.05 54.6185 204.01 54.9119 204.01ZM54.5819 208.43C54.9819 208.43 55.3085 208.297 55.5619 208.03C55.8219 207.757 55.9519 207.407 55.9519 206.98V206.69H55.7719C55.1852 206.69 54.7385 206.717 54.4319 206.77C54.1252 206.817 53.9052 206.9 53.7719 207.02C53.6452 207.133 53.5819 207.303 53.5819 207.53C53.5819 207.79 53.6752 208.007 53.8619 208.18C54.0552 208.347 54.2952 208.43 54.5819 208.43ZM55.0319 202.47C54.9852 202.497 54.9385 202.51 54.8919 202.51C54.8385 202.51 54.7919 202.49 54.7519 202.45C54.7185 202.41 54.7019 202.367 54.7019 202.32C54.7019 202.253 54.7285 202.193 54.7819 202.14L55.7119 201.16C55.8185 201.053 55.9319 201 56.0519 201C56.1385 201 56.2119 201.03 56.2719 201.09C56.3385 201.15 56.3719 201.227 56.3719 201.32C56.3719 201.453 56.2952 201.573 56.1419 201.68L55.0319 202.47ZM54.9119 203.54C54.5652 203.54 54.2585 203.467 53.9919 203.32C53.7252 203.173 53.5185 202.96 53.3719 202.68C53.3385 202.6 53.3219 202.54 53.3219 202.5C53.3219 202.427 53.3452 202.37 53.3919 202.33C53.4385 202.283 53.4985 202.26 53.5719 202.26C53.6852 202.26 53.7852 202.313 53.8719 202.42C54.1185 202.793 54.4652 202.98 54.9119 202.98C55.3585 202.98 55.7052 202.793 55.9519 202.42C56.0385 202.313 56.1352 202.26 56.2419 202.26C56.3152 202.26 56.3752 202.283 56.4219 202.33C56.4685 202.37 56.4919 202.427 56.4919 202.5C56.4919 202.567 56.4785 202.627 56.4519 202.68C56.3119 202.96 56.1052 203.173 55.8319 203.32C55.5652 203.467 55.2585 203.54 54.9119 203.54ZM60.6746 204.01C61.1013 204.01 61.4779 204.117 61.8046 204.33C62.1313 204.543 62.3846 204.843 62.5646 205.23C62.7446 205.61 62.8346 206.053 62.8346 206.56C62.8346 207.067 62.7446 207.51 62.5646 207.89C62.3846 208.263 62.1313 208.553 61.8046 208.76C61.4846 208.967 61.1079 209.07 60.6746 209.07C60.2946 209.07 59.9613 208.987 59.6746 208.82C59.3946 208.653 59.1813 208.417 59.0346 208.11V210.46C59.0346 210.58 58.9979 210.673 58.9246 210.74C58.8579 210.813 58.7613 210.85 58.6346 210.85C58.5079 210.85 58.4079 210.813 58.3346 210.74C58.2613 210.667 58.2246 210.573 58.2246 210.46V204.43C58.2246 204.31 58.2613 204.213 58.3346 204.14C58.4079 204.067 58.5079 204.03 58.6346 204.03C58.7613 204.03 58.8579 204.067 58.9246 204.14C58.9979 204.213 59.0346 204.31 59.0346 204.43V204.97C59.1813 204.663 59.3946 204.427 59.6746 204.26C59.9613 204.093 60.2946 204.01 60.6746 204.01ZM60.5146 208.4C60.9879 208.4 61.3546 208.24 61.6146 207.92C61.8746 207.6 62.0046 207.147 62.0046 206.56C62.0046 205.973 61.8746 205.517 61.6146 205.19C61.3546 204.857 60.9879 204.69 60.5146 204.69C60.0413 204.69 59.6746 204.85 59.4146 205.17C59.1613 205.49 59.0346 205.947 59.0346 206.54C59.0346 207.133 59.1613 207.593 59.4146 207.92C59.6746 208.24 60.0413 208.4 60.5146 208.4ZM69.083 204.01C69.6564 204.01 70.0897 204.173 70.383 204.5C70.6764 204.82 70.823 205.3 70.823 205.94V208.65C70.823 208.777 70.7864 208.877 70.713 208.95C70.6397 209.017 70.543 209.05 70.423 209.05C70.2964 209.05 70.1964 209.017 70.123 208.95C70.0497 208.877 70.013 208.777 70.013 208.65V205.96C70.013 205.527 69.923 205.207 69.743 205C69.5697 204.793 69.2897 204.69 68.903 204.69C68.4564 204.69 68.0997 204.827 67.833 205.1C67.5664 205.373 67.433 205.743 67.433 206.21V208.65C67.433 208.777 67.3964 208.877 67.323 208.95C67.2564 209.017 67.1597 209.05 67.033 209.05C66.9064 209.05 66.8064 209.017 66.733 208.95C66.6597 208.877 66.623 208.777 66.623 208.65V202.29C66.623 202.177 66.6597 202.083 66.733 202.01C66.813 201.937 66.913 201.9 67.033 201.9C67.1597 201.9 67.2564 201.937 67.323 202.01C67.3964 202.077 67.433 202.17 67.433 202.29V204.91C67.593 204.617 67.8164 204.393 68.103 204.24C68.3897 204.087 68.7164 204.01 69.083 204.01ZM76.0766 207.87C76.15 207.87 76.2133 207.9 76.2666 207.96C76.32 208.02 76.3466 208.097 76.3466 208.19C76.3466 208.357 76.23 208.51 75.9966 208.65C75.7566 208.79 75.5033 208.897 75.2366 208.97C74.97 209.037 74.71 209.07 74.4566 209.07C73.7033 209.07 73.1066 208.847 72.6666 208.4C72.2333 207.953 72.0166 207.337 72.0166 206.55C72.0166 206.05 72.1133 205.61 72.3066 205.23C72.5 204.843 72.77 204.543 73.1166 204.33C73.47 204.117 73.87 204.01 74.3166 204.01C74.95 204.01 75.4533 204.217 75.8266 204.63C76.2 205.043 76.3866 205.603 76.3866 206.31C76.3866 206.443 76.36 206.54 76.3066 206.6C76.2533 206.66 76.1666 206.69 76.0466 206.69H72.8266C72.8866 207.837 73.43 208.41 74.4566 208.41C74.7166 208.41 74.94 208.377 75.1266 208.31C75.3133 208.237 75.5133 208.14 75.7266 208.02C75.9 207.92 76.0166 207.87 76.0766 207.87ZM74.3266 204.64C73.9 204.64 73.5566 204.773 73.2966 205.04C73.0433 205.307 72.8933 205.683 72.8466 206.17H75.6766C75.6633 205.677 75.54 205.3 75.3066 205.04C75.0733 204.773 74.7466 204.64 74.3266 204.64ZM75.5766 202.46C75.5433 202.487 75.5 202.5 75.4466 202.5C75.3866 202.5 75.3333 202.48 75.2866 202.44C75.2466 202.393 75.2266 202.34 75.2266 202.28C75.2266 202.227 75.2433 202.18 75.2766 202.14L76.0366 201.17C76.1366 201.043 76.2466 200.98 76.3666 200.98C76.4666 200.98 76.55 201.017 76.6166 201.09C76.69 201.157 76.7266 201.237 76.7266 201.33C76.7266 201.47 76.6566 201.59 76.5166 201.69L75.5766 202.46ZM73.4566 203.44C73.39 203.5 73.32 203.53 73.2466 203.53C73.1666 203.53 73.0966 203.503 73.0366 203.45C72.9766 203.39 72.9466 203.32 72.9466 203.24C72.9466 203.153 72.99 203.07 73.0766 202.99L73.9466 202.12C74.06 202.013 74.1833 201.96 74.3166 201.96C74.4366 201.96 74.56 202.013 74.6866 202.12L75.5566 202.99C75.6433 203.07 75.6866 203.153 75.6866 203.24C75.6866 203.32 75.6566 203.39 75.5966 203.45C75.5366 203.503 75.47 203.53 75.3966 203.53C75.3166 203.53 75.2466 203.5 75.1866 203.44L74.3166 202.52L73.4566 203.44ZM79.8008 208.41C80.0341 208.43 80.1508 208.537 80.1508 208.73C80.1508 208.843 80.1074 208.93 80.0208 208.99C79.9408 209.043 79.8174 209.063 79.6508 209.05L79.3808 209.03C78.8474 208.99 78.4541 208.83 78.2008 208.55C77.9474 208.27 77.8208 207.847 77.8208 207.28V204.77H77.1508C77.0374 204.77 76.9474 204.743 76.8808 204.69C76.8208 204.63 76.7908 204.553 76.7908 204.46C76.7908 204.36 76.8208 204.28 76.8808 204.22C76.9474 204.16 77.0374 204.13 77.1508 204.13H77.8208V203C77.8208 202.873 77.8574 202.777 77.9308 202.71C78.0041 202.637 78.1041 202.6 78.2308 202.6C78.3508 202.6 78.4474 202.637 78.5208 202.71C78.5941 202.777 78.6308 202.873 78.6308 203V204.13H79.7408C79.8474 204.13 79.9308 204.16 79.9908 204.22C80.0574 204.28 80.0908 204.36 80.0908 204.46C80.0908 204.553 80.0574 204.63 79.9908 204.69C79.9308 204.743 79.8474 204.77 79.7408 204.77H78.6308V207.32C78.6308 207.687 78.7041 207.953 78.8508 208.12C79.0041 208.28 79.2308 208.37 79.5308 208.39L79.8008 208.41ZM85.9873 204.01C86.5607 204.01 86.994 204.173 87.2873 204.5C87.5807 204.82 87.7273 205.3 87.7273 205.94V208.65C87.7273 208.777 87.6907 208.877 87.6173 208.95C87.544 209.017 87.4473 209.05 87.3273 209.05C87.2007 209.05 87.1007 209.017 87.0273 208.95C86.954 208.877 86.9173 208.777 86.9173 208.65V205.96C86.9173 205.527 86.8273 205.207 86.6473 205C86.474 204.793 86.194 204.69 85.8073 204.69C85.3607 204.69 85.004 204.827 84.7373 205.1C84.4707 205.373 84.3373 205.743 84.3373 206.21V208.65C84.3373 208.777 84.3007 208.877 84.2273 208.95C84.1607 209.017 84.064 209.05 83.9373 209.05C83.8107 209.05 83.7107 209.017 83.6373 208.95C83.564 208.877 83.5273 208.777 83.5273 208.65V202.29C83.5273 202.177 83.564 202.083 83.6373 202.01C83.7173 201.937 83.8173 201.9 83.9373 201.9C84.064 201.9 84.1607 201.937 84.2273 202.01C84.3007 202.077 84.3373 202.17 84.3373 202.29V204.91C84.4973 204.617 84.7207 204.393 85.0073 204.24C85.294 204.087 85.6207 204.01 85.9873 204.01ZM91.2009 204.01C92.4209 204.01 93.0309 204.65 93.0309 205.93V208.65C93.0309 208.77 92.9943 208.867 92.9209 208.94C92.8543 209.013 92.7609 209.05 92.6409 209.05C92.5209 209.05 92.4243 209.013 92.3509 208.94C92.2776 208.867 92.2409 208.77 92.2409 208.65V208.17C92.1143 208.457 91.9209 208.68 91.6609 208.84C91.4009 208.993 91.1009 209.07 90.7609 209.07C90.4476 209.07 90.1576 209.007 89.8909 208.88C89.6309 208.753 89.4243 208.577 89.2709 208.35C89.1176 208.123 89.0409 207.873 89.0409 207.6C89.0409 207.233 89.1343 206.95 89.3209 206.75C89.5076 206.543 89.8143 206.397 90.2409 206.31C90.6676 206.217 91.2609 206.17 92.0209 206.17H92.2409V205.84C92.2409 205.44 92.1576 205.147 91.9909 204.96C91.8309 204.773 91.5676 204.68 91.2009 204.68C90.7476 204.68 90.2876 204.803 89.8209 205.05C89.6409 205.163 89.5143 205.22 89.4409 205.22C89.3609 205.22 89.2943 205.19 89.2409 205.13C89.1876 205.07 89.1609 204.993 89.1609 204.9C89.1609 204.807 89.1876 204.727 89.2409 204.66C89.3009 204.587 89.3943 204.513 89.5209 204.44C89.7543 204.307 90.0176 204.203 90.3109 204.13C90.6109 204.05 90.9076 204.01 91.2009 204.01ZM90.8709 208.43C91.2709 208.43 91.5976 208.297 91.8509 208.03C92.1109 207.757 92.2409 207.407 92.2409 206.98V206.69H92.0609C91.4743 206.69 91.0276 206.717 90.7209 206.77C90.4143 206.817 90.1943 206.9 90.0609 207.02C89.9343 207.133 89.8709 207.303 89.8709 207.53C89.8709 207.79 89.9643 208.007 90.1509 208.18C90.3443 208.347 90.5843 208.43 90.8709 208.43ZM91.1709 210.87C91.0176 210.87 90.8943 210.823 90.8009 210.73C90.7076 210.643 90.6609 210.527 90.6609 210.38C90.6609 210.233 90.7076 210.113 90.8009 210.02C90.8943 209.933 91.0176 209.89 91.1709 209.89C91.3176 209.89 91.4376 209.933 91.5309 210.02C91.6309 210.113 91.6809 210.233 91.6809 210.38C91.6809 210.527 91.6343 210.643 91.5409 210.73C91.4476 210.823 91.3243 210.87 91.1709 210.87ZM96.9637 204.01C98.1303 204.01 98.7137 204.653 98.7137 205.94V208.65C98.7137 208.777 98.677 208.877 98.6037 208.95C98.537 209.017 98.4403 209.05 98.3137 209.05C98.187 209.05 98.087 209.017 98.0137 208.95C97.9403 208.877 97.9037 208.777 97.9037 208.65V205.99C97.9037 205.537 97.8137 205.207 97.6337 205C97.4603 204.793 97.1803 204.69 96.7937 204.69C96.347 204.69 95.9903 204.827 95.7237 205.1C95.457 205.373 95.3237 205.743 95.3237 206.21V208.65C95.3237 208.777 95.287 208.877 95.2137 208.95C95.147 209.017 95.0503 209.05 94.9237 209.05C94.797 209.05 94.697 209.017 94.6237 208.95C94.5503 208.877 94.5137 208.777 94.5137 208.65V204.43C94.5137 204.31 94.5503 204.213 94.6237 204.14C94.697 204.067 94.797 204.03 94.9237 204.03C95.0437 204.03 95.137 204.067 95.2037 204.14C95.277 204.213 95.3137 204.307 95.3137 204.42V204.93C95.4737 204.63 95.697 204.403 95.9837 204.25C96.2703 204.09 96.597 204.01 96.9637 204.01ZM100.597 205.15C100.437 205.15 100.304 205.1 100.197 205C100.091 204.893 100.037 204.757 100.037 204.59C100.037 204.423 100.091 204.29 100.197 204.19C100.304 204.083 100.437 204.03 100.597 204.03C100.751 204.03 100.877 204.083 100.977 204.19C101.084 204.29 101.137 204.423 101.137 204.59C101.137 204.757 101.084 204.893 100.977 205C100.877 205.1 100.751 205.15 100.597 205.15ZM100.597 209.05C100.437 209.05 100.304 209 100.197 208.9C100.091 208.793 100.037 208.657 100.037 208.49C100.037 208.323 100.091 208.187 100.197 208.08C100.304 207.973 100.437 207.92 100.597 207.92C100.751 207.92 100.877 207.973 100.977 208.08C101.084 208.187 101.137 208.323 101.137 208.49C101.137 208.657 101.084 208.793 100.977 208.9C100.877 209 100.751 209.05 100.597 209.05ZM108.171 209.08C107.504 209.08 106.927 208.937 106.441 208.65C105.954 208.357 105.577 207.94 105.311 207.4C105.051 206.853 104.921 206.21 104.921 205.47C104.921 204.737 105.051 204.1 105.311 203.56C105.577 203.013 105.954 202.597 106.441 202.31C106.927 202.017 107.504 201.87 108.171 201.87C108.617 201.87 109.037 201.943 109.431 202.09C109.831 202.23 110.177 202.433 110.471 202.7C110.577 202.8 110.631 202.917 110.631 203.05C110.631 203.143 110.604 203.227 110.551 203.3C110.497 203.367 110.434 203.4 110.361 203.4C110.281 203.4 110.184 203.363 110.071 203.29C109.731 203.023 109.421 202.837 109.141 202.73C108.867 202.623 108.551 202.57 108.191 202.57C107.417 202.57 106.821 202.823 106.401 203.33C105.987 203.83 105.781 204.543 105.781 205.47C105.781 206.403 105.987 207.123 106.401 207.63C106.821 208.13 107.417 208.38 108.191 208.38C108.544 208.38 108.861 208.327 109.141 208.22C109.421 208.113 109.731 207.927 110.071 207.66C110.184 207.587 110.281 207.55 110.361 207.55C110.434 207.55 110.497 207.583 110.551 207.65C110.604 207.717 110.631 207.8 110.631 207.9C110.631 208.033 110.577 208.15 110.471 208.25C110.177 208.517 109.831 208.723 109.431 208.87C109.037 209.01 108.617 209.08 108.171 209.08ZM113.75 209.07C113.29 209.07 112.884 208.967 112.53 208.76C112.184 208.553 111.914 208.26 111.72 207.88C111.534 207.493 111.44 207.047 111.44 206.54C111.44 206.033 111.534 205.59 111.72 205.21C111.914 204.823 112.184 204.527 112.53 204.32C112.884 204.113 113.29 204.01 113.75 204.01C114.21 204.01 114.617 204.113 114.97 204.32C115.324 204.527 115.594 204.823 115.78 205.21C115.974 205.59 116.07 206.033 116.07 206.54C116.07 207.047 115.974 207.493 115.78 207.88C115.594 208.26 115.324 208.553 114.97 208.76C114.617 208.967 114.21 209.07 113.75 209.07ZM113.75 208.4C114.23 208.4 114.597 208.243 114.85 207.93C115.11 207.61 115.24 207.147 115.24 206.54C115.24 205.947 115.11 205.49 114.85 205.17C114.59 204.843 114.224 204.68 113.75 204.68C113.277 204.68 112.91 204.843 112.65 205.17C112.39 205.49 112.26 205.947 112.26 206.54C112.26 207.14 112.387 207.6 112.64 207.92C112.9 208.24 113.27 208.4 113.75 208.4ZM112.16 202.17C112.027 202.043 111.96 201.917 111.96 201.79C111.96 201.683 111.997 201.597 112.07 201.53C112.144 201.457 112.234 201.42 112.34 201.42C112.494 201.42 112.63 201.497 112.75 201.65L113.91 203.17C113.95 203.217 113.97 203.267 113.97 203.32C113.97 203.38 113.947 203.433 113.9 203.48C113.854 203.52 113.8 203.54 113.74 203.54C113.68 203.54 113.627 203.52 113.58 203.48L112.16 202.17ZM119.727 204.01C120.894 204.01 121.477 204.653 121.477 205.94V208.65C121.477 208.777 121.441 208.877 121.367 208.95C121.301 209.017 121.204 209.05 121.077 209.05C120.951 209.05 120.851 209.017 120.777 208.95C120.704 208.877 120.667 208.777 120.667 208.65V205.99C120.667 205.537 120.577 205.207 120.397 205C120.224 204.793 119.944 204.69 119.557 204.69C119.111 204.69 118.754 204.827 118.487 205.1C118.221 205.373 118.087 205.743 118.087 206.21V208.65C118.087 208.777 118.051 208.877 117.977 208.95C117.911 209.017 117.814 209.05 117.687 209.05C117.561 209.05 117.461 209.017 117.387 208.95C117.314 208.877 117.277 208.777 117.277 208.65V204.43C117.277 204.31 117.314 204.213 117.387 204.14C117.461 204.067 117.561 204.03 117.687 204.03C117.807 204.03 117.901 204.067 117.967 204.14C118.041 204.213 118.077 204.307 118.077 204.42V204.93C118.237 204.63 118.461 204.403 118.747 204.25C119.034 204.09 119.361 204.01 119.727 204.01ZM129.009 205.38C129.422 205.507 129.742 205.723 129.969 206.03C130.202 206.337 130.319 206.703 130.319 207.13C130.319 207.737 130.099 208.213 129.659 208.56C129.219 208.9 128.596 209.07 127.789 209.07C126.982 209.07 126.359 208.9 125.919 208.56C125.479 208.213 125.259 207.737 125.259 207.13C125.259 206.697 125.376 206.327 125.609 206.02C125.842 205.713 126.166 205.5 126.579 205.38C126.226 205.247 125.946 205.037 125.739 204.75C125.532 204.463 125.429 204.127 125.429 203.74C125.429 203.167 125.636 202.713 126.049 202.38C126.469 202.04 127.049 201.87 127.789 201.87C128.529 201.87 129.106 202.04 129.519 202.38C129.939 202.713 130.149 203.167 130.149 203.74C130.149 204.127 130.046 204.467 129.839 204.76C129.632 205.047 129.356 205.253 129.009 205.38ZM126.239 203.8C126.239 204.213 126.369 204.53 126.629 204.75C126.896 204.97 127.282 205.08 127.789 205.08C128.296 205.08 128.679 204.97 128.939 204.75C129.206 204.53 129.339 204.213 129.339 203.8C129.339 203.407 129.206 203.1 128.939 202.88C128.679 202.66 128.296 202.55 127.789 202.55C127.282 202.55 126.896 202.66 126.629 202.88C126.369 203.1 126.239 203.407 126.239 203.8ZM127.789 208.39C128.936 208.39 129.509 207.953 129.509 207.08C129.509 206.207 128.936 205.77 127.789 205.77C126.642 205.77 126.069 206.207 126.069 207.08C126.069 207.953 126.642 208.39 127.789 208.39ZM138.063 204.03C138.19 204.03 138.29 204.067 138.363 204.14C138.437 204.213 138.473 204.31 138.473 204.43V208.67C138.473 209.397 138.287 209.943 137.913 210.31C137.54 210.683 136.987 210.87 136.253 210.87C135.54 210.87 134.947 210.73 134.473 210.45C134.233 210.317 134.113 210.163 134.113 209.99C134.113 209.897 134.137 209.82 134.183 209.76C134.237 209.7 134.303 209.67 134.383 209.67C134.45 209.67 134.57 209.717 134.743 209.81C134.977 209.93 135.207 210.027 135.433 210.1C135.66 210.173 135.93 210.21 136.243 210.21C136.717 210.21 137.073 210.083 137.313 209.83C137.553 209.583 137.673 209.22 137.673 208.74V207.88C137.533 208.193 137.317 208.433 137.023 208.6C136.737 208.767 136.397 208.85 136.003 208.85C135.577 208.85 135.197 208.75 134.863 208.55C134.537 208.35 134.28 208.067 134.093 207.7C133.913 207.333 133.823 206.91 133.823 206.43C133.823 205.95 133.913 205.527 134.093 205.16C134.28 204.793 134.537 204.51 134.863 204.31C135.197 204.11 135.577 204.01 136.003 204.01C136.39 204.01 136.727 204.093 137.013 204.26C137.3 204.427 137.517 204.663 137.663 204.97V204.43C137.663 204.31 137.697 204.213 137.763 204.14C137.837 204.067 137.937 204.03 138.063 204.03ZM136.163 208.18C136.63 208.18 136.997 208.027 137.263 207.72C137.53 207.407 137.663 206.977 137.663 206.43C137.663 205.89 137.53 205.467 137.263 205.16C137.003 204.847 136.637 204.69 136.163 204.69C135.69 204.69 135.317 204.847 135.043 205.16C134.777 205.467 134.643 205.89 134.643 206.43C134.643 206.977 134.777 207.407 135.043 207.72C135.317 208.027 135.69 208.18 136.163 208.18ZM140.383 209.05C140.263 209.05 140.163 209.017 140.083 208.95C140.009 208.877 139.973 208.777 139.973 208.65V204.43C139.973 204.303 140.009 204.207 140.083 204.14C140.163 204.067 140.263 204.03 140.383 204.03C140.503 204.03 140.599 204.067 140.673 204.14C140.746 204.207 140.783 204.303 140.783 204.43V208.65C140.783 208.783 140.746 208.883 140.673 208.95C140.599 209.017 140.503 209.05 140.383 209.05ZM140.383 202.98C140.223 202.98 140.093 202.933 139.993 202.84C139.893 202.747 139.843 202.623 139.843 202.47C139.843 202.323 139.893 202.203 139.993 202.11C140.093 202.017 140.223 201.97 140.383 201.97C140.543 201.97 140.673 202.017 140.773 202.11C140.873 202.203 140.923 202.323 140.923 202.47C140.923 202.623 140.873 202.747 140.773 202.84C140.673 202.933 140.543 202.98 140.383 202.98ZM145.757 204.48C146.037 204.693 146.254 204.98 146.407 205.34C146.56 205.693 146.637 206.093 146.637 206.54C146.637 207.047 146.54 207.493 146.347 207.88C146.16 208.26 145.89 208.553 145.537 208.76C145.184 208.967 144.777 209.07 144.317 209.07C143.857 209.07 143.45 208.967 143.097 208.76C142.75 208.553 142.48 208.26 142.287 207.88C142.1 207.493 142.007 207.047 142.007 206.54C142.007 206.033 142.1 205.59 142.287 205.21C142.48 204.823 142.75 204.527 143.097 204.32C143.45 204.113 143.857 204.01 144.317 204.01C144.39 204.01 144.474 204.017 144.567 204.03C144.66 204.037 144.727 204.04 144.767 204.04C144.9 204.053 144.99 204.06 145.037 204.06C145.33 204.06 145.547 203.99 145.687 203.85C145.827 203.71 145.907 203.477 145.927 203.15C145.947 202.897 146.08 202.77 146.327 202.77C146.44 202.77 146.524 202.803 146.577 202.87C146.637 202.93 146.667 203.033 146.667 203.18C146.667 203.493 146.587 203.763 146.427 203.99C146.267 204.217 146.044 204.38 145.757 204.48ZM144.317 208.4C144.797 208.4 145.164 208.243 145.417 207.93C145.677 207.61 145.807 207.147 145.807 206.54C145.807 205.947 145.677 205.49 145.417 205.17C145.157 204.843 144.79 204.68 144.317 204.68C143.844 204.68 143.477 204.843 143.217 205.17C142.957 205.49 142.827 205.947 142.827 206.54C142.827 207.14 142.954 207.6 143.207 207.92C143.467 208.24 143.837 208.4 144.317 208.4ZM142.727 202.17C142.594 202.043 142.527 201.917 142.527 201.79C142.527 201.683 142.564 201.597 142.637 201.53C142.71 201.457 142.8 201.42 142.907 201.42C143.06 201.42 143.197 201.497 143.317 201.65L144.477 203.17C144.517 203.217 144.537 203.267 144.537 203.32C144.537 203.38 144.514 203.433 144.467 203.48C144.42 203.52 144.367 203.54 144.307 203.54C144.247 203.54 144.194 203.52 144.147 203.48L142.727 202.17Z" fill="#FF7A00"/>
<path d="M272.044 134.54C273.396 134.54 274.44 134.908 275.176 135.644C275.92 136.372 276.292 137.412 276.292 138.764C276.292 140.116 275.92 141.16 275.176 141.896C274.432 142.632 273.388 143 272.044 143H269.704C269.552 143 269.428 142.956 269.332 142.868C269.244 142.772 269.2 142.656 269.2 142.52V139.112H268.444C268.308 139.112 268.2 139.08 268.12 139.016C268.04 138.944 268 138.844 268 138.716C268 138.588 268.04 138.488 268.12 138.416C268.2 138.344 268.308 138.308 268.444 138.308H269.2V135.02C269.2 134.876 269.244 134.76 269.332 134.672C269.428 134.584 269.552 134.54 269.704 134.54H272.044ZM271.996 142.16C274.188 142.16 275.284 141.028 275.284 138.764C275.284 136.508 274.188 135.38 271.996 135.38H270.184V138.308H272.152C272.288 138.308 272.392 138.344 272.464 138.416C272.544 138.488 272.584 138.588 272.584 138.716C272.584 138.844 272.544 138.944 272.464 139.016C272.392 139.08 272.288 139.112 272.152 139.112H270.184V142.16H271.996ZM278.415 143.06C278.271 143.06 278.151 143.02 278.055 142.94C277.967 142.852 277.923 142.732 277.923 142.58V137.516C277.923 137.364 277.967 137.248 278.055 137.168C278.151 137.08 278.271 137.036 278.415 137.036C278.559 137.036 278.675 137.08 278.763 137.168C278.851 137.248 278.895 137.364 278.895 137.516V142.58C278.895 142.74 278.851 142.86 278.763 142.94C278.675 143.02 278.559 143.06 278.415 143.06ZM278.415 135.776C278.223 135.776 278.067 135.72 277.947 135.608C277.827 135.496 277.767 135.348 277.767 135.164C277.767 134.988 277.827 134.844 277.947 134.732C278.067 134.62 278.223 134.564 278.415 134.564C278.607 134.564 278.763 134.62 278.883 134.732C279.003 134.844 279.063 134.988 279.063 135.164C279.063 135.348 279.003 135.496 278.883 135.608C278.763 135.72 278.607 135.776 278.415 135.776ZM285.237 141.644C285.325 141.644 285.401 141.68 285.465 141.752C285.529 141.824 285.561 141.916 285.561 142.028C285.561 142.228 285.421 142.412 285.141 142.58C284.853 142.748 284.549 142.876 284.229 142.964C283.909 143.044 283.597 143.084 283.293 143.084C282.389 143.084 281.673 142.816 281.145 142.28C280.625 141.744 280.365 141.004 280.365 140.06C280.365 139.46 280.481 138.932 280.713 138.476C280.945 138.012 281.269 137.652 281.685 137.396C282.109 137.14 282.589 137.012 283.125 137.012C283.885 137.012 284.489 137.26 284.937 137.756C285.385 138.252 285.609 138.924 285.609 139.772C285.609 139.932 285.577 140.048 285.513 140.12C285.449 140.192 285.345 140.228 285.201 140.228H281.337C281.409 141.604 282.061 142.292 283.293 142.292C283.605 142.292 283.873 142.252 284.097 142.172C284.321 142.084 284.561 141.968 284.817 141.824C285.025 141.704 285.165 141.644 285.237 141.644ZM283.137 137.768C282.625 137.768 282.213 137.928 281.901 138.248C281.597 138.568 281.417 139.02 281.361 139.604H284.757C284.741 139.012 284.593 138.56 284.313 138.248C284.033 137.928 283.641 137.768 283.137 137.768ZM283.869 134.108C283.773 133.988 283.725 133.872 283.725 133.76C283.725 133.64 283.769 133.54 283.857 133.46C283.953 133.38 284.061 133.34 284.181 133.34C284.381 133.34 284.521 133.444 284.601 133.652L285.105 134.828C285.121 134.86 285.129 134.9 285.129 134.948C285.129 135.02 285.101 135.08 285.045 135.128C284.997 135.176 284.937 135.2 284.865 135.2C284.777 135.2 284.705 135.164 284.649 135.092L283.869 134.108ZM282.093 136.328C282.013 136.4 281.929 136.436 281.841 136.436C281.745 136.436 281.661 136.404 281.589 136.34C281.517 136.268 281.481 136.184 281.481 136.088C281.481 135.984 281.533 135.884 281.637 135.788L282.681 134.744C282.817 134.616 282.965 134.552 283.125 134.552C283.269 134.552 283.417 134.616 283.569 134.744L284.613 135.788C284.717 135.884 284.769 135.984 284.769 136.088C284.769 136.184 284.733 136.268 284.661 136.34C284.589 136.404 284.509 136.436 284.421 136.436C284.325 136.436 284.241 136.4 284.169 136.328L283.125 135.224L282.093 136.328ZM291.481 137.036C291.633 137.036 291.749 137.08 291.829 137.168C291.917 137.256 291.961 137.372 291.961 137.516V142.592C291.961 142.728 291.917 142.84 291.829 142.928C291.749 143.016 291.633 143.06 291.481 143.06C291.337 143.06 291.221 143.02 291.133 142.94C291.053 142.852 291.013 142.74 291.013 142.604V142.004C290.829 142.356 290.569 142.624 290.233 142.808C289.905 142.992 289.533 143.084 289.117 143.084C288.421 143.084 287.897 142.892 287.545 142.508C287.193 142.116 287.017 141.54 287.017 140.78V137.516C287.017 137.372 287.061 137.256 287.149 137.168C287.237 137.08 287.357 137.036 287.509 137.036C287.661 137.036 287.777 137.08 287.857 137.168C287.945 137.256 287.989 137.372 287.989 137.516V140.756C287.989 141.276 288.093 141.66 288.301 141.908C288.509 142.148 288.837 142.268 289.285 142.268C289.797 142.268 290.209 142.104 290.521 141.776C290.833 141.44 290.989 141 290.989 140.456V137.516C290.989 137.372 291.033 137.256 291.121 137.168C291.209 137.08 291.329 137.036 291.481 137.036ZM301.529 142.232C301.657 142.352 301.721 142.48 301.721 142.616C301.721 142.736 301.677 142.84 301.589 142.928C301.509 143.016 301.409 143.06 301.289 143.06C301.185 143.06 301.077 143.012 300.965 142.916L297.833 140.216V142.58C297.833 142.732 297.785 142.852 297.689 142.94C297.601 143.02 297.489 143.06 297.353 143.06C297.209 143.06 297.089 143.02 296.993 142.94C296.905 142.852 296.861 142.732 296.861 142.58V134.96C296.861 134.808 296.905 134.692 296.993 134.612C297.089 134.524 297.209 134.48 297.353 134.48C297.489 134.48 297.601 134.524 297.689 134.612C297.785 134.692 297.833 134.808 297.833 134.96V139.832L300.701 137.204C300.797 137.108 300.905 137.06 301.025 137.06C301.145 137.06 301.249 137.104 301.337 137.192C301.425 137.28 301.469 137.384 301.469 137.504C301.469 137.64 301.413 137.76 301.301 137.864L298.937 139.976L301.529 142.232ZM303.353 143.06C303.209 143.06 303.089 143.02 302.993 142.94C302.905 142.852 302.861 142.732 302.861 142.58V137.516C302.861 137.364 302.905 137.248 302.993 137.168C303.089 137.08 303.209 137.036 303.353 137.036C303.497 137.036 303.613 137.08 303.701 137.168C303.789 137.248 303.833 137.364 303.833 137.516V142.58C303.833 142.74 303.789 142.86 303.701 142.94C303.613 143.02 303.497 143.06 303.353 143.06ZM303.353 135.776C303.161 135.776 303.005 135.72 302.885 135.608C302.765 135.496 302.705 135.348 302.705 135.164C302.705 134.988 302.765 134.844 302.885 134.732C303.005 134.62 303.161 134.564 303.353 134.564C303.545 134.564 303.701 134.62 303.821 134.732C303.941 134.844 304.001 134.988 304.001 135.164C304.001 135.348 303.941 135.496 303.821 135.608C303.701 135.72 303.545 135.776 303.353 135.776ZM310.174 141.644C310.262 141.644 310.338 141.68 310.402 141.752C310.466 141.824 310.498 141.916 310.498 142.028C310.498 142.228 310.358 142.412 310.078 142.58C309.79 142.748 309.486 142.876 309.166 142.964C308.846 143.044 308.534 143.084 308.23 143.084C307.326 143.084 306.61 142.816 306.082 142.28C305.562 141.744 305.302 141.004 305.302 140.06C305.302 139.46 305.418 138.932 305.65 138.476C305.882 138.012 306.206 137.652 306.622 137.396C307.046 137.14 307.526 137.012 308.062 137.012C308.822 137.012 309.426 137.26 309.874 137.756C310.322 138.252 310.546 138.924 310.546 139.772C310.546 139.932 310.514 140.048 310.45 140.12C310.386 140.192 310.282 140.228 310.138 140.228H306.274C306.346 141.604 306.998 142.292 308.23 142.292C308.542 142.292 308.81 142.252 309.034 142.172C309.258 142.084 309.498 141.968 309.754 141.824C309.962 141.704 310.102 141.644 310.174 141.644ZM308.074 137.768C307.562 137.768 307.15 137.928 306.838 138.248C306.534 138.568 306.354 139.02 306.298 139.604H309.694C309.678 139.012 309.53 138.56 309.25 138.248C308.97 137.928 308.578 137.768 308.074 137.768ZM308.23 145.244C308.046 145.244 307.898 145.188 307.786 145.076C307.674 144.972 307.618 144.832 307.618 144.656C307.618 144.48 307.674 144.336 307.786 144.224C307.898 144.12 308.046 144.068 308.23 144.068C308.406 144.068 308.55 144.12 308.662 144.224C308.782 144.336 308.842 144.48 308.842 144.656C308.842 144.832 308.786 144.972 308.674 145.076C308.562 145.188 308.414 145.244 308.23 145.244ZM307.102 136.244C307.03 136.372 306.922 136.436 306.778 136.436C306.682 136.436 306.598 136.404 306.526 136.34C306.454 136.268 306.418 136.184 306.418 136.088C306.418 136 306.446 135.916 306.502 135.836L307.606 134.204C307.734 134.012 307.886 133.916 308.062 133.916C308.238 133.916 308.39 134.012 308.518 134.204L309.634 135.836C309.69 135.916 309.718 135.996 309.718 136.076C309.718 136.172 309.678 136.256 309.598 136.328C309.526 136.4 309.442 136.436 309.346 136.436C309.202 136.436 309.094 136.372 309.022 136.244L308.062 134.684L307.102 136.244ZM314.918 137.012C316.318 137.012 317.018 137.784 317.018 139.328V142.58C317.018 142.732 316.974 142.852 316.886 142.94C316.806 143.02 316.69 143.06 316.538 143.06C316.386 143.06 316.266 143.02 316.178 142.94C316.09 142.852 316.046 142.732 316.046 142.58V139.388C316.046 138.844 315.938 138.448 315.722 138.2C315.514 137.952 315.178 137.828 314.714 137.828C314.178 137.828 313.75 137.992 313.43 138.32C313.11 138.648 312.95 139.092 312.95 139.652V142.58C312.95 142.732 312.906 142.852 312.818 142.94C312.738 143.02 312.622 143.06 312.47 143.06C312.318 143.06 312.198 143.02 312.11 142.94C312.022 142.852 311.978 142.732 311.978 142.58V137.516C311.978 137.372 312.022 137.256 312.11 137.168C312.198 137.08 312.318 137.036 312.47 137.036C312.614 137.036 312.726 137.08 312.806 137.168C312.894 137.256 312.938 137.368 312.938 137.504V138.116C313.13 137.756 313.398 137.484 313.742 137.3C314.086 137.108 314.478 137.012 314.918 137.012Z" fill="#FF9611"/>
<path d="M268 144.2H317.894V144.8H268V144.2Z" fill="#FF9611"/>
<rect x="46.3984" y="155" width="66.8556" height="17.1914" rx="4" fill="#EE4D2D"/>
<path d="M58.8579 167.628C58.7046 167.628 58.5779 167.581 58.4779 167.488C58.3846 167.388 58.3379 167.261 58.3379 167.108V161.388H56.3379C56.0179 161.388 55.8579 161.245 55.8579 160.958C55.8579 160.818 55.8979 160.711 55.9779 160.638C56.0646 160.565 56.1846 160.528 56.3379 160.528H61.3779C61.5312 160.528 61.6479 160.565 61.7279 160.638C61.8146 160.711 61.8579 160.818 61.8579 160.958C61.8579 161.245 61.6979 161.388 61.3779 161.388H59.3779V167.108C59.3779 167.261 59.3312 167.388 59.2379 167.488C59.1446 167.581 59.0179 167.628 58.8579 167.628ZM63.9411 167.648C63.4611 167.648 63.0378 167.545 62.6711 167.338C62.3111 167.131 62.0311 166.838 61.8311 166.458C61.6378 166.071 61.5411 165.625 61.5411 165.118C61.5411 164.605 61.6378 164.158 61.8311 163.778C62.0311 163.391 62.3111 163.095 62.6711 162.888C63.0378 162.681 63.4611 162.578 63.9411 162.578C64.4211 162.578 64.8411 162.681 65.2011 162.888C65.5678 163.095 65.8478 163.391 66.0411 163.778C66.2411 164.158 66.3411 164.605 66.3411 165.118C66.3411 165.625 66.2411 166.071 66.0411 166.458C65.8478 166.838 65.5678 167.131 65.2011 167.338C64.8411 167.545 64.4211 167.648 63.9411 167.648ZM63.9411 166.848C64.3878 166.848 64.7278 166.701 64.9611 166.408C65.2011 166.115 65.3211 165.685 65.3211 165.118C65.3211 164.558 65.2011 164.131 64.9611 163.838C64.7211 163.538 64.3811 163.388 63.9411 163.388C63.5011 163.388 63.1611 163.538 62.9211 163.838C62.6811 164.131 62.5611 164.558 62.5611 165.118C62.5611 165.685 62.6778 166.115 62.9111 166.408C63.1511 166.701 63.4944 166.848 63.9411 166.848ZM65.2611 161.018C65.2144 161.045 65.1644 161.058 65.1111 161.058C65.0444 161.058 64.9844 161.035 64.9311 160.988C64.8844 160.941 64.8611 160.885 64.8611 160.818C64.8611 160.751 64.8844 160.691 64.9311 160.638L65.6211 159.748C65.7344 159.608 65.8578 159.538 65.9911 159.538C66.1044 159.538 66.2011 159.581 66.2811 159.668C66.3678 159.748 66.4111 159.845 66.4111 159.958C66.4111 160.125 66.3244 160.261 66.1511 160.368L65.2611 161.018ZM63.1111 162.008C63.0511 162.068 62.9744 162.098 62.8811 162.098C62.7878 162.098 62.7078 162.065 62.6411 161.998C62.5744 161.931 62.5411 161.855 62.5411 161.768C62.5411 161.655 62.5944 161.558 62.7011 161.478L63.5311 160.718C63.6644 160.611 63.8011 160.558 63.9411 160.558C64.0678 160.558 64.2044 160.611 64.3511 160.718L65.1811 161.478C65.2944 161.565 65.3511 161.665 65.3511 161.778C65.3511 161.865 65.3144 161.941 65.2411 162.008C65.1744 162.075 65.0944 162.108 65.0011 162.108C64.9278 162.108 64.8544 162.078 64.7811 162.018L63.9411 161.188L63.1111 162.008ZM67.9756 167.628C67.829 167.628 67.7056 167.588 67.6056 167.508C67.5123 167.428 67.4656 167.308 67.4656 167.148V163.088C67.4656 162.928 67.5123 162.808 67.6056 162.728C67.7056 162.641 67.829 162.598 67.9756 162.598C68.1223 162.598 68.2423 162.641 68.3356 162.728C68.429 162.808 68.4756 162.928 68.4756 163.088V167.148C68.4756 167.308 68.429 167.428 68.3356 167.508C68.2423 167.588 68.1223 167.628 67.9756 167.628ZM67.9756 161.618C67.7823 161.618 67.629 161.565 67.5156 161.458C67.4023 161.351 67.3456 161.211 67.3456 161.038C67.3456 160.865 67.4023 160.728 67.5156 160.628C67.629 160.521 67.7823 160.468 67.9756 160.468C68.1623 160.468 68.3123 160.521 68.4256 160.628C68.5456 160.728 68.6056 160.865 68.6056 161.038C68.6056 161.211 68.549 161.351 68.4356 161.458C68.3223 161.565 68.169 161.618 67.9756 161.618ZM77.6042 161.358C77.7376 161.358 77.8409 161.391 77.9142 161.458C77.9876 161.525 78.0242 161.615 78.0242 161.728C78.0242 161.841 77.9876 161.931 77.9142 161.998C77.8409 162.065 77.7376 162.098 77.6042 162.098H77.0242V167.138C77.0242 167.291 76.9776 167.411 76.8842 167.498C76.7976 167.585 76.6776 167.628 76.5242 167.628C76.3709 167.628 76.2476 167.585 76.1542 167.498C76.0676 167.411 76.0242 167.291 76.0242 167.138V166.738C75.8776 167.031 75.6642 167.258 75.3842 167.418C75.1042 167.571 74.7809 167.648 74.4142 167.648C73.9942 167.648 73.6176 167.541 73.2842 167.328C72.9576 167.115 72.7009 166.815 72.5142 166.428C72.3342 166.041 72.2442 165.598 72.2442 165.098C72.2442 164.591 72.3342 164.148 72.5142 163.768C72.7009 163.388 72.9576 163.095 73.2842 162.888C73.6109 162.681 73.9876 162.578 74.4142 162.578C74.7809 162.578 75.1009 162.658 75.3742 162.818C75.6542 162.971 75.8676 163.191 76.0142 163.478V162.098H74.4442C74.3042 162.098 74.1976 162.065 74.1242 161.998C74.0509 161.931 74.0142 161.841 74.0142 161.728C74.0142 161.615 74.0509 161.525 74.1242 161.458C74.1976 161.391 74.3042 161.358 74.4442 161.358H76.0142V160.938C76.0142 160.798 76.0576 160.688 76.1442 160.608C76.2376 160.521 76.3609 160.478 76.5142 160.478C76.6676 160.478 76.7909 160.521 76.8842 160.608C76.9776 160.695 77.0242 160.811 77.0242 160.958V161.358H77.6042ZM74.6542 166.848C75.0876 166.848 75.4242 166.698 75.6642 166.398C75.9042 166.098 76.0242 165.671 76.0242 165.118C76.0242 164.565 75.9042 164.138 75.6642 163.838C75.4309 163.538 75.0942 163.388 74.6542 163.388C74.2142 163.388 73.8709 163.538 73.6242 163.838C73.3842 164.131 73.2642 164.551 73.2642 165.098C73.2642 165.645 73.3876 166.075 73.6342 166.388C73.8809 166.695 74.2209 166.848 74.6542 166.848ZM80.4824 162.578C81.1291 162.578 81.6091 162.741 81.9224 163.068C82.2424 163.395 82.4024 163.891 82.4024 164.558V167.148C82.4024 167.301 82.3591 167.421 82.2724 167.508C82.1858 167.588 82.0658 167.628 81.9124 167.628C81.7658 167.628 81.6491 167.585 81.5624 167.498C81.4758 167.411 81.4324 167.295 81.4324 167.148V166.778C81.3058 167.058 81.1158 167.275 80.8624 167.428C80.6158 167.575 80.3258 167.648 79.9924 167.648C79.6724 167.648 79.3791 167.585 79.1124 167.458C78.8458 167.325 78.6358 167.141 78.4824 166.908C78.3358 166.675 78.2624 166.415 78.2624 166.128C78.2624 165.775 78.3524 165.498 78.5324 165.298C78.7191 165.091 79.0224 164.945 79.4424 164.858C79.8691 164.771 80.4524 164.728 81.1924 164.728H81.4224V164.438C81.4224 164.065 81.3458 163.795 81.1924 163.628C81.0391 163.461 80.7924 163.378 80.4524 163.378C80.2191 163.378 79.9991 163.408 79.7924 163.468C79.5858 163.528 79.3591 163.615 79.1124 163.728C78.9324 163.828 78.8058 163.878 78.7324 163.878C78.6324 163.878 78.5491 163.841 78.4824 163.768C78.4224 163.695 78.3924 163.601 78.3924 163.488C78.3924 163.388 78.4191 163.301 78.4724 163.228C78.5324 163.148 78.6258 163.071 78.7524 162.998C78.9858 162.871 79.2591 162.771 79.5724 162.698C79.8858 162.618 80.1891 162.578 80.4824 162.578ZM80.1724 166.898C80.5391 166.898 80.8391 166.775 81.0724 166.528C81.3058 166.275 81.4224 165.951 81.4224 165.558V165.298H81.2424C80.7224 165.298 80.3224 165.321 80.0424 165.368C79.7624 165.415 79.5624 165.495 79.4424 165.608C79.3224 165.715 79.2624 165.871 79.2624 166.078C79.2624 166.318 79.3491 166.515 79.5224 166.668C79.6958 166.821 79.9124 166.898 80.1724 166.898ZM90.7507 166.728C90.9107 166.728 91.0307 166.765 91.1107 166.838C91.1974 166.911 91.2407 167.015 91.2407 167.148C91.2407 167.435 91.0774 167.578 90.7507 167.578H86.8907C86.744 167.578 86.6274 167.538 86.5407 167.458C86.4607 167.371 86.4207 167.265 86.4207 167.138C86.4207 166.985 86.4807 166.845 86.6007 166.718L88.9507 164.148C89.264 163.808 89.4907 163.498 89.6307 163.218C89.7707 162.938 89.8407 162.661 89.8407 162.388C89.8407 162.035 89.7374 161.765 89.5307 161.578C89.3307 161.385 89.044 161.288 88.6707 161.288C88.104 161.288 87.5407 161.505 86.9807 161.938C86.9074 161.985 86.844 162.021 86.7907 162.048C86.744 162.068 86.694 162.078 86.6407 162.078C86.5474 162.078 86.4674 162.035 86.4007 161.948C86.334 161.861 86.3007 161.758 86.3007 161.638C86.3007 161.471 86.3674 161.338 86.5007 161.238C86.7807 160.998 87.1174 160.808 87.5107 160.668C87.904 160.521 88.3007 160.448 88.7007 160.448C89.3607 160.448 89.884 160.618 90.2707 160.958C90.664 161.291 90.8607 161.745 90.8607 162.318C90.8607 162.725 90.7707 163.111 90.5907 163.478C90.4174 163.845 90.124 164.255 89.7107 164.708L87.8207 166.728H90.7507ZM94.7168 167.658C93.8968 167.658 93.2701 167.351 92.8368 166.738C92.4101 166.125 92.1968 165.231 92.1968 164.058C92.1968 162.878 92.4101 161.981 92.8368 161.368C93.2701 160.755 93.8968 160.448 94.7168 160.448C95.5368 160.448 96.1601 160.755 96.5868 161.368C97.0201 161.975 97.2368 162.868 97.2368 164.048C97.2368 165.228 97.0201 166.125 96.5868 166.738C96.1601 167.351 95.5368 167.658 94.7168 167.658ZM94.7168 166.828C95.2301 166.828 95.6068 166.605 95.8468 166.158C96.0868 165.711 96.2068 165.008 96.2068 164.048C96.2068 163.088 96.0868 162.388 95.8468 161.948C95.6068 161.501 95.2301 161.278 94.7168 161.278C94.2035 161.278 93.8268 161.501 93.5868 161.948C93.3468 162.388 93.2268 163.088 93.2268 164.048C93.2268 165.001 93.3468 165.705 93.5868 166.158C93.8268 166.605 94.2035 166.828 94.7168 166.828ZM103.783 166.798C103.896 166.905 103.953 167.021 103.953 167.148C103.953 167.275 103.903 167.385 103.803 167.478C103.71 167.571 103.6 167.618 103.473 167.618C103.346 167.618 103.23 167.565 103.123 167.458L99.5629 164.248V167.108C99.5629 167.268 99.5162 167.395 99.4229 167.488C99.3362 167.581 99.2096 167.628 99.0429 167.628C98.8896 167.628 98.7662 167.581 98.6729 167.488C98.5796 167.395 98.5329 167.268 98.5329 167.108V160.998C98.5329 160.845 98.5796 160.721 98.6729 160.628C98.7662 160.528 98.8896 160.478 99.0429 160.478C99.2029 160.478 99.3296 160.525 99.4229 160.618C99.5162 160.711 99.5629 160.838 99.5629 160.998V163.738L102.973 160.628C103.066 160.535 103.176 160.488 103.303 160.488C103.43 160.488 103.54 160.535 103.633 160.628C103.726 160.721 103.773 160.828 103.773 160.948C103.773 161.075 103.716 161.191 103.603 161.298L100.623 163.958L103.783 166.798Z" fill="white"/>
<rect x="225" y="181" width="94" height="30" rx="4" fill="#EE4D2D"/>
<path d="M250.778 201C250.508 201 250.298 200.925 250.148 200.776C249.999 200.627 249.924 200.421 249.924 200.16V191.956C249.924 191.685 250.004 191.471 250.162 191.312C250.33 191.144 250.55 191.06 250.82 191.06C251.1 191.06 251.32 191.144 251.478 191.312C251.646 191.471 251.73 191.685 251.73 191.956V199.516H255.664C256.224 199.516 256.504 199.763 256.504 200.258C256.504 200.753 256.224 201 255.664 201H250.778ZM260.504 193.986C261.456 193.986 262.161 194.224 262.618 194.7C263.085 195.167 263.318 195.881 263.318 196.842V200.258C263.318 200.51 263.243 200.711 263.094 200.86C262.945 201 262.739 201.07 262.478 201.07C262.235 201.07 262.035 200.995 261.876 200.846C261.727 200.697 261.652 200.501 261.652 200.258V199.95C261.493 200.314 261.241 200.599 260.896 200.804C260.56 201.009 260.168 201.112 259.72 201.112C259.263 201.112 258.847 201.019 258.474 200.832C258.101 200.645 257.807 200.389 257.592 200.062C257.377 199.735 257.27 199.371 257.27 198.97C257.27 198.466 257.396 198.069 257.648 197.78C257.909 197.491 258.329 197.281 258.908 197.15C259.487 197.019 260.285 196.954 261.302 196.954H261.652V196.632C261.652 196.175 261.554 195.843 261.358 195.638C261.162 195.423 260.845 195.316 260.406 195.316C260.135 195.316 259.86 195.358 259.58 195.442C259.3 195.517 258.969 195.629 258.586 195.778C258.343 195.899 258.166 195.96 258.054 195.96C257.886 195.96 257.746 195.899 257.634 195.778C257.531 195.657 257.48 195.498 257.48 195.302C257.48 195.143 257.517 195.008 257.592 194.896C257.676 194.775 257.811 194.663 257.998 194.56C258.325 194.383 258.712 194.243 259.16 194.14C259.617 194.037 260.065 193.986 260.504 193.986ZM260.07 199.852C260.537 199.852 260.915 199.698 261.204 199.39C261.503 199.073 261.652 198.667 261.652 198.172V197.878H261.4C260.775 197.878 260.289 197.906 259.944 197.962C259.599 198.018 259.351 198.116 259.202 198.256C259.053 198.396 258.978 198.587 258.978 198.83C258.978 199.129 259.081 199.376 259.286 199.572C259.501 199.759 259.762 199.852 260.07 199.852ZM262.45 191.788C262.385 191.825 262.31 191.844 262.226 191.844C262.114 191.844 262.016 191.807 261.932 191.732C261.857 191.648 261.82 191.55 261.82 191.438C261.82 191.345 261.857 191.247 261.932 191.144L262.8 190.038C262.977 189.823 263.169 189.716 263.374 189.716C263.551 189.716 263.71 189.786 263.85 189.926C263.99 190.066 264.06 190.229 264.06 190.416C264.06 190.687 263.915 190.901 263.626 191.06L262.45 191.788ZM259.384 193.188C259.291 193.272 259.174 193.314 259.034 193.314C258.885 193.314 258.754 193.263 258.642 193.16C258.53 193.057 258.474 192.936 258.474 192.796C258.474 192.609 258.572 192.451 258.768 192.32L259.86 191.438C260.075 191.279 260.289 191.2 260.504 191.2C260.719 191.2 260.933 191.279 261.148 191.438L262.24 192.32C262.427 192.46 262.52 192.619 262.52 192.796C262.52 192.936 262.464 193.062 262.352 193.174C262.24 193.277 262.114 193.328 261.974 193.328C261.862 193.328 261.755 193.286 261.652 193.202L260.504 192.194L259.384 193.188ZM269.871 194.518C269.945 194.35 270.043 194.229 270.165 194.154C270.295 194.07 270.435 194.028 270.585 194.028C270.799 194.028 270.991 194.103 271.159 194.252C271.336 194.392 271.425 194.569 271.425 194.784C271.425 194.887 271.397 194.994 271.341 195.106L267.519 203.114C267.36 203.431 267.113 203.59 266.777 203.59C266.562 203.59 266.371 203.52 266.203 203.38C266.044 203.249 265.965 203.081 265.965 202.876C265.965 202.773 265.993 202.657 266.049 202.526L267.001 200.524L264.397 195.106C264.35 195.013 264.327 194.905 264.327 194.784C264.327 194.569 264.415 194.387 264.593 194.238C264.779 194.089 264.989 194.014 265.223 194.014C265.381 194.014 265.526 194.056 265.657 194.14C265.787 194.215 265.89 194.336 265.965 194.504L267.925 198.83L269.871 194.518ZM284.4 193.986C285.147 193.986 285.716 194.21 286.108 194.658C286.51 195.097 286.71 195.811 286.71 196.8V200.244C286.71 200.515 286.626 200.725 286.458 200.874C286.3 201.014 286.09 201.084 285.828 201.084C285.576 201.084 285.366 201.014 285.198 200.874C285.04 200.725 284.96 200.515 284.96 200.244V196.8C284.96 196.287 284.867 195.923 284.68 195.708C284.503 195.484 284.228 195.372 283.854 195.372C283.397 195.372 283.033 195.531 282.762 195.848C282.492 196.156 282.356 196.581 282.356 197.122V200.244C282.356 200.515 282.272 200.725 282.104 200.874C281.946 201.014 281.74 201.084 281.488 201.084C281.236 201.084 281.026 201.014 280.858 200.874C280.69 200.725 280.606 200.515 280.606 200.244V196.8C280.606 196.287 280.513 195.923 280.326 195.708C280.149 195.484 279.874 195.372 279.5 195.372C279.043 195.372 278.679 195.531 278.408 195.848C278.147 196.156 278.016 196.581 278.016 197.122V200.244C278.016 200.515 277.932 200.725 277.764 200.874C277.596 201.014 277.386 201.084 277.134 201.084C276.882 201.084 276.672 201.014 276.504 200.874C276.346 200.725 276.266 200.515 276.266 200.244V194.826C276.266 194.565 276.35 194.364 276.518 194.224C276.686 194.084 276.896 194.014 277.148 194.014C277.391 194.014 277.587 194.084 277.736 194.224C277.895 194.355 277.974 194.546 277.974 194.798V195.134C278.189 194.761 278.474 194.476 278.828 194.28C279.192 194.084 279.608 193.986 280.074 193.986C281.101 193.986 281.787 194.415 282.132 195.274C282.338 194.882 282.641 194.569 283.042 194.336C283.444 194.103 283.896 193.986 284.4 193.986ZM291.457 193.986C292.409 193.986 293.114 194.224 293.571 194.7C294.038 195.167 294.271 195.881 294.271 196.842V200.258C294.271 200.51 294.196 200.711 294.047 200.86C293.898 201 293.692 201.07 293.431 201.07C293.188 201.07 292.988 200.995 292.829 200.846C292.68 200.697 292.605 200.501 292.605 200.258V199.95C292.446 200.314 292.194 200.599 291.849 200.804C291.513 201.009 291.121 201.112 290.673 201.112C290.216 201.112 289.8 201.019 289.427 200.832C289.054 200.645 288.76 200.389 288.545 200.062C288.33 199.735 288.223 199.371 288.223 198.97C288.223 198.466 288.349 198.069 288.601 197.78C288.862 197.491 289.282 197.281 289.861 197.15C290.44 197.019 291.238 196.954 292.255 196.954H292.605V196.632C292.605 196.175 292.507 195.843 292.311 195.638C292.115 195.423 291.798 195.316 291.359 195.316C291.088 195.316 290.813 195.358 290.533 195.442C290.253 195.517 289.922 195.629 289.539 195.778C289.296 195.899 289.119 195.96 289.007 195.96C288.839 195.96 288.699 195.899 288.587 195.778C288.484 195.657 288.433 195.498 288.433 195.302C288.433 195.143 288.47 195.008 288.545 194.896C288.629 194.775 288.764 194.663 288.951 194.56C289.278 194.383 289.665 194.243 290.113 194.14C290.57 194.037 291.018 193.986 291.457 193.986ZM291.023 199.852C291.49 199.852 291.868 199.698 292.157 199.39C292.456 199.073 292.605 198.667 292.605 198.172V197.878H292.353C291.728 197.878 291.242 197.906 290.897 197.962C290.552 198.018 290.304 198.116 290.155 198.256C290.006 198.396 289.931 198.587 289.931 198.83C289.931 199.129 290.034 199.376 290.239 199.572C290.454 199.759 290.715 199.852 291.023 199.852ZM292.479 192.824C292.311 192.824 292.143 192.787 291.975 192.712C291.816 192.637 291.611 192.525 291.359 192.376C291.154 192.255 290.99 192.166 290.869 192.11C290.748 192.054 290.636 192.026 290.533 192.026C290.384 192.026 290.262 192.063 290.169 192.138C290.085 192.213 289.996 192.32 289.903 192.46C289.828 192.572 289.763 192.656 289.707 192.712C289.651 192.759 289.581 192.782 289.497 192.782C289.394 192.782 289.306 192.74 289.231 192.656C289.166 192.563 289.133 192.446 289.133 192.306C289.133 192.119 289.189 191.914 289.301 191.69C289.413 191.457 289.567 191.261 289.763 191.102C289.968 190.934 290.192 190.85 290.435 190.85C290.603 190.85 290.766 190.887 290.925 190.962C291.093 191.037 291.303 191.149 291.555 191.298C291.76 191.419 291.924 191.508 292.045 191.564C292.166 191.62 292.278 191.648 292.381 191.648C292.53 191.648 292.647 191.611 292.731 191.536C292.824 191.461 292.918 191.354 293.011 191.214C293.086 191.102 293.151 191.023 293.207 190.976C293.263 190.92 293.333 190.892 293.417 190.892C293.529 190.892 293.618 190.939 293.683 191.032C293.748 191.116 293.781 191.228 293.781 191.368C293.781 191.555 293.725 191.765 293.613 191.998C293.501 192.222 293.342 192.418 293.137 192.586C292.941 192.745 292.722 192.824 292.479 192.824Z" fill="white"/>
<path d="M151.756 80.08C151.436 80.08 151.18 79.9893 150.988 79.808C150.806 79.616 150.716 79.3653 150.716 79.056V70.416H147.804C147.164 70.416 146.844 70.1333 146.844 69.568C146.844 69.0027 147.164 68.72 147.804 68.72H155.692C156.332 68.72 156.652 69.0027 156.652 69.568C156.652 70.1333 156.332 70.416 155.692 70.416H152.78V79.056C152.78 79.3653 152.684 79.616 152.492 79.808C152.31 79.9893 152.065 80.08 151.756 80.08ZM163.116 71.984C164.951 71.984 165.868 73.056 165.868 75.2V79.136C165.868 79.4347 165.777 79.6693 165.596 79.84C165.425 80.0107 165.185 80.096 164.876 80.096C164.567 80.096 164.321 80.0107 164.14 79.84C163.959 79.6693 163.868 79.4347 163.868 79.136V75.2C163.868 74.6347 163.751 74.224 163.516 73.968C163.292 73.7013 162.935 73.568 162.444 73.568C161.868 73.568 161.404 73.7493 161.052 74.112C160.711 74.4747 160.54 74.96 160.54 75.568V79.136C160.54 79.4347 160.449 79.6693 160.268 79.84C160.087 80.0107 159.841 80.096 159.532 80.096C159.223 80.096 158.977 80.0107 158.796 79.84C158.625 79.6693 158.54 79.4347 158.54 79.136V69.568C158.54 69.2907 158.631 69.0667 158.812 68.896C159.004 68.7253 159.249 68.64 159.548 68.64C159.847 68.64 160.087 68.72 160.268 68.88C160.449 69.04 160.54 69.2587 160.54 69.536V73.264C160.807 72.848 161.159 72.5333 161.596 72.32C162.044 72.096 162.551 71.984 163.116 71.984ZM174.219 72.976C174.625 73.328 174.929 73.7707 175.131 74.304C175.345 74.8267 175.451 75.4133 175.451 76.064C175.451 76.8853 175.286 77.6053 174.955 78.224C174.635 78.832 174.171 79.3013 173.563 79.632C172.966 79.9627 172.267 80.128 171.467 80.128C170.667 80.128 169.963 79.9627 169.355 79.632C168.758 79.3013 168.294 78.832 167.963 78.224C167.633 77.6053 167.467 76.8853 167.467 76.064C167.467 75.232 167.633 74.512 167.963 73.904C168.294 73.2853 168.758 72.8107 169.355 72.48C169.963 72.1493 170.667 71.984 171.467 71.984C171.691 71.984 171.953 72.0053 172.251 72.048C172.411 72.08 172.561 72.096 172.699 72.096C173.073 72.096 173.361 72.0053 173.563 71.824C173.766 71.632 173.889 71.312 173.931 70.864C173.995 70.256 174.321 69.952 174.907 69.952C175.185 69.952 175.387 70.0267 175.515 70.176C175.654 70.3147 175.723 70.5387 175.723 70.848C175.723 71.328 175.59 71.76 175.323 72.144C175.057 72.528 174.689 72.8053 174.219 72.976ZM171.451 78.576C172.102 78.576 172.598 78.368 172.939 77.952C173.281 77.5253 173.451 76.896 173.451 76.064C173.451 75.232 173.281 74.6027 172.939 74.176C172.598 73.7387 172.107 73.52 171.467 73.52C170.827 73.52 170.331 73.7387 169.979 74.176C169.638 74.6027 169.467 75.232 169.467 76.064C169.467 76.8853 169.638 77.5093 169.979 77.936C170.321 78.3627 170.811 78.576 171.451 78.576ZM169.003 69.424C168.715 69.2107 168.571 68.9547 168.571 68.656C168.571 68.432 168.657 68.24 168.827 68.08C168.998 67.9093 169.201 67.824 169.435 67.824C169.745 67.824 170.022 67.984 170.267 68.304L171.819 70.368C171.905 70.464 171.947 70.5813 171.947 70.72C171.947 70.8587 171.894 70.9813 171.787 71.088C171.691 71.184 171.574 71.232 171.435 71.232C171.307 71.232 171.185 71.1893 171.067 71.104L169.003 69.424ZM178.095 80.096C177.807 80.096 177.567 80.016 177.375 79.856C177.193 79.6853 177.103 79.4453 177.103 79.136V72.96C177.103 72.6507 177.193 72.416 177.375 72.256C177.567 72.096 177.807 72.016 178.095 72.016C178.383 72.016 178.623 72.096 178.815 72.256C179.007 72.416 179.103 72.6507 179.103 72.96V79.136C179.103 79.4453 179.007 79.6853 178.815 79.856C178.623 80.016 178.383 80.096 178.095 80.096ZM178.095 70.592C177.732 70.592 177.444 70.496 177.231 70.304C177.017 70.1013 176.911 69.84 176.911 69.52C176.911 69.2 177.017 68.944 177.231 68.752C177.444 68.56 177.732 68.464 178.095 68.464C178.447 68.464 178.729 68.56 178.943 68.752C179.167 68.944 179.279 69.2 179.279 69.52C179.279 69.84 179.172 70.1013 178.959 70.304C178.745 70.496 178.457 70.592 178.095 70.592ZM189.573 78.608C190.106 78.64 190.373 78.88 190.373 79.328C190.373 79.584 190.266 79.7813 190.053 79.92C189.85 80.048 189.557 80.1013 189.173 80.08L188.741 80.048C186.949 79.92 186.053 78.96 186.053 77.168V73.68H185.253C184.965 73.68 184.741 73.616 184.581 73.488C184.431 73.36 184.357 73.1733 184.357 72.928C184.357 72.6827 184.431 72.496 184.581 72.368C184.741 72.24 184.965 72.176 185.253 72.176H186.053V70.704C186.053 70.416 186.143 70.1867 186.325 70.016C186.506 69.8453 186.751 69.76 187.061 69.76C187.359 69.76 187.599 69.8453 187.781 70.016C187.962 70.1867 188.053 70.416 188.053 70.704V72.176H189.413C189.701 72.176 189.919 72.24 190.069 72.368C190.229 72.496 190.309 72.6827 190.309 72.928C190.309 73.1733 190.229 73.36 190.069 73.488C189.919 73.616 189.701 73.68 189.413 73.68H188.053V77.312C188.053 78.1013 188.415 78.5227 189.141 78.576L189.573 78.608ZM195.783 72.016C196.06 71.9947 196.279 72.0533 196.439 72.192C196.599 72.3307 196.679 72.5387 196.679 72.816C196.679 73.104 196.61 73.3173 196.471 73.456C196.332 73.5947 196.082 73.6853 195.719 73.728L195.239 73.776C194.61 73.84 194.146 74.0533 193.847 74.416C193.559 74.7787 193.415 75.232 193.415 75.776V79.136C193.415 79.4453 193.319 79.6853 193.127 79.856C192.935 80.016 192.695 80.096 192.407 80.096C192.119 80.096 191.879 80.016 191.687 79.856C191.506 79.6853 191.415 79.4453 191.415 79.136V72.944C191.415 72.6453 191.506 72.416 191.687 72.256C191.879 72.096 192.114 72.016 192.391 72.016C192.668 72.016 192.892 72.096 193.063 72.256C193.234 72.4053 193.319 72.624 193.319 72.912V73.552C193.522 73.0827 193.82 72.72 194.215 72.464C194.62 72.208 195.068 72.064 195.559 72.032L195.783 72.016ZM200.901 71.984C201.989 71.984 202.794 72.256 203.317 72.8C203.85 73.3333 204.117 74.1493 204.117 75.248V79.152C204.117 79.44 204.031 79.6693 203.861 79.84C203.69 80 203.455 80.08 203.157 80.08C202.879 80.08 202.65 79.9947 202.469 79.824C202.298 79.6533 202.213 79.4293 202.213 79.152V78.8C202.031 79.216 201.743 79.5413 201.349 79.776C200.965 80.0107 200.517 80.128 200.005 80.128C199.482 80.128 199.007 80.0213 198.581 79.808C198.154 79.5947 197.818 79.3013 197.573 78.928C197.327 78.5547 197.205 78.1387 197.205 77.68C197.205 77.104 197.349 76.6507 197.637 76.32C197.935 75.9893 198.415 75.7493 199.077 75.6C199.738 75.4507 200.65 75.376 201.813 75.376H202.213V75.008C202.213 74.4853 202.101 74.1067 201.877 73.872C201.653 73.6267 201.29 73.504 200.789 73.504C200.479 73.504 200.165 73.552 199.845 73.648C199.525 73.7333 199.146 73.8613 198.709 74.032C198.431 74.1707 198.229 74.24 198.101 74.24C197.909 74.24 197.749 74.1707 197.621 74.032C197.503 73.8933 197.445 73.712 197.445 73.488C197.445 73.3067 197.487 73.152 197.573 73.024C197.669 72.8853 197.823 72.7573 198.037 72.64C198.41 72.4373 198.853 72.2773 199.365 72.16C199.887 72.0427 200.399 71.984 200.901 71.984ZM200.405 78.688C200.938 78.688 201.37 78.512 201.701 78.16C202.042 77.7973 202.213 77.3333 202.213 76.768V76.432H201.925C201.21 76.432 200.655 76.464 200.261 76.528C199.866 76.592 199.583 76.704 199.413 76.864C199.242 77.024 199.157 77.2427 199.157 77.52C199.157 77.8613 199.274 78.144 199.509 78.368C199.754 78.5813 200.053 78.688 200.405 78.688ZM210.693 71.984C211.632 71.984 212.331 72.2507 212.789 72.784C213.248 73.3173 213.477 74.1227 213.477 75.2V79.136C213.477 79.4347 213.387 79.6693 213.205 79.84C213.035 80.0107 212.795 80.096 212.485 80.096C212.176 80.096 211.931 80.0107 211.749 79.84C211.568 79.6693 211.477 79.4347 211.477 79.136V75.312C211.477 74.704 211.36 74.2613 211.125 73.984C210.901 73.7067 210.544 73.568 210.053 73.568C209.477 73.568 209.013 73.7493 208.661 74.112C208.32 74.4747 208.149 74.96 208.149 75.568V79.136C208.149 79.4347 208.059 79.6693 207.877 79.84C207.696 80.0107 207.451 80.096 207.141 80.096C206.832 80.096 206.587 80.0107 206.405 79.84C206.235 79.6693 206.149 79.4347 206.149 79.136V72.944C206.149 72.6667 206.24 72.4427 206.421 72.272C206.603 72.1013 206.848 72.016 207.157 72.016C207.435 72.016 207.659 72.1013 207.829 72.272C208.011 72.432 208.101 72.6453 208.101 72.912V73.344C208.368 72.9067 208.725 72.5707 209.173 72.336C209.621 72.1013 210.128 71.984 210.693 71.984ZM222.133 72.016C222.431 72.016 222.671 72.1013 222.853 72.272C223.034 72.4427 223.125 72.672 223.125 72.96V79.28C223.125 80.5067 222.783 81.4347 222.101 82.064C221.418 82.6933 220.41 83.008 219.077 83.008C217.914 83.008 216.943 82.7893 216.165 82.352C215.77 82.1173 215.573 81.8347 215.573 81.504C215.573 81.2693 215.626 81.0827 215.733 80.944C215.85 80.8053 215.999 80.736 216.181 80.736C216.277 80.736 216.394 80.7573 216.533 80.8C216.671 80.8533 216.815 80.912 216.965 80.976C217.349 81.136 217.69 81.2587 217.989 81.344C218.298 81.4293 218.65 81.472 219.045 81.472C220.442 81.472 221.141 80.7893 221.141 79.424V78.4C220.906 78.8373 220.565 79.1787 220.117 79.424C219.669 79.6587 219.157 79.776 218.581 79.776C217.898 79.776 217.29 79.616 216.757 79.296C216.234 78.9653 215.823 78.5067 215.525 77.92C215.226 77.3333 215.077 76.656 215.077 75.888C215.077 75.12 215.221 74.4427 215.509 73.856C215.807 73.2587 216.223 72.8 216.757 72.48C217.29 72.1493 217.898 71.984 218.581 71.984C219.157 71.984 219.669 72.1067 220.117 72.352C220.565 72.5867 220.906 72.9227 221.141 73.36V72.944C221.141 72.6667 221.231 72.4427 221.413 72.272C221.594 72.1013 221.834 72.016 222.133 72.016ZM219.109 78.224C219.749 78.224 220.245 78.016 220.597 77.6C220.959 77.184 221.141 76.6133 221.141 75.888C221.141 75.152 220.959 74.576 220.597 74.16C220.245 73.744 219.749 73.536 219.109 73.536C218.479 73.536 217.983 73.744 217.621 74.16C217.258 74.576 217.077 75.152 217.077 75.888C217.077 76.6133 217.258 77.184 217.621 77.6C217.983 78.016 218.479 78.224 219.109 78.224Z" fill="#005DB6"/>
<path d="M182.631 26.8438C182.676 27.707 183.038 28.4793 183.611 29.0546C184.226 29.6669 185.064 30.0434 186 30.0434C186.935 30.0434 187.774 29.6669 188.388 29.0546C188.962 28.4793 189.324 27.7071 189.369 26.8438H182.631Z" fill="#005DB6"/>
<path d="M196.311 28.9762L191.12 27.2461C190.831 29.8196 188.651 31.82 186 31.8207C183.349 31.82 181.169 29.8196 180.88 27.2461L175.689 28.9762L170 38.2207L174.978 41.7762L176.044 40.354V53.154H195.955V40.354L197.022 41.7762L202 38.2207L196.311 28.9762Z" fill="#005DB6"/>
<circle cx="31" cy="150" r="12" fill="#FF9611"/>
<circle cx="339" cy="150" r="12" fill="#FF9611"/>
<circle cx="8.49406" cy="74.9863" r="8.49406" fill="#005DB6"/>
<circle cx="8.49406" cy="99.5253" r="8.49406" fill="#005DB6"/>
<circle cx="8.49406" cy="124.064" r="8.49406" fill="#005DB6"/>
<circle cx="8.49406" cy="149.545" r="8.49406" fill="#005DB6"/>
<circle cx="8.49406" cy="174.084" r="8.49406" fill="#005DB6"/>
<circle cx="8.49406" cy="199.568" r="8.49406" fill="#005DB6"/>
<circle cx="8.49406" cy="224.107" r="8.49406" fill="#005DB6"/>
</svg>
