<svg width="16" height="16" viewBox="0 0 16 16" fill="none" xmlns="http://www.w3.org/2000/svg">
    <path fill-rule="evenodd" clip-rule="evenodd" d="M6.66797 12.667C3.35426 12.667 0.667969 9.9807 0.667969 6.66699C0.667969 3.35328 3.35426 0.666992 6.66797 0.666992C9.98168 0.666992 12.668 3.35328 12.668 6.66699C12.668 9.9807 9.98168 12.667 6.66797 12.667ZM6.66795 11.3337C9.24528 11.3337 11.3346 9.24432 11.3346 6.66699C11.3346 4.08966 9.24528 2.00033 6.66795 2.00033C4.09062 2.00033 2.00129 4.08966 2.00129 6.66699C2.00129 9.24432 4.09062 11.3337 6.66795 11.3337ZM15.1394 15.1384C15.3997 14.878 15.3997 14.4559 15.1394 14.1956L12.4727 11.5289C12.2124 11.2686 11.7903 11.2686 11.5299 11.5289C11.2696 11.7893 11.2696 12.2114 11.5299 12.4717L14.1966 15.1384C14.4569 15.3987 14.879 15.3987 15.1394 15.1384Z" fill="#333333"/>
</svg>
