<svg width="32" height="32" viewBox="0 0 32 32" fill="none" xmlns="http://www.w3.org/2000/svg">
<circle cx="16" cy="16" r="16" fill="#F0F3FF"/>
<path d="M22.8746 11.6383C22.8694 11.5691 22.8115 11.5156 22.7422 11.5156H20.3515V10.8516C20.3515 8.72776 18.6237 7 16.5 7C14.3763 7 12.6484 8.72776 12.6484 10.8516V11.5156H10.2578C10.1885 11.5156 10.1306 11.5691 10.1254 11.6383L9.19569 23.8571C9.1929 23.8939 9.20552 23.9303 9.23076 23.9574C9.25586 23.9846 9.29119 24 9.32811 24H23.6719C23.7088 24 23.7441 23.9846 23.7692 23.9575C23.7943 23.9304 23.8071 23.894 23.8043 23.8572L22.8746 11.6383ZM13.7109 10.8516C13.7109 9.31373 14.962 8.0625 16.5 8.0625C18.038 8.0625 19.289 9.31373 19.289 10.8516V11.5156H13.7109V10.8516ZM13.1797 15.2344C12.4472 15.2344 11.8515 14.6386 11.8515 13.9062C11.8515 13.3762 12.1172 12.8986 12.6484 12.689V13.9062C12.6484 14.1992 12.8868 14.4375 13.1797 14.4375C13.4725 14.4375 13.7109 14.1992 13.7109 13.9062V12.6898C14.2422 12.8994 14.5078 13.3806 14.5078 13.9062C14.5078 14.6386 13.9121 15.2344 13.1797 15.2344ZM19.8203 15.2344C19.0878 15.2344 18.4922 14.6386 18.4922 13.9062C18.4922 13.3762 18.7578 12.8986 19.289 12.689V13.9062C19.289 14.1992 19.5274 14.4375 19.8203 14.4375C20.1131 14.4375 20.3515 14.1992 20.3515 13.9062V12.6898C20.8828 12.8994 21.1484 13.3806 21.1484 13.9062C21.1484 14.6386 20.5528 15.2344 19.8203 15.2344Z" fill="#6176AE"/>
</svg>
