<svg width="22" height="22" viewBox="0 0 22 22" fill="none" xmlns="http://www.w3.org/2000/svg">
<circle cx="11" cy="11" r="11" fill="#44B5FF"/>
<path d="M12.5392 5H10.4623C9.88966 5 9.42383 5.46583 9.42383 6.03846C9.42383 6.61109 9.88966 7.07692 10.4623 7.07692H12.5392C13.1118 7.07692 13.5777 6.61109 13.5777 6.03846C13.5777 5.46583 13.1118 5 12.5392 5Z" fill="white"/>
<path d="M14.9615 5.69238H14.2342C14.257 5.80428 14.2692 5.92001 14.2692 6.03854C14.2692 6.99284 13.4928 7.76931 12.5385 7.76931H10.4615C9.50724 7.76931 8.73077 6.99284 8.73077 6.03854C8.73077 5.92001 8.74298 5.80428 8.7658 5.69238H8.03846C7.46583 5.69238 7 6.15821 7 6.73084V15.777C7 16.3496 7.46583 16.8155 8.03846 16.8155H14.9615C15.5342 16.8155 16 16.3496 16 15.777V6.73084C16 6.15821 15.5342 5.69238 14.9615 5.69238ZM10.3602 14.6371L9.3217 15.6756C9.18649 15.8108 8.96742 15.8108 8.83222 15.6756L8.48606 15.3294C8.35081 15.1942 8.35081 14.9752 8.48604 14.84C8.62125 14.7048 8.84032 14.7048 8.97552 14.84L9.07695 14.9414L9.87068 14.1477C10.0059 14.0124 10.225 14.0124 10.3602 14.1477C10.4954 14.2829 10.4954 14.5019 10.3602 14.6371ZM10.3602 11.8448L9.3217 12.8833C9.18649 13.0185 8.96742 13.0185 8.83222 12.8833L8.48606 12.5371C8.35081 12.4019 8.35081 12.1829 8.48604 12.0477C8.62125 11.9124 8.84032 11.9124 8.97552 12.0477L9.07695 12.1491L9.87068 11.3553C10.0059 11.2201 10.225 11.2201 10.3602 11.3553C10.4954 11.4906 10.4954 11.7096 10.3602 11.8448ZM10.3602 9.05252L9.3217 10.091C9.25408 10.1586 9.16552 10.1924 9.07697 10.1924C8.98842 10.1924 8.89983 10.1586 8.83224 10.091L8.48608 9.74483C8.35081 9.6096 8.35081 9.39055 8.48604 9.25534C8.62125 9.12014 8.84032 9.12014 8.97552 9.25534L9.07695 9.35677L9.87068 8.56304C10.0059 8.42783 10.225 8.42783 10.3602 8.56304C10.4954 8.69824 10.4954 8.91731 10.3602 9.05252ZM14.2692 15.4308H11.5C11.3087 15.4308 11.1538 15.276 11.1538 15.0847C11.1538 14.8934 11.3087 14.7385 11.5 14.7385H14.2692C14.4606 14.7385 14.6154 14.8934 14.6154 15.0847C14.6154 15.276 14.4606 15.4308 14.2692 15.4308ZM14.2692 12.6385H11.5C11.3087 12.6385 11.1538 12.4837 11.1538 12.2924C11.1538 12.1011 11.3087 11.9462 11.5 11.9462H14.2692C14.4606 11.9462 14.6154 12.1011 14.6154 12.2924C14.6154 12.4837 14.4606 12.6385 14.2692 12.6385ZM14.2692 9.84623H11.5C11.3087 9.84623 11.1538 9.69141 11.1538 9.50008C11.1538 9.30874 11.3087 9.15392 11.5 9.15392H14.2692C14.4606 9.15392 14.6154 9.30874 14.6154 9.50008C14.6154 9.69141 14.4606 9.84623 14.2692 9.84623Z" fill="white"/>
</svg>
