<svg width="40" height="28" viewBox="0 0 40 28" fill="none" xmlns="http://www.w3.org/2000/svg">
<path d="M38.4059 12.4584L35.7619 11.2881L33.5166 6.81953C32.9097 5.59601 31.6787 4.83352 30.335 4.84239H26.4686V3.72526C26.4686 1.70379 24.8908 0.0546875 22.9143 0.0546875H4.43175C2.4552 0.0546875 0.894762 1.71265 0.894762 3.72526V20.8369C0.877424 22.0693 1.83969 23.08 3.0447 23.0977C3.05337 23.0977 3.06204 23.0977 3.07937 23.0977H3.53884C3.53884 23.1864 3.53017 23.2218 3.53017 23.275C3.5215 25.8108 5.52406 27.8766 8.00342 27.8854C10.4828 27.8943 12.5027 25.8462 12.5113 23.3105C12.5113 23.2928 12.5113 23.2839 12.5113 23.2662C12.5113 23.2041 12.5113 23.1775 12.5027 23.0889H27.4395C27.4395 23.1775 27.4395 23.213 27.4395 23.2662C27.4309 25.8019 29.4334 27.8677 31.9128 27.8766C34.3921 27.8854 36.412 25.8374 36.4207 23.3016C36.4207 23.2839 36.4207 23.275 36.4207 23.2573C36.4207 23.1952 36.4207 23.1687 36.4207 23.08H37.539C38.744 23.08 39.7236 22.0781 39.7236 20.8457C39.7236 20.8369 39.7236 20.828 39.7236 20.8103V14.5153C39.741 13.6464 39.2208 12.8219 38.4059 12.4584ZM8.02943 26.1211C6.50367 26.1211 5.27265 24.8621 5.27265 23.3016C5.27265 21.7412 6.50367 20.4822 8.02943 20.4822C9.55519 20.4822 10.7862 21.7412 10.7862 23.3016C10.7862 24.8532 9.54652 26.1211 8.02943 26.1211ZM24.7348 21.3422H12.0952C11.367 19.7197 9.77191 18.6824 8.02943 18.6913C6.27827 18.6824 4.69182 19.7109 3.96362 21.3422H3.07937C2.81063 21.3422 2.62858 21.1294 2.62858 20.8546V16.2885H24.7348V21.3422ZM24.7348 3.73413V14.5153H2.62858V3.73413C2.62858 2.69679 3.41747 1.83678 4.43175 1.83678H22.9143C23.9285 1.84564 24.7434 2.69679 24.7348 3.72526V3.73413ZM26.4686 6.62448H30.335C31.0199 6.61561 31.6614 6.99686 31.9821 7.62635L33.716 11.0575H26.4686V6.62448ZM31.9388 26.1211C30.413 26.1211 29.182 24.8621 29.182 23.3016C29.182 21.7412 30.413 20.4822 31.9388 20.4822C33.4645 20.4822 34.6956 21.7412 34.6956 23.3016C34.6956 24.8532 33.4645 26.1211 31.9388 26.1211ZM37.9985 20.8546C37.9985 21.1294 37.8164 21.3422 37.5477 21.3422H36.0046C34.9556 19.0459 32.2855 18.0529 30.0403 19.1257C29.0867 19.5779 28.3151 20.367 27.873 21.3422H26.4686V12.8308H34.9643L37.7211 14.072C37.8945 14.1607 38.0071 14.3557 37.9985 14.5508V20.8546Z" fill="white"/>
</svg>
