<svg width="38" height="38" viewBox="0 0 38 38" fill="none" xmlns="http://www.w3.org/2000/svg">
<path d="M34.6602 6.67972H21.6877L26.4669 1.90056C26.9016 1.46578 26.9016 0.760928 26.4669 0.326154C26.0322 -0.108619 25.3272 -0.108619 24.8925 0.326154L19 6.2186L13.1076 0.32608C12.6729 -0.108693 11.9679 -0.108693 11.5331 0.32608C11.0984 0.760853 11.0984 1.46571 11.5331 1.90048L16.3123 6.67972H3.33984C1.49825 6.67972 0 8.17798 0 10.0196V32.4336C0 34.2752 1.49825 35.7735 3.33984 35.7735H6.67969V36.8868C6.67969 37.5016 7.17814 38 7.79297 38C8.4078 38 8.90625 37.5016 8.90625 36.8868V35.7735H29.0938V36.8868C29.0938 37.5016 29.5922 38 30.207 38C30.8219 38 31.3203 37.5016 31.3203 36.8868V35.7735H34.6602C36.5017 35.7735 38 34.2752 38 32.4336V10.0196C38 8.17798 36.5018 6.67972 34.6602 6.67972ZM35.7734 32.4336C35.7734 33.0475 35.274 33.5469 34.6602 33.5469H3.33984C2.72598 33.5469 2.22656 33.0475 2.22656 32.4336V10.0196C2.22656 9.40571 2.72598 8.90629 3.33984 8.90629H34.6602C35.274 8.90629 35.7734 9.40571 35.7734 10.0196V32.4336Z" fill="white"/>
<path d="M27.9805 11.1328H5.56641C4.95158 11.1328 4.45312 11.6313 4.45312 12.2461V30.207C4.45312 30.8219 4.95158 31.3203 5.56641 31.3203H27.9805C28.5953 31.3203 29.0938 30.8219 29.0938 30.207V12.2461C29.0938 11.6313 28.5953 11.1328 27.9805 11.1328ZM26.8672 29.0938H6.67969V13.3594H26.8672V29.0938Z" fill="white"/>
<path d="M32.4336 15.5859C33.0484 15.5859 33.5469 15.0875 33.5469 14.4727C33.5469 13.8578 33.0484 13.3594 32.4336 13.3594C31.8187 13.3594 31.3203 13.8578 31.3203 14.4727C31.3203 15.0875 31.8187 15.5859 32.4336 15.5859Z" fill="white"/>
<path d="M32.4336 20.0391C33.0484 20.0391 33.5469 19.5406 33.5469 18.9258C33.5469 18.3109 33.0484 17.8125 32.4336 17.8125C31.8187 17.8125 31.3203 18.3109 31.3203 18.9258C31.3203 19.5406 31.8187 20.0391 32.4336 20.0391Z" fill="white"/>
<path d="M32.4336 22.2656C31.8188 22.2656 31.3203 22.7641 31.3203 23.3789V27.9805C31.3203 28.5953 31.8188 29.0938 32.4336 29.0938C33.0484 29.0938 33.5469 28.5953 33.5469 27.9805V23.3789C33.5469 22.7641 33.0484 22.2656 32.4336 22.2656Z" fill="white"/>
</svg>
