<svg width="20" height="20" viewBox="0 0 20 20" fill="none" xmlns="http://www.w3.org/2000/svg">
<g clip-path="url(#clip0)">
<path d="M10.0009 0C4.48693 0 0.000976562 4.48586 0.000976562 9.99971C0.000976562 15.514 4.48693 20 10.0009 20C15.5147 20 20.0006 15.5139 20.0006 9.99971C20.0006 4.48586 15.5147 0 10.0009 0ZM10.0009 18.5665C5.27735 18.5665 1.43446 14.7234 1.43446 9.99971C1.43446 5.27628 5.27735 1.43349 10.0009 1.43349C14.7243 1.43349 18.5671 5.27628 18.5671 9.99971C18.5671 14.7234 14.7243 18.5665 10.0009 18.5665Z" fill="#FF0000"/>
<path d="M15.1416 9.83211H10.4423V4.69526C10.4423 4.29943 10.1215 3.97852 9.72553 3.97852C9.3297 3.97852 9.00879 4.29943 9.00879 4.69526V10.5489C9.00879 10.9447 9.3297 11.2656 9.72553 11.2656H15.1416C15.5376 11.2656 15.8584 10.9447 15.8584 10.5489C15.8584 10.153 15.5375 9.83211 15.1416 9.83211Z" fill="#FF0000"/>
</g>
<defs>
<clipPath id="clip0">
<rect width="20" height="20" fill="white"/>
</clipPath>
</defs>
</svg>
