<svg width="21" height="22" viewBox="0 0 21 22" fill="none" xmlns="http://www.w3.org/2000/svg">
<g clip-path="url(#clip0)">
<path d="M5.98957 15.9365C5.08432 15.8885 5.10136 14.5666 5.98952 14.5207C8.50541 14.5298 15.1412 14.5232 17.7371 14.5251C18.4471 14.5251 19.0546 14.0234 19.2143 13.3053L20.6883 6.67847C20.7727 6.29904 20.6875 5.90633 20.4546 5.60109C20.2217 5.29586 19.873 5.11834 19.498 5.11834C18.4537 5.11834 9.5893 5.07668 5.04897 5.05789L4.32925 2.28541C4.15648 1.62286 3.5741 1.16016 2.91297 1.16016H0.607358C0.271935 1.16016 0 1.44248 0 1.79071C0 2.13895 0.271935 2.42127 0.607358 2.42127H2.91297C3.02679 2.42127 3.127 2.50093 3.1566 2.61431L5.92069 13.2613C5.43468 13.2797 4.982 13.4849 4.63872 13.8465C4.27803 14.2265 4.08432 14.7295 4.09327 15.2629C4.11117 16.3297 4.96183 17.1976 5.98957 17.1976H6.87517C6.74354 17.4845 6.66964 17.8052 6.66964 18.1435C6.66964 19.3605 7.62328 20.3505 8.79548 20.3505C9.96768 20.3505 10.9213 19.3605 10.9213 18.1435C10.9213 17.8051 10.8474 17.4845 10.7157 17.1976H14.5508C14.4193 17.4844 14.3454 17.8049 14.3454 18.1432C14.3454 19.3601 15.2991 20.3502 16.4713 20.3502C17.6435 20.3502 18.5971 19.3601 18.5971 18.1432C18.5971 17.7918 18.5172 17.4595 18.3759 17.1643C18.6163 17.0803 18.7896 16.8449 18.7896 16.5671C18.7896 16.2189 18.5176 15.9365 18.1822 15.9365H5.98957ZM9.70656 18.1435C9.70656 18.6651 9.29785 19.0895 8.79544 19.0895C8.29303 19.0895 7.88432 18.6651 7.88432 18.1435C7.88432 17.6222 8.29263 17.1981 8.79467 17.1977H8.79621C9.29825 17.1981 9.70656 17.6222 9.70656 18.1435ZM16.4713 19.0891C15.9689 19.0891 15.5602 18.6648 15.5602 18.1432C15.5602 17.6268 15.961 17.2059 16.4565 17.1977H16.4861C16.9817 17.2059 17.3825 17.6268 17.3825 18.1432C17.3825 18.6648 16.9737 19.0891 16.4713 19.0891ZM19.5024 6.38408C19.506 6.38879 19.5055 6.39102 19.5047 6.39463L18.8837 9.18695H16.7805L17.1386 6.36949L19.4931 6.37933C19.4967 6.37941 19.4989 6.37941 19.5024 6.38408ZM13.2408 13.2639V10.4481H15.395L15.037 13.2639H13.2408ZM10.229 13.2639L9.86816 10.4481H12.0261V13.2639H10.229ZM7.43301 13.2639H7.43111C7.28308 13.2639 7.15266 13.1602 7.11415 13.0125L6.4484 10.4481H8.64271L9.00356 13.2639H7.43301ZM9.70652 9.187L9.34125 6.33691L12.026 6.34814V9.187H9.70652ZM13.2408 9.187V6.35322L15.914 6.36441L15.5553 9.187H13.2408ZM8.11516 6.33174L8.48107 9.18695H6.121L5.37678 6.32027L8.11516 6.33174ZM17.7371 13.2639H16.2622L16.6202 10.4481H18.6031L18.0307 13.0215C17.9989 13.1642 17.8782 13.2639 17.7371 13.2639Z" fill="white"/>
</g>
<defs>
<clipPath id="clip0">
<rect width="20.7201" height="21.5116" fill="white"/>
</clipPath>
</defs>
</svg>
