<svg width="97" height="13" viewBox="0 0 97 13" fill="none" xmlns="http://www.w3.org/2000/svg">
<g clip-path="url(#clip0)">
<path d="M12.9661 4.9871C12.881 4.72386 12.6475 4.5369 12.3713 4.512L8.61915 4.1713L7.13544 0.69855C7.02604 0.444043 6.77689 0.279297 6.50007 0.279297C6.22324 0.279297 5.97409 0.444043 5.86469 0.699146L4.38099 4.1713L0.628234 4.512C0.352501 4.53749 0.119615 4.72386 0.0340187 4.9871C-0.0515777 5.25033 0.0274725 5.53906 0.236058 5.72106L3.07224 8.20842L2.23592 11.8924C2.17472 12.1633 2.27986 12.4433 2.50461 12.6058C2.62542 12.6931 2.76675 12.7375 2.90928 12.7375C3.03217 12.7375 3.15407 12.7044 3.26347 12.6389L6.50007 10.7045L9.73547 12.6389C9.97222 12.7813 10.2707 12.7683 10.4949 12.6058C10.7198 12.4428 10.8248 12.1627 10.7636 11.8924L9.92729 8.20842L12.7635 5.72156C12.9721 5.53906 13.0517 5.25083 12.9661 4.9871Z" fill="#FFC107"/>
</g>
<g clip-path="url(#clip1)">
<path d="M33.9661 4.9871C33.881 4.72386 33.6475 4.5369 33.3713 4.512L29.6191 4.1713L28.1354 0.69855C28.026 0.444043 27.7769 0.279297 27.5001 0.279297C27.2232 0.279297 26.9741 0.444043 26.8647 0.699146L25.381 4.1713L21.6282 4.512C21.3525 4.53749 21.1196 4.72386 21.034 4.9871C20.9484 5.25033 21.0275 5.53906 21.2361 5.72106L24.0722 8.20842L23.2359 11.8924C23.1747 12.1633 23.2799 12.4433 23.5046 12.6058C23.6254 12.6931 23.7668 12.7375 23.9093 12.7375C24.0322 12.7375 24.1541 12.7044 24.2635 12.6389L27.5001 10.7045L30.7355 12.6389C30.9722 12.7813 31.2707 12.7683 31.4949 12.6058C31.7198 12.4428 31.8248 12.1627 31.7636 11.8924L30.9273 8.20842L33.7635 5.72156C33.9721 5.53906 34.0517 5.25083 33.9661 4.9871Z" fill="#FFC107"/>
</g>
<g clip-path="url(#clip2)">
<path d="M54.9661 4.9871C54.881 4.72386 54.6475 4.5369 54.3713 4.512L50.6191 4.1713L49.1354 0.69855C49.026 0.444043 48.7769 0.279297 48.5001 0.279297C48.2232 0.279297 47.9741 0.444043 47.8647 0.699146L46.381 4.1713L42.6282 4.512C42.3525 4.53749 42.1196 4.72386 42.034 4.9871C41.9484 5.25033 42.0275 5.53906 42.2361 5.72106L45.0722 8.20842L44.2359 11.8924C44.1747 12.1633 44.2799 12.4433 44.5046 12.6058C44.6254 12.6931 44.7668 12.7375 44.9093 12.7375C45.0322 12.7375 45.1541 12.7044 45.2635 12.6389L48.5001 10.7045L51.7355 12.6389C51.9722 12.7813 52.2707 12.7683 52.4949 12.6058C52.7198 12.4428 52.8248 12.1627 52.7636 11.8924L51.9273 8.20842L54.7635 5.72156C54.9721 5.53906 55.0517 5.25083 54.9661 4.9871Z" fill="#FFC107"/>
</g>
<g clip-path="url(#clip3)">
<path d="M75.9661 4.9871C75.881 4.72386 75.6475 4.5369 75.3713 4.512L71.6191 4.1713L70.1354 0.69855C70.026 0.444043 69.7769 0.279297 69.5001 0.279297C69.2232 0.279297 68.9741 0.444043 68.8647 0.699146L67.381 4.1713L63.6282 4.512C63.3525 4.53749 63.1196 4.72386 63.034 4.9871C62.9484 5.25033 63.0275 5.53906 63.2361 5.72106L66.0722 8.20842L65.2359 11.8924C65.1747 12.1633 65.2799 12.4433 65.5046 12.6058C65.6254 12.6931 65.7668 12.7375 65.9093 12.7375C66.0322 12.7375 66.1541 12.7044 66.2635 12.6389L69.5001 10.7045L72.7355 12.6389C72.9722 12.7813 73.2707 12.7683 73.4949 12.6058C73.7198 12.4428 73.8248 12.1627 73.7636 11.8924L72.9273 8.20842L75.7635 5.72156C75.9721 5.53906 76.0517 5.25083 75.9661 4.9871Z" fill="#FFC107"/>
</g>
<g clip-path="url(#clip4)">
<path d="M96.9661 4.9871C96.881 4.72386 96.6475 4.5369 96.3713 4.512L92.6191 4.1713L91.1354 0.69855C91.026 0.444043 90.7769 0.279297 90.5001 0.279297C90.2232 0.279297 89.9741 0.444043 89.8647 0.699146L88.381 4.1713L84.6282 4.512C84.3525 4.53749 84.1196 4.72386 84.034 4.9871C83.9484 5.25033 84.0275 5.53906 84.2361 5.72106L87.0722 8.20842L86.2359 11.8924C86.1747 12.1633 86.2799 12.4433 86.5046 12.6058C86.6254 12.6931 86.7668 12.7375 86.9093 12.7375C87.0322 12.7375 87.1541 12.7044 87.2635 12.6389L90.5001 10.7045L93.7355 12.6389C93.9722 12.7813 94.2707 12.7683 94.4949 12.6058C94.7198 12.4428 94.8248 12.1627 94.7636 11.8924L93.9273 8.20842L96.7635 5.72156C96.9721 5.53906 97.0517 5.25083 96.9661 4.9871Z" fill="#FFC107"/>
</g>
<defs>
<clipPath id="clip0">
<rect width="13" height="13" fill="white"/>
</clipPath>
<clipPath id="clip1">
<rect width="13" height="13" fill="white" transform="translate(21)"/>
</clipPath>
<clipPath id="clip2">
<rect width="13" height="13" fill="white" transform="translate(42)"/>
</clipPath>
<clipPath id="clip3">
<rect width="13" height="13" fill="white" transform="translate(63)"/>
</clipPath>
<clipPath id="clip4">
<rect width="13" height="13" fill="white" transform="translate(84)"/>
</clipPath>
</defs>
</svg>
