<svg width="26" height="26" viewBox="0 0 26 26" fill="none" xmlns="http://www.w3.org/2000/svg">
<g clip-path="url(#clip0)">
<path d="M19.1355 7.77734L14.29 23.1216L26 7.77734H19.1355Z" fill="#FF8000"/>
<path d="M3.77486 2.34863L0.0549316 6.81256H6.37882L3.77486 2.34863Z" fill="#FF8000"/>
<path d="M22.2252 2.34863L19.6213 6.81256H25.9452L22.2252 2.34863Z" fill="#FF8000"/>
<path d="M6.86451 7.77734H0L11.7101 23.1216L6.86451 7.77734Z" fill="#FF8000"/>
<path d="M14.1631 1.99414L18.681 6.51205L21.3162 1.99414H14.1631Z" fill="#FF8000"/>
<path d="M4.68369 1.99414L7.31893 6.51205L11.8368 1.99414H4.68369Z" fill="#FF8000"/>
<path d="M7.8749 7.77734L12.9999 24.0058L18.125 7.77734H7.8749Z" fill="#FF8000"/>
<path d="M13 2.19434L8.38092 6.8134H17.6191L13 2.19434Z" fill="#FF8000"/>
</g>
<defs>
<clipPath id="clip0">
<rect width="26" height="26" fill="white"/>
</clipPath>
</defs>
</svg>
