<svg width="30" height="30" viewBox="0 0 30 30" fill="none" xmlns="http://www.w3.org/2000/svg">
<g clip-path="url(#clip0)">
<path d="M8.07912 10.5653C8.4223 10.9086 8.97888 10.9086 9.32213 10.5654L16.7799 3.10758C17.1231 2.76439 17.1231 2.20793 16.7799 1.86469L15.1734 0.257461C14.8301 -0.0858399 14.2735 -0.0857812 13.9304 0.257402L6.47254 7.71522C6.12935 8.0584 6.12929 8.61486 6.47248 8.95811L8.07912 10.5653Z" fill="white"/>
<path d="M20.145 21.3871L27.6028 13.9293C27.9461 13.5861 27.9458 13.0293 27.6028 12.6862L25.9955 11.0796C25.6523 10.7365 25.0958 10.7365 24.7526 11.0797L17.2948 18.5369C16.9516 18.8801 16.9517 19.4369 17.2948 19.7798L18.9021 21.3871C19.2453 21.7304 19.8019 21.7303 20.145 21.3871Z" fill="white"/>
<path d="M23.6403 9.71504C22.7045 9.43145 21.2754 8.84551 20.1451 7.71523C19.0213 6.59141 18.433 5.15645 18.1471 4.21777C18.0482 4.33127 10.5266 11.8504 10.4344 11.9305C11.7076 12.3172 12.9864 12.985 13.9301 13.9303C14.8736 14.8722 15.5354 16.1362 15.9287 17.4266C16.0275 17.313 23.5471 9.79713 23.6403 9.71504Z" fill="white"/>
<path d="M10.3694 13.7607L0.257301 23.8729C-0.0854721 24.2163 -0.0854721 24.7729 0.257301 25.1163L2.74343 27.6024C3.08679 27.9452 3.64343 27.9452 3.98679 27.6024L14.0971 17.4915C13.7538 16.5581 13.2622 15.7465 12.688 15.1735C12.1108 14.5952 11.2993 14.103 10.3694 13.7607Z" fill="white"/>
<path d="M27.3633 24.7266H20.3321C18.8782 24.7266 17.6954 25.9094 17.6954 27.3633V29.1211C17.6954 29.6065 18.0889 30 18.5743 30H29.1211C29.6065 30 30 29.6065 30 29.1211V27.3633C30 25.9094 28.8172 24.7266 27.3633 24.7266Z" fill="white"/>
</g>
<defs>
<clipPath id="clip0">
<rect width="30" height="30" fill="white"/>
</clipPath>
</defs>
</svg>
