<svg width="30" height="32" viewBox="0 0 30 32" fill="none" xmlns="http://www.w3.org/2000/svg">
<path d="M17.8125 12.1067C18.3303 12.1067 18.75 11.655 18.75 11.0978C18.75 10.5406 18.3303 10.0889 17.8125 10.0889C17.2947 10.0889 16.875 10.5406 16.875 11.0978C16.875 11.655 17.2947 12.1067 17.8125 12.1067Z" fill="white"/>
<path d="M8.4375 12.1067C8.95527 12.1067 9.375 11.655 9.375 11.0978C9.375 10.5406 8.95527 10.0889 8.4375 10.0889C7.91973 10.0889 7.5 10.5406 7.5 11.0978C7.5 11.655 7.91973 12.1067 8.4375 12.1067Z" fill="white"/>
<path d="M11.1471 19.1699L10.7956 20.6833H11.7042L11.3527 19.1699H11.1471Z" fill="white"/>
<path d="M24.8181 8.07156H23.4375V5.62131C23.4375 2.5498 21.1024 -0.0188137 18.2484 0.000103832C17.3541 0.00504532 16.4766 0.261792 15.7031 0.744822C14.9296 0.261792 14.0521 0.00504532 13.1578 0.000103832C10.3038 -0.0188137 7.96873 2.5498 7.96873 5.62131V8.07156H5.1819C5.03568 8.07156 4.89474 8.1304 4.78677 8.23652C4.6788 8.34264 4.61159 8.48836 4.59836 8.64508L4.05022 15.1341H22.1997L21.6031 8.07156H18.2812V5.54923C18.2815 4.76666 18.1276 3.99292 17.8298 3.27902C17.5319 2.56512 17.0968 1.92728 16.5531 1.40756C17.0975 1.1436 17.688 1.00773 18.285 1.00904C20.6035 1.01124 22.5 3.1172 22.5 5.61229V8.57603L24.3343 29.2591H26.5013C26.5827 29.2591 26.6632 29.2409 26.7377 29.2056C26.8121 29.1702 26.8789 29.1186 26.9338 29.0539C26.9887 28.9892 27.0305 28.913 27.0565 28.83C27.0825 28.747 27.0922 28.659 27.0848 28.5718L25.4016 8.6454C25.3884 8.48862 25.3213 8.34282 25.2133 8.23663C25.1053 8.13045 24.9643 8.07157 24.8181 8.07156ZM8.90623 5.54923C8.90625 4.79133 9.08258 4.04549 9.41911 3.37973C9.75565 2.71397 10.2417 2.14947 10.8329 1.7377C11.4242 1.32594 12.1018 1.08001 12.804 1.02234C13.5062 0.964676 14.2106 1.09711 14.8531 1.40756C14.3094 1.92728 13.8743 2.56512 13.5765 3.27902C13.2786 3.99292 13.1247 4.76666 13.125 5.54923V8.07156H8.90623V5.54923ZM8.43748 13.1162C8.06664 13.1162 7.70413 12.9979 7.39579 12.7762C7.08745 12.5544 6.84712 12.2393 6.70521 11.8706C6.56329 11.5018 6.52616 11.0961 6.59851 10.7047C6.67086 10.3133 6.84943 9.95372 7.11166 9.67152C7.37388 9.38931 7.70797 9.19713 8.07169 9.11927C8.4354 9.04141 8.8124 9.08137 9.15501 9.2341C9.49762 9.38683 9.79046 9.64546 9.99649 9.9773C10.2025 10.3091 10.3125 10.6993 10.3125 11.0984C10.3119 11.6333 10.1142 12.1463 9.76269 12.5245C9.41118 12.9028 8.93459 13.1156 8.43748 13.1162ZM19.6875 11.0984C19.6875 11.4975 19.5775 11.8876 19.3715 12.2194C19.1655 12.5513 18.8726 12.8099 18.53 12.9626C18.1874 13.1154 17.8104 13.1553 17.4467 13.0775C17.083 12.9996 16.7489 12.8074 16.4867 12.5252C16.2244 12.243 16.0459 11.8835 15.9735 11.492C15.9012 11.1006 15.9383 10.6949 16.0802 10.3262C16.2221 9.95744 16.4624 9.64229 16.7708 9.42057C17.0791 9.19884 17.4416 9.0805 17.8125 9.0805C18.3096 9.0811 18.7862 9.29389 19.1377 9.67218C19.4892 10.0505 19.6869 10.5634 19.6875 11.0984ZM17.3437 5.54923V8.07156H14.0625V5.54923C14.0625 4.85542 14.2104 4.17085 14.4948 3.5482C14.7792 2.92556 15.1926 2.38145 15.7031 1.95775C16.2136 2.38145 16.627 2.92556 16.9114 3.5482C17.1959 4.17085 17.3438 4.85542 17.3437 5.54923Z" fill="white"/>
<path d="M3.11272 26.2324L2.91514 28.5719C2.90782 28.6591 2.91746 28.747 2.94346 28.83C2.96945 28.913 3.01123 28.9893 3.06613 29.054C3.12103 29.1186 3.18785 29.1703 3.26232 29.2056C3.33679 29.241 3.41729 29.2592 3.49868 29.2592H23.3929L23.1373 26.2324H3.11272Z" fill="white"/>
<path d="M22.2849 16.1426H3.96488L3.19789 25.223H23.0519L22.2849 16.1426ZM8.4374 19.1694H6.21084C6.17976 19.1694 6.14995 19.1827 6.12798 19.2063C6.106 19.23 6.09365 19.262 6.09365 19.2955V20.0522C6.09365 20.0856 6.106 20.1177 6.12798 20.1414C6.14995 20.165 6.17976 20.1783 6.21084 20.1783H7.38272C7.66234 20.1787 7.93041 20.2984 8.12813 20.5111C8.32585 20.7239 8.43708 21.0124 8.4374 21.3134V22.0701C8.43708 22.371 8.32585 22.6595 8.12813 22.8723C7.93041 23.0851 7.66234 23.2048 7.38272 23.2051H5.15615V22.1962H7.38272C7.4138 22.1962 7.4436 22.1829 7.46558 22.1592C7.48756 22.1356 7.4999 22.1035 7.4999 22.0701V21.3134C7.4999 21.2799 7.48756 21.2478 7.46558 21.2242C7.4436 21.2005 7.4138 21.1872 7.38272 21.1872H6.21084C5.93122 21.1869 5.66315 21.0672 5.46542 20.8544C5.2677 20.6416 5.15648 20.3531 5.15615 20.0522V19.2955C5.15648 18.9946 5.2677 18.7061 5.46542 18.4933C5.66315 18.2805 5.93122 18.1608 6.21084 18.1604H8.4374V19.1694ZM13.1249 23.2051H12.1874V22.7628L11.9386 21.6917H10.5612L10.3124 22.7628V23.2051H9.3749V22.7006C9.37489 22.6594 9.3796 22.6183 9.38891 22.5783L10.3264 18.5426C10.3518 18.4334 10.4103 18.3365 10.4927 18.2673C10.5751 18.1981 10.6766 18.1604 10.7812 18.1604H11.7187C11.8232 18.1604 11.9247 18.1981 12.0071 18.2673C12.0895 18.3365 12.148 18.4334 12.1734 18.5426L13.1109 22.5783C13.1202 22.6183 13.1249 22.6594 13.1249 22.7006V23.2051ZM16.8749 23.2051H14.5312C14.4068 23.2051 14.2876 23.152 14.1997 23.0574C14.1118 22.9627 14.0624 22.8344 14.0624 22.7006V18.1604H14.9999V22.1962H16.8749V23.2051ZM21.0937 19.1694H18.7499V20.1783H20.6249V21.1872H18.7499V22.1962H21.0937V23.2051H18.2812C18.1568 23.2051 18.0376 23.152 17.9497 23.0574C17.8618 22.9627 17.8124 22.8344 17.8124 22.7006V18.6649C17.8124 18.5311 17.8618 18.4028 17.9497 18.3082C18.0376 18.2136 18.1568 18.1604 18.2812 18.1604H21.0937V19.1694Z" fill="white"/>
</svg>
