<svg width="273" height="121" viewBox="0 0 273 121" fill="none" xmlns="http://www.w3.org/2000/svg">
<g clip-path="url(#clip0)">
<path d="M27.3001 105.098C27.3001 105.098 23.3001 120.798 41.3001 121.098C59.3001 121.398 239 121.098 239 121.098C239 121.098 253.7 122.398 252.7 105.098C252.7 105.098 269.7 106.098 270.4 88.0978C271.1 70.0978 270.4 43.0978 270.4 43.0978C270.4 43.0978 271.1 24.3978 252.7 24.3978C252.7 24.3978 256.4 8.0978 238.4 8.0978C220.4 8.0978 41.1001 8.0978 41.1001 8.0978C41.1001 8.0978 27.1001 7.39779 27.1001 24.3978C27.1001 24.3978 8.6001 24.6978 8.6001 42.8978C8.6001 61.0978 8.6001 86.3978 8.6001 86.3978C8.6001 86.3978 8.70009 105.098 27.3001 105.098Z" fill="#EE6E39"/>
<path d="M20.3001 98.6994C20.3001 98.6994 16.3001 114.399 34.3001 114.699C52.3001 114.999 232 114.699 232 114.699C232 114.699 246.7 115.999 245.7 98.6994C245.7 98.6994 262.7 99.6994 263.4 81.6994C264.1 63.6994 263.4 36.6994 263.4 36.6994C263.4 36.6994 264 17.9994 245.7 17.9994C245.7 17.9994 249.4 1.69936 231.4 1.69936C213.4 1.69936 34.1001 1.69936 34.1001 1.69936C34.1001 1.69936 20.1001 0.999369 20.1001 17.9994C20.1001 17.9994 1.6001 18.2994 1.6001 36.4994C1.6001 54.6994 1.6001 79.9994 1.6001 79.9994C1.6001 79.9994 1.70009 98.6994 20.3001 98.6994Z" fill="#FAF8F1"/>
<path d="M29.9002 95.1992C29.9002 95.1992 26.2002 109.499 42.7002 109.799C59.2002 110.099 223.5 109.799 223.5 109.799C223.5 109.799 236.9 110.999 236 95.1992C236 95.1992 251.5 96.0992 252.2 79.6992C252.9 63.2992 252.2 38.4992 252.2 38.4992C252.2 38.4992 252.8 21.3992 236 21.3992C236 21.3992 239.4 6.49919 222.9 6.49919C206.4 6.49919 42.4002 6.49919 42.4002 6.49919C42.4002 6.49919 29.6002 5.89919 29.6002 21.3992C29.6002 21.3992 12.7002 21.6992 12.7002 38.2992C12.7002 54.8992 12.7002 78.0992 12.7002 78.0992C12.7002 78.0992 12.9002 95.1992 29.9002 95.1992Z" stroke="#DD1509" stroke-miterlimit="10"/>
<path d="M74.75 64.25C75.4404 64.25 76 63.6904 76 63C76 62.3096 75.4404 61.75 74.75 61.75C74.0596 61.75 73.5 62.3096 73.5 63C73.5 63.6904 74.0596 64.25 74.75 64.25Z" fill="#005DB6"/>
<path d="M67.25 54.25C67.9404 54.25 68.5 53.6904 68.5 53C68.5 52.3096 67.9404 51.75 67.25 51.75C66.5596 51.75 66 52.3096 66 53C66 53.6904 66.5596 54.25 67.25 54.25Z" fill="#005DB6"/>
<path d="M83.5 44.25H59.75C59.4175 44.25 59.1 44.3825 58.865 44.615L57.25 46.2325L55.635 44.615C55.4 44.3825 55.0825 44.25 54.75 44.25H48.5C47.1225 44.25 46 45.3725 46 46.75V69.25C46 70.63 47.1225 71.75 48.5 71.75H54.75C55.0825 71.75 55.4 71.6175 55.635 71.385L57.25 69.7675L58.865 71.3825C59.1 71.6175 59.4175 71.75 59.75 71.75H83.5C84.88 71.75 86 70.63 86 69.25V46.75C86 45.3725 84.88 44.25 83.5 44.25ZM58.5 66.75H56V64.25H58.5V66.75ZM58.5 61.75H56V59.25H58.5V61.75ZM58.5 56.75H56V54.25H58.5V56.75ZM58.5 51.75H56V49.25H58.5V51.75ZM67.25 49.25C69.3175 49.25 71 50.9325 71 53C71 55.0675 69.3175 56.75 67.25 56.75C65.1825 56.75 63.5 55.0675 63.5 53C63.5 50.9325 65.1825 49.25 67.25 49.25ZM64.75 66.75C64.4675 66.75 64.185 66.655 63.95 66.46C63.42 66.0175 63.3475 65.23 63.79 64.7L76.29 49.7C76.735 49.1675 77.5225 49.1025 78.05 49.54C78.58 49.9825 78.65 50.77 78.2075 51.3025L65.7075 66.3025C65.4625 66.595 65.1075 66.75 64.75 66.75ZM74.75 66.75C72.6825 66.75 71 65.0675 71 63C71 60.9325 72.6825 59.25 74.75 59.25C76.8175 59.25 78.5 60.9325 78.5 63C78.5 65.0675 76.8175 66.75 74.75 66.75Z" fill="#005DB6"/>
<path d="M144.012 37.706C144.168 37.37 144.426 37.202 144.786 37.202C145.026 37.202 145.242 37.286 145.434 37.454C145.626 37.61 145.722 37.802 145.722 38.03C145.722 38.114 145.692 38.228 145.632 38.372L140.556 49.496C140.472 49.688 140.34 49.838 140.16 49.946C139.98 50.054 139.788 50.108 139.584 50.108C139.38 50.108 139.182 50.054 138.99 49.946C138.81 49.838 138.678 49.688 138.594 49.496L133.536 38.372C133.476 38.228 133.446 38.114 133.446 38.03C133.446 37.79 133.542 37.592 133.734 37.436C133.938 37.28 134.16 37.202 134.4 37.202C134.772 37.202 135.036 37.37 135.192 37.706L139.602 47.588L144.012 37.706ZM150.304 50.126C149.44 50.126 148.678 49.94 148.018 49.568C147.37 49.196 146.866 48.668 146.506 47.984C146.158 47.288 145.984 46.484 145.984 45.572C145.984 44.648 146.158 43.844 146.506 43.16C146.866 42.464 147.37 41.93 148.018 41.558C148.678 41.186 149.44 41 150.304 41C151.168 41 151.924 41.186 152.572 41.558C153.232 41.93 153.736 42.464 154.084 43.16C154.444 43.844 154.624 44.648 154.624 45.572C154.624 46.484 154.444 47.288 154.084 47.984C153.736 48.668 153.232 49.196 152.572 49.568C151.924 49.94 151.168 50.126 150.304 50.126ZM150.304 48.686C151.108 48.686 151.72 48.422 152.14 47.894C152.572 47.366 152.788 46.592 152.788 45.572C152.788 44.564 152.572 43.796 152.14 43.268C151.708 42.728 151.096 42.458 150.304 42.458C149.512 42.458 148.9 42.728 148.468 43.268C148.036 43.796 147.82 44.564 147.82 45.572C147.82 46.592 148.03 47.366 148.45 47.894C148.882 48.422 149.5 48.686 150.304 48.686ZM163.812 41.036C164.088 41.036 164.304 41.114 164.46 41.27C164.628 41.426 164.712 41.642 164.712 41.918V49.244C164.712 49.496 164.628 49.7 164.46 49.856C164.292 50.012 164.07 50.09 163.794 50.09C163.542 50.09 163.338 50.018 163.182 49.874C163.026 49.718 162.948 49.514 162.948 49.262V48.578C162.672 49.082 162.288 49.466 161.796 49.73C161.316 49.994 160.776 50.126 160.176 50.126C158.04 50.126 156.972 48.95 156.972 46.598V41.918C156.972 41.642 157.05 41.426 157.206 41.27C157.374 41.114 157.602 41.036 157.89 41.036C158.166 41.036 158.382 41.114 158.538 41.27C158.706 41.426 158.79 41.642 158.79 41.918V46.58C158.79 47.288 158.934 47.81 159.222 48.146C159.51 48.482 159.954 48.65 160.554 48.65C161.262 48.65 161.826 48.422 162.246 47.966C162.678 47.51 162.894 46.904 162.894 46.148V41.918C162.894 41.654 162.978 41.444 163.146 41.288C163.314 41.12 163.536 41.036 163.812 41.036ZM171.378 50.126C170.526 50.126 169.776 49.94 169.128 49.568C168.492 49.196 167.994 48.668 167.634 47.984C167.286 47.3 167.112 46.508 167.112 45.608C167.112 44.696 167.292 43.892 167.652 43.196C168.024 42.5 168.54 41.96 169.2 41.576C169.86 41.192 170.616 41 171.468 41C171.924 41 172.38 41.066 172.836 41.198C173.304 41.33 173.718 41.51 174.078 41.738C174.462 42.002 174.654 42.308 174.654 42.656C174.654 42.86 174.6 43.034 174.492 43.178C174.384 43.31 174.246 43.376 174.078 43.376C173.97 43.376 173.862 43.352 173.754 43.304C173.646 43.244 173.508 43.16 173.34 43.052C173.04 42.86 172.758 42.716 172.494 42.62C172.242 42.512 171.936 42.458 171.576 42.458C170.76 42.458 170.124 42.734 169.668 43.286C169.224 43.838 169.002 44.606 169.002 45.59C169.002 46.574 169.224 47.336 169.668 47.876C170.112 48.404 170.742 48.668 171.558 48.668C171.918 48.668 172.236 48.614 172.512 48.506C172.788 48.398 173.07 48.254 173.358 48.074C173.49 47.99 173.622 47.918 173.754 47.858C173.886 47.798 174.006 47.768 174.114 47.768C174.282 47.768 174.42 47.84 174.528 47.984C174.636 48.116 174.69 48.284 174.69 48.488C174.69 48.656 174.642 48.812 174.546 48.956C174.462 49.088 174.312 49.226 174.096 49.37C173.736 49.61 173.316 49.796 172.836 49.928C172.356 50.06 171.87 50.126 171.378 50.126ZM181.429 41C183.517 41 184.561 42.182 184.561 44.546V49.226C184.561 49.49 184.477 49.7 184.309 49.856C184.141 50.012 183.919 50.09 183.643 50.09C183.367 50.09 183.145 50.012 182.977 49.856C182.821 49.7 182.743 49.49 182.743 49.226V44.564C182.743 43.844 182.593 43.316 182.293 42.98C182.005 42.644 181.549 42.476 180.925 42.476C180.193 42.476 179.605 42.704 179.161 43.16C178.717 43.616 178.495 44.228 178.495 44.996V49.226C178.495 49.49 178.411 49.7 178.243 49.856C178.087 50.012 177.871 50.09 177.595 50.09C177.319 50.09 177.097 50.012 176.929 49.856C176.761 49.7 176.677 49.49 176.677 49.226V38.084C176.677 37.82 176.761 37.61 176.929 37.454C177.109 37.298 177.337 37.22 177.613 37.22C177.877 37.22 178.087 37.298 178.243 37.454C178.411 37.598 178.495 37.796 178.495 38.048V42.548C178.795 42.044 179.197 41.66 179.701 41.396C180.205 41.132 180.781 41 181.429 41ZM194.284 47.786C194.452 47.786 194.59 47.852 194.698 47.984C194.806 48.116 194.86 48.284 194.86 48.488C194.86 48.836 194.644 49.13 194.212 49.37C193.792 49.61 193.33 49.796 192.826 49.928C192.334 50.06 191.86 50.126 191.404 50.126C190.012 50.126 188.914 49.724 188.11 48.92C187.306 48.104 186.904 46.994 186.904 45.59C186.904 44.69 187.078 43.892 187.426 43.196C187.786 42.5 188.284 41.96 188.92 41.576C189.568 41.192 190.3 41 191.116 41C192.292 41 193.222 41.378 193.906 42.134C194.59 42.89 194.932 43.91 194.932 45.194C194.932 45.674 194.716 45.914 194.284 45.914H188.722C188.842 47.774 189.736 48.704 191.404 48.704C191.848 48.704 192.232 48.644 192.556 48.524C192.88 48.404 193.222 48.248 193.582 48.056C193.618 48.032 193.714 47.984 193.87 47.912C194.038 47.828 194.176 47.786 194.284 47.786ZM191.152 42.332C190.456 42.332 189.898 42.554 189.478 42.998C189.058 43.442 188.806 44.066 188.722 44.87H193.366C193.33 44.054 193.12 43.43 192.736 42.998C192.364 42.554 191.836 42.332 191.152 42.332ZM201.904 41.036C202.48 41 202.768 41.246 202.768 41.774C202.768 42.038 202.702 42.236 202.57 42.368C202.438 42.5 202.21 42.578 201.886 42.602L201.346 42.656C200.59 42.728 200.026 42.992 199.654 43.448C199.294 43.904 199.114 44.456 199.114 45.104V49.226C199.114 49.514 199.03 49.73 198.862 49.874C198.694 50.018 198.478 50.09 198.214 50.09C197.95 50.09 197.728 50.018 197.548 49.874C197.38 49.73 197.296 49.514 197.296 49.226V41.9C197.296 41.624 197.38 41.414 197.548 41.27C197.728 41.114 197.95 41.036 198.214 41.036C198.454 41.036 198.652 41.114 198.808 41.27C198.976 41.414 199.06 41.618 199.06 41.882V42.746C199.3 42.218 199.648 41.816 200.104 41.54C200.56 41.264 201.076 41.102 201.652 41.054L201.904 41.036ZM135.568 71.264C136.544 71.536 137.296 72.032 137.824 72.752C138.368 73.472 138.64 74.352 138.64 75.392C138.64 76.832 138.12 77.96 137.08 78.776C136.056 79.592 134.64 80 132.832 80H126.64C126.176 80 125.808 79.872 125.536 79.616C125.28 79.36 125.152 79 125.152 78.536V64.544C125.152 64.08 125.28 63.72 125.536 63.464C125.808 63.208 126.176 63.08 126.64 63.08H132.592C134.352 63.08 135.728 63.472 136.72 64.256C137.728 65.024 138.232 66.104 138.232 67.496C138.232 68.392 137.992 69.168 137.512 69.824C137.048 70.48 136.4 70.96 135.568 71.264ZM128.176 70.208H132.088C134.216 70.208 135.28 69.416 135.28 67.832C135.28 67.032 135.016 66.44 134.488 66.056C133.96 65.672 133.16 65.48 132.088 65.48H128.176V70.208ZM132.496 77.6C133.616 77.6 134.432 77.4 134.944 77C135.456 76.6 135.712 75.976 135.712 75.128C135.712 74.28 135.448 73.648 134.92 73.232C134.408 72.816 133.6 72.608 132.496 72.608H128.176V77.6H132.496ZM146.839 67.976C148.471 67.976 149.679 68.384 150.463 69.2C151.263 70 151.663 71.224 151.663 72.872V78.728C151.663 79.16 151.535 79.504 151.279 79.76C151.023 80 150.671 80.12 150.223 80.12C149.807 80.12 149.463 79.992 149.191 79.736C148.935 79.48 148.807 79.144 148.807 78.728V78.2C148.535 78.824 148.103 79.312 147.511 79.664C146.935 80.016 146.263 80.192 145.495 80.192C144.711 80.192 143.999 80.032 143.359 79.712C142.719 79.392 142.215 78.952 141.847 78.392C141.479 77.832 141.295 77.208 141.295 76.52C141.295 75.656 141.511 74.976 141.943 74.48C142.391 73.984 143.111 73.624 144.103 73.4C145.095 73.176 146.463 73.064 148.207 73.064H148.807V72.512C148.807 71.728 148.639 71.16 148.303 70.808C147.967 70.44 147.423 70.256 146.671 70.256C146.207 70.256 145.735 70.328 145.255 70.472C144.775 70.6 144.207 70.792 143.551 71.048C143.135 71.256 142.831 71.36 142.639 71.36C142.351 71.36 142.111 71.256 141.919 71.048C141.743 70.84 141.655 70.568 141.655 70.232C141.655 69.96 141.719 69.728 141.847 69.536C141.991 69.328 142.223 69.136 142.543 68.96C143.103 68.656 143.767 68.416 144.535 68.24C145.319 68.064 146.087 67.976 146.839 67.976ZM146.095 78.032C146.895 78.032 147.543 77.768 148.039 77.24C148.551 76.696 148.807 76 148.807 75.152V74.648H148.375C147.303 74.648 146.471 74.696 145.879 74.792C145.287 74.888 144.863 75.056 144.607 75.296C144.351 75.536 144.223 75.864 144.223 76.28C144.223 76.792 144.399 77.216 144.751 77.552C145.119 77.872 145.567 78.032 146.095 78.032ZM150.175 64.208C150.063 64.272 149.935 64.304 149.791 64.304C149.599 64.304 149.431 64.24 149.287 64.112C149.159 63.968 149.095 63.8 149.095 63.608C149.095 63.448 149.159 63.28 149.287 63.104L150.775 61.208C151.079 60.84 151.407 60.656 151.759 60.656C152.063 60.656 152.335 60.776 152.575 61.016C152.815 61.256 152.935 61.536 152.935 61.856C152.935 62.32 152.687 62.688 152.191 62.96L150.175 64.208ZM144.919 66.608C144.759 66.752 144.559 66.824 144.319 66.824C144.063 66.824 143.839 66.736 143.647 66.56C143.455 66.384 143.359 66.176 143.359 65.936C143.359 65.616 143.527 65.344 143.863 65.12L145.735 63.608C146.103 63.336 146.471 63.2 146.839 63.2C147.207 63.2 147.575 63.336 147.943 63.608L149.815 65.12C150.135 65.36 150.295 65.632 150.295 65.936C150.295 66.176 150.199 66.392 150.007 66.584C149.815 66.76 149.599 66.848 149.359 66.848C149.167 66.848 148.983 66.776 148.807 66.632L146.839 64.904L144.919 66.608ZM161.288 77.912C162.088 77.96 162.488 78.32 162.488 78.992C162.488 79.376 162.328 79.672 162.008 79.88C161.704 80.072 161.264 80.152 160.688 80.12L160.04 80.072C157.352 79.88 156.008 78.44 156.008 75.752V70.52H154.808C154.376 70.52 154.04 70.424 153.8 70.232C153.576 70.04 153.464 69.76 153.464 69.392C153.464 69.024 153.576 68.744 153.8 68.552C154.04 68.36 154.376 68.264 154.808 68.264H156.008V66.056C156.008 65.624 156.144 65.28 156.416 65.024C156.688 64.768 157.056 64.64 157.52 64.64C157.968 64.64 158.328 64.768 158.6 65.024C158.872 65.28 159.008 65.624 159.008 66.056V68.264H161.048C161.48 68.264 161.808 68.36 162.032 68.552C162.272 68.744 162.392 69.024 162.392 69.392C162.392 69.76 162.272 70.04 162.032 70.232C161.808 70.424 161.48 70.52 161.048 70.52H159.008V75.968C159.008 77.152 159.552 77.784 160.64 77.864L161.288 77.912ZM184.607 62.96C185.055 62.96 185.407 63.104 185.663 63.392C185.935 63.664 186.071 64.032 186.071 64.496V78.584C186.071 79.048 185.935 79.424 185.663 79.712C185.391 80 185.039 80.144 184.607 80.144C184.095 80.144 183.703 79.96 183.431 79.592L174.671 68.192V78.584C174.671 79.048 174.543 79.424 174.287 79.712C174.031 80 173.679 80.144 173.231 80.144C172.783 80.144 172.431 80 172.175 79.712C171.919 79.424 171.791 79.048 171.791 78.584V64.496C171.791 64.032 171.927 63.664 172.199 63.392C172.471 63.104 172.831 62.96 173.279 62.96C173.775 62.96 174.159 63.144 174.431 63.512L183.167 74.864V64.496C183.167 64.032 183.295 63.664 183.551 63.392C183.823 63.104 184.175 62.96 184.607 62.96ZM199.872 68.024C200.32 68.024 200.68 68.152 200.952 68.408C201.224 68.664 201.36 69.008 201.36 69.44V78.92C201.36 80.76 200.848 82.152 199.824 83.096C198.8 84.04 197.288 84.512 195.288 84.512C193.544 84.512 192.088 84.184 190.92 83.528C190.328 83.176 190.032 82.752 190.032 82.256C190.032 81.904 190.112 81.624 190.272 81.416C190.448 81.208 190.672 81.104 190.944 81.104C191.088 81.104 191.264 81.136 191.472 81.2C191.68 81.28 191.896 81.368 192.12 81.464C192.696 81.704 193.208 81.888 193.656 82.016C194.12 82.144 194.648 82.208 195.24 82.208C197.336 82.208 198.384 81.184 198.384 79.136V77.6C198.032 78.256 197.52 78.768 196.848 79.136C196.176 79.488 195.408 79.664 194.544 79.664C193.52 79.664 192.608 79.424 191.808 78.944C191.024 78.448 190.408 77.76 189.96 76.88C189.512 76 189.288 74.984 189.288 73.832C189.288 72.68 189.504 71.664 189.936 70.784C190.384 69.888 191.008 69.2 191.808 68.72C192.608 68.224 193.52 67.976 194.544 67.976C195.408 67.976 196.176 68.16 196.848 68.528C197.52 68.88 198.032 69.384 198.384 70.04V69.416C198.384 69 198.52 68.664 198.792 68.408C199.064 68.152 199.424 68.024 199.872 68.024ZM195.336 77.336C196.296 77.336 197.04 77.024 197.568 76.4C198.112 75.776 198.384 74.92 198.384 73.832C198.384 72.728 198.112 71.864 197.568 71.24C197.04 70.616 196.296 70.304 195.336 70.304C194.392 70.304 193.648 70.616 193.104 71.24C192.56 71.864 192.288 72.728 192.288 73.832C192.288 74.92 192.56 75.776 193.104 76.4C193.648 77.024 194.392 77.336 195.336 77.336ZM214.427 69.464C215.035 69.992 215.491 70.656 215.795 71.456C216.115 72.24 216.275 73.12 216.275 74.096C216.275 75.328 216.027 76.408 215.531 77.336C215.051 78.248 214.355 78.952 213.443 79.448C212.547 79.944 211.499 80.192 210.299 80.192C209.099 80.192 208.043 79.944 207.131 79.448C206.235 78.952 205.539 78.248 205.043 77.336C204.547 76.408 204.299 75.328 204.299 74.096C204.299 72.848 204.547 71.768 205.043 70.856C205.539 69.928 206.235 69.216 207.131 68.72C208.043 68.224 209.099 67.976 210.299 67.976C210.635 67.976 211.027 68.008 211.475 68.072C211.715 68.12 211.939 68.144 212.147 68.144C212.707 68.144 213.139 68.008 213.443 67.736C213.747 67.448 213.931 66.968 213.995 66.296C214.091 65.384 214.579 64.928 215.459 64.928C215.875 64.928 216.179 65.04 216.371 65.264C216.579 65.472 216.683 65.808 216.683 66.272C216.683 66.992 216.483 67.64 216.083 68.216C215.683 68.792 215.131 69.208 214.427 69.464ZM210.275 77.864C211.251 77.864 211.995 77.552 212.507 76.928C213.019 76.288 213.275 75.344 213.275 74.096C213.275 72.848 213.019 71.904 212.507 71.264C211.995 70.608 211.259 70.28 210.299 70.28C209.339 70.28 208.595 70.608 208.067 71.264C207.555 71.904 207.299 72.848 207.299 74.096C207.299 75.328 207.555 76.264 208.067 76.904C208.579 77.544 209.315 77.864 210.275 77.864ZM206.603 64.136C206.171 63.816 205.955 63.432 205.955 62.984C205.955 62.648 206.083 62.36 206.339 62.12C206.595 61.864 206.899 61.736 207.251 61.736C207.715 61.736 208.131 61.976 208.499 62.456L210.827 65.552C210.955 65.696 211.019 65.872 211.019 66.08C211.019 66.288 210.939 66.472 210.779 66.632C210.635 66.776 210.459 66.848 210.251 66.848C210.059 66.848 209.875 66.784 209.699 66.656L206.603 64.136Z" fill="#005DB6"/>
</g>
<defs>
<clipPath id="clip0">
<rect width="273" height="121" fill="white"/>
</clipPath>
</defs>
</svg>
