<svg width="12" height="20" viewBox="0 0 12 20" fill="none" xmlns="http://www.w3.org/2000/svg">
<path d="M10.0928 0L12 1.9072L3.9072 10L12 18.0928L10.0928 20L1.0464 10.9536C0.519016 10.4262 0.519016 9.57378 1.0464 9.0464L10.0928 0Z" fill="#FFC303"/>
</svg>
