<svg width="18" height="18" viewBox="0 0 18 18" fill="none" xmlns="http://www.w3.org/2000/svg">
<path fill-rule="evenodd" clip-rule="evenodd" d="M9.0013 1.91797C5.09547 1.91797 1.91797 5.09547 1.91797 9.0013C1.91797 12.9071 5.09547 16.0846 9.0013 16.0846C12.9071 16.0846 16.0846 12.9071 16.0846 9.0013C16.0846 5.09547 12.9071 1.91797 9.0013 1.91797ZM9.0013 17.3346C4.4063 17.3346 0.667969 13.5963 0.667969 9.0013C0.667969 4.4063 4.4063 0.667969 9.0013 0.667969C13.5963 0.667969 17.3346 4.4063 17.3346 9.0013C17.3346 13.5963 13.5963 17.3346 9.0013 17.3346Z" fill="#8C8C8C"/>
<path fill-rule="evenodd" clip-rule="evenodd" d="M8.99609 10.1473C8.65109 10.1473 8.37109 9.86734 8.37109 9.52234V5.83984C8.37109 5.49484 8.65109 5.21484 8.99609 5.21484C9.34109 5.21484 9.62109 5.49484 9.62109 5.83984V9.52234C9.62109 9.86734 9.34109 10.1473 8.99609 10.1473Z" fill="#8C8C8C"/>
<path fill-rule="evenodd" clip-rule="evenodd" d="M9.00547 12.9987C8.54464 12.9987 8.16797 12.6262 8.16797 12.1654C8.16797 11.7045 8.53714 11.332 8.99714 11.332H9.00547C9.4663 11.332 9.8388 11.7045 9.8388 12.1654C9.8388 12.6262 9.4663 12.9987 9.00547 12.9987Z" fill="#8C8C8C"/>
</svg>
